\relax 
\providecommand\hyper@newdestlabel[2]{}
\providecommand\HyperFirstAtBeginDocument{\AtBeginDocument}
\HyperFirstAtBeginDocument{\ifx\hyper@anchor\@undefined
\global\let\oldcontentsline\contentsline
\gdef\contentsline#1#2#3#4{\oldcontentsline{#1}{#2}{#3}}
\global\let\oldnewlabel\newlabel
\gdef\newlabel#1#2{\newlabelxx{#1}#2}
\gdef\newlabelxx#1#2#3#4#5#6{\oldnewlabel{#1}{{#2}{#3}}}
\AtEndDocument{\ifx\hyper@anchor\@undefined
\let\contentsline\oldcontentsline
\let\newlabel\oldnewlabel
\fi}
\fi}
\global\let\hyper@last\relax 
\gdef\HyperFirstAtBeginDocument#1{#1}
\providecommand\HyField@AuxAddToFields[1]{}
\providecommand\HyField@AuxAddToCoFields[2]{}
\select@language{UKenglish}
\@writefile{toc}{\select@language{UKenglish}}
\@writefile{lof}{\select@language{UKenglish}}
\@writefile{lot}{\select@language{UKenglish}}
\@input{Pol8TeV/Introduction.aux}
\@input{Pol8TeV/Observables.aux}
\@input{Pol8TeV/Truth.aux}
\@input{Pol8TeV/Selection.aux}
\@input{Pol8TeV/Reconstruction.aux}
\@input{Pol8TeV/Unfolding.aux}
\@input{Pol8TeV/Systematics.aux}
\@input{Pol8TeV/Results.aux}
\citation{spinobspaper}
\@writefile{toc}{\contentsline {section}{\numberline {9}Conclusion}{62}{section.9}}
\newlabel{sec:conclusion}{{9}{62}{Conclusion}{section.9}{}}
\newlabel{sec:conclusion@cref}{{[section][9][]9}{62}}
\@input{Pol8TeV/AppendixB.aux}
\@input{Pol8TeV/AppendixC.aux}
\@input{Pol8TeV/FakesEstimate.aux}
\@input{Pol8TeV/AppendixKIN.aux}
\@input{Pol8TeV/AppendixSystTables.aux}
\@input{Pol8TeV/AppendixFidCalib.aux}
\@input{Pol8TeV/AppendixMeanCalib.aux}
\@input{Pol8TeV/AppendixEeChan.aux}
\@input{Pol8TeV/AppendixEnsembleTests.aux}
\@input{Pol8TeV/AppendixCorrelations.aux}
\@input{Pol8TeV/AppendixMass.aux}
\@input{Pol8TeV/AppendixBkgSyst.aux}
\@input{Pol8TeV/AppendixTopPt.aux}
\bibstyle{bibtex/bst/atlasBibStyleWithTitle}
\bibdata{Pol8TeV}
\bibcite{topdisc1}{1}
\bibcite{topdisc2}{2}
\bibcite{cdf_asym_early}{3}
\bibcite{dzero_asym_early}{4}
\bibcite{cdf_asym_new}{5}
\bibcite{dzero_asym_new}{6}
\bibcite{theo_asym_new}{7}
\bibcite{pseudotop}{8}
\bibcite{spin_anapow_lep}{9}
\bibcite{atlas_pol}{10}
\bibcite{atlas_spincorr}{11}
\bibcite{cms_spinpol}{12}
\bibcite{bernreuther_8tev}{13}
\bibcite{baumgart_transpol}{14}
\bibcite{powhegbox}{15}
\bibcite{pythia6}{16}
\bibcite{alpgen}{17}
\bibcite{herwig}{18}
\bibcite{spinobspaper}{19}
\bibcite{TopCommonObj}{20}
\bibcite{top_objects}{21}
\bibcite{Guindon:1638000}{22}
\bibcite{SpinCorrNote}{23}
\bibcite{TopSysUncertainties}{24}
\bibcite{ttV_norm_unc}{25}
\bibcite{Abulencia:2006js}{26}
\bibcite{Aaltonen:2012tk}{27}
\bibcite{Abazov:2004cs}{28}
\bibcite{ATLAS-CONF-2012-057}{29}
\bibcite{Abbott:1997fv}{30}
\bibcite{Borroni:1536502}{31}
\bibcite{mt2reco}{32}
\bibcite{KinRecoNote}{33}
\bibcite{Erdmann:2013rxa}{34}
\bibcite{FBU}{35}
\bibcite{PyFBU}{36}
\bibcite{top_systematics}{37}
\bibcite{mcatnlo}{38}
\bibcite{toppdf}{39}
\bibcite{lhapdf}{40}
\bibcite{top_object_selection}{41}
\bibcite{Fakes8TeV}{42}
\bibcite{NumerRecip}{43}
\bibcite{ATLAS:2011qia}{44}
