\relax 
\providecommand\hyper@newdestlabel[2]{}
\@writefile{toc}{\contentsline {section}{\numberline {J}Observable correlations}{211}{appendix.J}}
\newlabel{app:correlations}{{J}{211}{Observable correlations}{appendix.J}{}}
\newlabel{app:correlations@cref}{{[appendix][10][2147483647]J}{211}}
\@writefile{toc}{\contentsline {subsection}{\numberline {J.1}Reco level: KIN method}{211}{subsection.J.1}}
\@writefile{lof}{\contentsline {figure}{\numberline {200}{\ignorespaces Scatter plots of the \ensuremath  {\qopname  \relax o{cos}\theta }\xspace  in the helicity and transverse axes (left) and the \ensuremath  {\qopname  \relax o{cos}\theta _{1} \qopname  \relax o{cos}\theta _{2}}\xspace  in the helicity and r-axes. The correlation between the variables is computed from these distributions.\relax }}{211}{figure.caption.252}}
\newlabel{fig:app_corr_examples}{{200}{211}{Scatter plots of the \costheta in the helicity and transverse axes (left) and the \coscos in the helicity and r-axes. The correlation between the variables is computed from these distributions.\relax }{figure.caption.252}{}}
\newlabel{fig:app_corr_examples@cref}{{[figure][200][2147483647]200}{211}}
\@writefile{toc}{\contentsline {subsection}{\numberline {J.2}Unfolded level: NW method}{211}{subsection.J.2}}
\@writefile{lof}{\contentsline {figure}{\numberline {201}{\ignorespaces The correlations between the variables of the corresponding observables at reco (KIN method) level.\relax }}{212}{figure.caption.253}}
\newlabel{fig:app_correlation_plot}{{201}{212}{The correlations between the variables of the corresponding observables at reco (KIN method) level.\relax }{figure.caption.253}{}}
\newlabel{fig:app_correlation_plot@cref}{{[figure][201][2147483647]201}{212}}
\@writefile{lof}{\contentsline {figure}{\numberline {202}{\ignorespaces The correlations between the variables of the corresponding observables at unfolded (parton) level\relax }}{213}{figure.caption.254}}
\newlabel{fig:app_correlation_unf_plot}{{202}{213}{The correlations between the variables of the corresponding observables at unfolded (parton) level\relax }{figure.caption.254}{}}
\newlabel{fig:app_correlation_unf_plot@cref}{{[figure][202][2147483647]202}{213}}
\@setckpt{Pol8TeV/AppendixCorrelations}{
\setcounter{page}{214}
\setcounter{equation}{18}
\setcounter{enumi}{0}
\setcounter{enumii}{0}
\setcounter{enumiii}{0}
\setcounter{enumiv}{0}
\setcounter{footnote}{2}
\setcounter{mpfootnote}{0}
\setcounter{part}{0}
\setcounter{section}{10}
\setcounter{subsection}{2}
\setcounter{subsubsection}{0}
\setcounter{paragraph}{0}
\setcounter{subparagraph}{0}
\setcounter{figure}{202}
\setcounter{table}{44}
\setcounter{Item}{0}
\setcounter{Hfootnote}{2}
\setcounter{bookmark@seq@number}{71}
\setcounter{parentequation}{0}
\setcounter{linenumber}{1412}
\setcounter{LN@truepage}{213}
\setcounter{ContinuedFloat}{0}
\setcounter{KVtest}{0}
\setcounter{subfigure}{0}
\setcounter{subfigure@save}{6}
\setcounter{lofdepth}{1}
\setcounter{subtable}{0}
\setcounter{subtable@save}{0}
\setcounter{lotdepth}{1}
\setcounter{Maxaffil}{0}
\setcounter{authors}{5}
\setcounter{affil}{1}
\setcounter{section@level}{2}
}
