\relax 
\providecommand\hyper@newdestlabel[2]{}
\@writefile{toc}{\contentsline {section}{\numberline {I}Ensemble Tests}{206}{appendix.I}}
\newlabel{app:ensembles}{{I}{206}{Ensemble Tests}{appendix.I}{}}
\newlabel{app:ensembles@cref}{{[appendix][9][2147483647]I}{206}}
\@writefile{toc}{\contentsline {subsection}{\numberline {I.1}Partonic}{206}{subsection.I.1}}
\@writefile{lof}{\contentsline {figure}{\numberline {196}{\ignorespaces Results of 1000 ensemble tests for the helicity correlation. The distribution is fitted with a Gaussian distribution and its width taken as uncertainty.\relax }}{206}{figure.caption.247}}
\newlabel{fig:app_ens_parton_helcorr}{{196}{206}{Results of 1000 ensemble tests for the helicity correlation. The distribution is fitted with a Gaussian distribution and its width taken as uncertainty.\relax }{figure.caption.247}{}}
\newlabel{fig:app_ens_parton_helcorr@cref}{{[figure][196][2147483647]196}{206}}
\@writefile{toc}{\contentsline {subsection}{\numberline {I.2}Stable-particle}{206}{subsection.I.2}}
\@writefile{lot}{\contentsline {table}{\numberline {44}{\ignorespaces Uncertainties obtained from ensemble testing and the unfolding. The ensemble testing for the transverse polarization is missing.\relax }}{207}{table.caption.248}}
\newlabel{tab:ens_stat_parton}{{44}{207}{Uncertainties obtained from ensemble testing and the unfolding. The ensemble testing for the transverse polarization is missing.\relax }{table.caption.248}{}}
\newlabel{tab:ens_stat_parton@cref}{{[table][44][2147483647]44}{207}}
\@writefile{lof}{\contentsline {figure}{\numberline {197}{\ignorespaces Ensemble tests for the polarization observables. Shown are the MC truth distribution, the nominal unfolded distribution and the distribution created from the ensemble tests. In the bottom pad, the ratio with respect to the truth distribution is shown and the bin uncertainties divided by the uncertainty of the unfolded distribution bins.\relax }}{208}{figure.caption.249}}
\newlabel{fig:app_ens_particle1}{{197}{208}{Ensemble tests for the polarization observables. Shown are the MC truth distribution, the nominal unfolded distribution and the distribution created from the ensemble tests. In the bottom pad, the ratio with respect to the truth distribution is shown and the bin uncertainties divided by the uncertainty of the unfolded distribution bins.\relax }{figure.caption.249}{}}
\newlabel{fig:app_ens_particle1@cref}{{[figure][197][2147483647]197}{208}}
\@writefile{lof}{\contentsline {subfigure}{\numberline{(a)}{\ignorespaces {\ensuremath {B_{k}^{+}}\xspace }}}{208}{subfigure.197.1}}
\@writefile{lof}{\contentsline {subfigure}{\numberline{(b)}{\ignorespaces {\ensuremath {B_{k}^{-}}\xspace }}}{208}{subfigure.197.2}}
\@writefile{lof}{\contentsline {subfigure}{\numberline{(c)}{\ignorespaces {\ensuremath {B_{n}^{+}}\xspace }}}{208}{subfigure.197.3}}
\@writefile{lof}{\contentsline {subfigure}{\numberline{(d)}{\ignorespaces {\ensuremath {B_{n}^{-}}\xspace }}}{208}{subfigure.197.4}}
\@writefile{lof}{\contentsline {subfigure}{\numberline{(e)}{\ignorespaces {\ensuremath {B_{r}^{+}}\xspace }}}{208}{subfigure.197.5}}
\@writefile{lof}{\contentsline {subfigure}{\numberline{(f)}{\ignorespaces {\ensuremath {B_{r}^{-}}\xspace }}}{208}{subfigure.197.6}}
\@writefile{lof}{\contentsline {figure}{\numberline {198}{\ignorespaces Ensemble tests for the spin correlation observables. Shown are the MC truth distribution, the nominal unfolded distribution and the distribution created from the ensemble tests. In the bottom pad, the ratio with respect to the truth distribution is shown and the bin uncertainties divided by the uncertainty of the unfolded distribution bins.\relax }}{209}{figure.caption.250}}
\newlabel{fig:app_ens_particle2}{{198}{209}{Ensemble tests for the spin correlation observables. Shown are the MC truth distribution, the nominal unfolded distribution and the distribution created from the ensemble tests. In the bottom pad, the ratio with respect to the truth distribution is shown and the bin uncertainties divided by the uncertainty of the unfolded distribution bins.\relax }{figure.caption.250}{}}
\newlabel{fig:app_ens_particle2@cref}{{[figure][198][2147483647]198}{209}}
\@writefile{lof}{\contentsline {subfigure}{\numberline{(a)}{\ignorespaces {\ensuremath {C(k,k)}\xspace }}}{209}{subfigure.198.1}}
\@writefile{lof}{\contentsline {subfigure}{\numberline{(b)}{\ignorespaces {\ensuremath {C(n,n)}\xspace }}}{209}{subfigure.198.2}}
\@writefile{lof}{\contentsline {subfigure}{\numberline{(c)}{\ignorespaces {\ensuremath {C(r,r)}\xspace }}}{209}{subfigure.198.3}}
\@writefile{lof}{\contentsline {figure}{\numberline {199}{\ignorespaces Ensemble tests for the cross correlation observables. Shown are the MC truth distribution, the nominal unfolded distribution and the distribution created from the ensemble tests. In the bottom pad, the ratio with respect to the truth distribution is shown and the bin uncertainties divided by the uncertainty of the unfolded distribution bins.\relax }}{210}{figure.caption.251}}
\newlabel{fig:app_ens_particle1}{{199}{210}{Ensemble tests for the cross correlation observables. Shown are the MC truth distribution, the nominal unfolded distribution and the distribution created from the ensemble tests. In the bottom pad, the ratio with respect to the truth distribution is shown and the bin uncertainties divided by the uncertainty of the unfolded distribution bins.\relax }{figure.caption.251}{}}
\newlabel{fig:app_ens_particle1@cref}{{[figure][199][2147483647]199}{210}}
\@writefile{lof}{\contentsline {subfigure}{\numberline{(a)}{\ignorespaces {\ensuremath {C(n,k)+C(k,n)}\xspace }}}{210}{subfigure.199.1}}
\@writefile{lof}{\contentsline {subfigure}{\numberline{(b)}{\ignorespaces {\ensuremath {C(n,k)-C(k,n)}\xspace }}}{210}{subfigure.199.2}}
\@writefile{lof}{\contentsline {subfigure}{\numberline{(c)}{\ignorespaces {\ensuremath {C(n,r)+C(r,n)}\xspace }}}{210}{subfigure.199.3}}
\@writefile{lof}{\contentsline {subfigure}{\numberline{(d)}{\ignorespaces {\ensuremath {C(n,r)-C(r,n)}\xspace }}}{210}{subfigure.199.4}}
\@writefile{lof}{\contentsline {subfigure}{\numberline{(e)}{\ignorespaces {\ensuremath {C(r,k)+C(k,r)}\xspace }}}{210}{subfigure.199.5}}
\@writefile{lof}{\contentsline {subfigure}{\numberline{(f)}{\ignorespaces {\ensuremath {C(r,k)-C(k,r)}\xspace }}}{210}{subfigure.199.6}}
\@setckpt{Pol8TeV/AppendixEnsembleTests}{
\setcounter{page}{211}
\setcounter{equation}{18}
\setcounter{enumi}{0}
\setcounter{enumii}{0}
\setcounter{enumiii}{0}
\setcounter{enumiv}{0}
\setcounter{footnote}{2}
\setcounter{mpfootnote}{0}
\setcounter{part}{0}
\setcounter{section}{9}
\setcounter{subsection}{2}
\setcounter{subsubsection}{0}
\setcounter{paragraph}{0}
\setcounter{subparagraph}{0}
\setcounter{figure}{199}
\setcounter{table}{44}
\setcounter{Item}{0}
\setcounter{Hfootnote}{2}
\setcounter{bookmark@seq@number}{68}
\setcounter{parentequation}{0}
\setcounter{linenumber}{1388}
\setcounter{LN@truepage}{210}
\setcounter{ContinuedFloat}{0}
\setcounter{KVtest}{0}
\setcounter{subfigure}{0}
\setcounter{subfigure@save}{6}
\setcounter{lofdepth}{1}
\setcounter{subtable}{0}
\setcounter{subtable@save}{0}
\setcounter{lotdepth}{1}
\setcounter{Maxaffil}{0}
\setcounter{authors}{5}
\setcounter{affil}{1}
\setcounter{section@level}{2}
}
