\relax 
\providecommand\hyper@newdestlabel[2]{}
\@writefile{toc}{\contentsline {section}{\numberline {H}EE channel}{199}{appendix.H}}
\newlabel{app:ee_channel}{{H}{199}{EE channel}{appendix.H}{}}
\newlabel{app:ee_channel@cref}{{[appendix][8][2147483647]H}{199}}
\@writefile{lof}{\contentsline {figure}{\numberline {188}{\ignorespaces Comparison of expectation and data, where the expectation is normalized to the data yield in order to be sensitive to only shape effects. The figures show the leading and subleading jet \ensuremath  {p_{\text  {T}}}\xspace  and $\ensuremath  {\etaa }\xspace  $ distributions for $ee$\xspace  (left), $\mu \mu $\xspace  (middle) and $e\mu $\xspace  (right) separately. \relax }}{200}{figure.caption.239}}
\newlabel{fig:app_dataMC1}{{188}{200}{Comparison of expectation and data, where the expectation is normalized to the data yield in order to be sensitive to only shape effects. The figures show the leading and subleading jet \pt and $\eta $ distributions for \eeme (left), \mumume (middle) and \emume (right) separately. \relax }{figure.caption.239}{}}
\newlabel{fig:app_dataMC1@cref}{{[figure][188][2147483647]188}{200}}
\@writefile{lof}{\contentsline {figure}{\numberline {189}{\ignorespaces Comparison of expectation and data, where the expectation is normalized to the data yield in order to be sensitive to only shape effects. The figures show the leading and subleading lepton \ensuremath  {p_{\text  {T}}}\xspace  and $\ensuremath  {\etaa }\xspace  $ distributions for $ee$\xspace  (left), $\mu \mu $\xspace  (middle) and $e\mu $\xspace  (right) separately.\relax }}{201}{figure.caption.240}}
\newlabel{fig:app_dataMC2}{{189}{201}{Comparison of expectation and data, where the expectation is normalized to the data yield in order to be sensitive to only shape effects. The figures show the leading and subleading lepton \pt and $\eta $ distributions for \eeme (left), \mumume (middle) and \emume (right) separately.\relax }{figure.caption.240}{}}
\newlabel{fig:app_dataMC2@cref}{{[figure][189][2147483647]189}{201}}
\@writefile{lof}{\contentsline {figure}{\numberline {190}{\ignorespaces Comparison of expectation and data, where the expectation is normalized to the data yield in order to be sensitive to only shape effects. The figures show the top and antitop \ensuremath  {p_{\text  {T}}}\xspace  and $\ensuremath  {\etaa }\xspace  $ distributions for $ee$\xspace  (left), $\mu \mu $\xspace  (middle) and $e\mu $\xspace  (right) separately.\relax }}{202}{figure.caption.241}}
\newlabel{fig:app_dataMC3}{{190}{202}{Comparison of expectation and data, where the expectation is normalized to the data yield in order to be sensitive to only shape effects. The figures show the top and antitop \pt and $\eta $ distributions for \eeme (left), \mumume (middle) and \emume (right) separately.\relax }{figure.caption.241}{}}
\newlabel{fig:app_dataMC3@cref}{{[figure][190][2147483647]190}{202}}
\@writefile{lof}{\contentsline {figure}{\numberline {191}{\ignorespaces Comparison of expectation and data, where the expectation is normalized to the data yield in order to be sensitive to only shape effects. The figures show the neutrino and antineutrino \ensuremath  {p_{\text  {T}}}\xspace  and $\ensuremath  {\etaa }\xspace  $ distributions for $ee$\xspace  (left), $\mu \mu $\xspace  (middle) and $e\mu $\xspace  (right) separately.\relax }}{203}{figure.caption.242}}
\newlabel{fig:app_dataMC4}{{191}{203}{Comparison of expectation and data, where the expectation is normalized to the data yield in order to be sensitive to only shape effects. The figures show the neutrino and antineutrino \pt and $\eta $ distributions for \eeme (left), \mumume (middle) and \emume (right) separately.\relax }{figure.caption.242}{}}
\newlabel{fig:app_dataMC4@cref}{{[figure][191][2147483647]191}{203}}
\@writefile{lof}{\contentsline {figure}{\numberline {192}{\ignorespaces Comparison of expectation and data, where the expectation is normalized to the data yield in order to be sensitive to only shape effects. The figures show the \ensuremath  {t\bar {t}}\xspace  mass and\ensuremath  {E_{\text  {T}}^{\text  {miss}}}\xspace  distributions for $ee$\xspace  (left), $\mu \mu $\xspace  (middle) and $e\mu $\xspace  (right) separately.\relax }}{204}{figure.caption.243}}
\newlabel{fig:app_dataMC5}{{192}{204}{Comparison of expectation and data, where the expectation is normalized to the data yield in order to be sensitive to only shape effects. The figures show the \ttbar mass and\met distributions for \eeme (left), \mumume (middle) and \emume (right) separately.\relax }{figure.caption.243}{}}
\newlabel{fig:app_dataMC5@cref}{{[figure][192][2147483647]192}{204}}
\@writefile{lof}{\contentsline {figure}{\numberline {193}{\ignorespaces Comparison of expectation and data, where the expectation is normalized to the data yield in order to be sensitive to only shape effects. The figures show the polarizations in the different axes for each channel. The channels are separately normalized to data.\relax }}{204}{figure.caption.244}}
\newlabel{fig:app_dataMC6}{{193}{204}{Comparison of expectation and data, where the expectation is normalized to the data yield in order to be sensitive to only shape effects. The figures show the polarizations in the different axes for each channel. The channels are separately normalized to data.\relax }{figure.caption.244}{}}
\newlabel{fig:app_dataMC6@cref}{{[figure][193][2147483647]193}{204}}
\@writefile{lof}{\contentsline {figure}{\numberline {194}{\ignorespaces Comparison of expectation and data, where the expectation is normalized to the data yield in order to be sensitive to only shape effects. The figures show the spin correlations in the different axes for each channel. The channels are separately normalized to data.\relax }}{205}{figure.caption.245}}
\newlabel{fig:app_dataMC7}{{194}{205}{Comparison of expectation and data, where the expectation is normalized to the data yield in order to be sensitive to only shape effects. The figures show the spin correlations in the different axes for each channel. The channels are separately normalized to data.\relax }{figure.caption.245}{}}
\newlabel{fig:app_dataMC7@cref}{{[figure][194][2147483647]194}{205}}
\@writefile{lof}{\contentsline {figure}{\numberline {195}{\ignorespaces Comparison of expectation and data, where the expectation is normalized to the data yield in order to be sensitive to only shape effects. The figures show the cross correlations in the different axes for each channel. The channels are separately normalized to data.\relax }}{205}{figure.caption.246}}
\newlabel{fig:app_dataMC6}{{195}{205}{Comparison of expectation and data, where the expectation is normalized to the data yield in order to be sensitive to only shape effects. The figures show the cross correlations in the different axes for each channel. The channels are separately normalized to data.\relax }{figure.caption.246}{}}
\newlabel{fig:app_dataMC6@cref}{{[figure][195][2147483647]195}{205}}
\@setckpt{Pol8TeV/AppendixEeChan}{
\setcounter{page}{206}
\setcounter{equation}{18}
\setcounter{enumi}{0}
\setcounter{enumii}{0}
\setcounter{enumiii}{0}
\setcounter{enumiv}{0}
\setcounter{footnote}{2}
\setcounter{mpfootnote}{0}
\setcounter{part}{0}
\setcounter{section}{8}
\setcounter{subsection}{0}
\setcounter{subsubsection}{0}
\setcounter{paragraph}{0}
\setcounter{subparagraph}{0}
\setcounter{figure}{195}
\setcounter{table}{43}
\setcounter{Item}{0}
\setcounter{Hfootnote}{2}
\setcounter{bookmark@seq@number}{65}
\setcounter{parentequation}{0}
\setcounter{linenumber}{1359}
\setcounter{LN@truepage}{205}
\setcounter{ContinuedFloat}{0}
\setcounter{KVtest}{0}
\setcounter{subfigure}{0}
\setcounter{subfigure@save}{3}
\setcounter{lofdepth}{1}
\setcounter{subtable}{0}
\setcounter{subtable@save}{0}
\setcounter{lotdepth}{1}
\setcounter{Maxaffil}{0}
\setcounter{authors}{5}
\setcounter{affil}{1}
\setcounter{section@level}{1}
}
