\relax 
\providecommand\hyper@newdestlabel[2]{}
\@writefile{toc}{\contentsline {section}{\numberline {G}Mean calibration}{198}{appendix.G}}
\newlabel{app:mean_calib}{{G}{198}{Mean calibration}{appendix.G}{}}
\newlabel{app:mean_calib@cref}{{[appendix][7][2147483647]G}{198}}
\@writefile{lof}{\contentsline {figure}{\numberline {187}{\ignorespaces The mean of the truth helicity correlation histogram vs. the mean of the helicity correlation distribution. (both multiplied by -9)\relax }}{198}{figure.caption.238}}
\newlabel{fig:app_mean_calib}{{187}{198}{The mean of the truth helicity correlation histogram vs. the mean of the helicity correlation distribution. (both multiplied by -9)\relax }{figure.caption.238}{}}
\newlabel{fig:app_mean_calib@cref}{{[figure][187][2147483647]187}{198}}
\@setckpt{Pol8TeV/AppendixMeanCalib}{
\setcounter{page}{199}
\setcounter{equation}{18}
\setcounter{enumi}{0}
\setcounter{enumii}{0}
\setcounter{enumiii}{0}
\setcounter{enumiv}{0}
\setcounter{footnote}{2}
\setcounter{mpfootnote}{0}
\setcounter{part}{0}
\setcounter{section}{7}
\setcounter{subsection}{0}
\setcounter{subsubsection}{0}
\setcounter{paragraph}{0}
\setcounter{subparagraph}{0}
\setcounter{figure}{187}
\setcounter{table}{43}
\setcounter{Item}{0}
\setcounter{Hfootnote}{2}
\setcounter{bookmark@seq@number}{64}
\setcounter{parentequation}{0}
\setcounter{linenumber}{1346}
\setcounter{LN@truepage}{198}
\setcounter{ContinuedFloat}{0}
\setcounter{KVtest}{0}
\setcounter{subfigure}{0}
\setcounter{subfigure@save}{3}
\setcounter{lofdepth}{1}
\setcounter{subtable}{0}
\setcounter{subtable@save}{0}
\setcounter{lotdepth}{1}
\setcounter{Maxaffil}{0}
\setcounter{authors}{5}
\setcounter{affil}{1}
\setcounter{section@level}{1}
}
