PWD /home/naranjo/Documents/Notes/spin-note/Pol8TeV
INPUT /usr/share/texmf-dist/web2c/texmf.cnf
INPUT /var/lib/texmf/web2c/pdftex/pdflatex.fmt
INPUT AppendixC.tex
OUTPUT AppendixC.log
INPUT /usr/share/texmf-dist/fonts/map/fontname/texfonts.map
INPUT /usr/share/texmf-dist/fonts/tfm/public/cm/cmbx10.tfm
OUTPUT AppendixC.pdf
INPUT /var/lib/texmf/fonts/map/pdftex/updmap/pdftex.map
