\relax 
\providecommand\hyper@newdestlabel[2]{}
\@writefile{lot}{\contentsline {table}{\numberline {47}{\ignorespaces Uncertainties coming from the single top background by comparing DR and DS generation schemes.\relax }}{222}{table.caption.269}}
\newlabel{tab:single_top_unc}{{47}{222}{Uncertainties coming from the single top background by comparing DR and DS generation schemes.\relax }{table.caption.269}{}}
\newlabel{tab:single_top_unc@cref}{{[table][47][2147483647]47}{222}}
\@writefile{toc}{\contentsline {section}{\numberline {L}Background shapes}{222}{appendix.L}}
\newlabel{app:bkg_shapes}{{L}{222}{Background shapes}{appendix.L}{}}
\newlabel{app:bkg_shapes@cref}{{[appendix][12][2147483647]L}{222}}
\@writefile{toc}{\contentsline {subsection}{\numberline {L.1}Single-top}{222}{subsection.L.1}}
\@writefile{toc}{\contentsline {subsection}{\numberline {L.2}Drell-Yan}{222}{subsection.L.2}}
\@writefile{lot}{\contentsline {table}{\numberline {48}{\ignorespaces Fraction of event below, within and above the $Z$-mass window for Alpgen+Pythia and Sherpa for both $ee$\xspace  and $\mu \mu $\xspace  channels. (Uncertainties will follow)\relax }}{223}{table.caption.270}}
\newlabel{tab:zjets_gen_fractions}{{48}{223}{Fraction of event below, within and above the $Z$-mass window for Alpgen+Pythia and Sherpa for both \eeme and \mumume channels. (Uncertainties will follow)\relax }{table.caption.270}{}}
\newlabel{tab:zjets_gen_fractions@cref}{{[table][48][2147483647]48}{223}}
\@writefile{lof}{\contentsline {figure}{\numberline {215}{\ignorespaces Data/expectation comparison in the signal region including the $Z$-mass window in the $ee$\xspace  -channel for both Alpgen+Pythia (left) and Sherpa (right) samples for the Drell-Yan background.\relax }}{223}{figure.caption.271}}
\newlabel{fig:app_zjets_comp_ee}{{215}{223}{Data/expectation comparison in the signal region including the $Z$-mass window in the \eeme -channel for both Alpgen+Pythia (left) and Sherpa (right) samples for the Drell-Yan background.\relax }{figure.caption.271}{}}
\newlabel{fig:app_zjets_comp_ee@cref}{{[figure][215][2147483647]215}{223}}
\@writefile{lof}{\contentsline {figure}{\numberline {216}{\ignorespaces Data/expectation comparison in the signal region including the $Z$-mass window in the $\mu \mu $\xspace  -channel for both Alpgen+Pythia (left) and Sherpa (right) samples for the Drell-Yan background.\relax }}{224}{figure.caption.272}}
\newlabel{fig:app_zjets_comp_mm}{{216}{224}{Data/expectation comparison in the signal region including the $Z$-mass window in the \mumume -channel for both Alpgen+Pythia (left) and Sherpa (right) samples for the Drell-Yan background.\relax }{figure.caption.272}{}}
\newlabel{fig:app_zjets_comp_mm@cref}{{[figure][216][2147483647]216}{224}}
\@writefile{lof}{\contentsline {figure}{\numberline {217}{\ignorespaces Shape comparison of the invariant dilepton mass for the Drell-Yan background generated with the Alpgen+Pythia (nominal) and Sherpa for $ee$\xspace  (left) and $\mu \mu $\xspace  (right) channels.\relax }}{224}{figure.caption.273}}
\newlabel{fig:app_zjetsbkg_comp}{{217}{224}{Shape comparison of the invariant dilepton mass for the Drell-Yan background generated with the Alpgen+Pythia (nominal) and Sherpa for \eeme (left) and \mumume (right) channels.\relax }{figure.caption.273}{}}
\newlabel{fig:app_zjetsbkg_comp@cref}{{[figure][217][2147483647]217}{224}}
\@setckpt{Pol8TeV/AppendixBkgSyst}{
\setcounter{page}{225}
\setcounter{equation}{18}
\setcounter{enumi}{0}
\setcounter{enumii}{0}
\setcounter{enumiii}{0}
\setcounter{enumiv}{0}
\setcounter{footnote}{2}
\setcounter{mpfootnote}{0}
\setcounter{part}{0}
\setcounter{section}{12}
\setcounter{subsection}{2}
\setcounter{subsubsection}{0}
\setcounter{paragraph}{0}
\setcounter{subparagraph}{0}
\setcounter{figure}{217}
\setcounter{table}{48}
\setcounter{Item}{0}
\setcounter{Hfootnote}{2}
\setcounter{bookmark@seq@number}{75}
\setcounter{parentequation}{0}
\setcounter{linenumber}{1463}
\setcounter{LN@truepage}{224}
\setcounter{ContinuedFloat}{0}
\setcounter{KVtest}{0}
\setcounter{subfigure}{0}
\setcounter{subfigure@save}{6}
\setcounter{lofdepth}{1}
\setcounter{subtable}{0}
\setcounter{subtable@save}{0}
\setcounter{lotdepth}{1}
\setcounter{Maxaffil}{0}
\setcounter{authors}{5}
\setcounter{affil}{1}
\setcounter{section@level}{2}
}
