\relax 
\providecommand\hyper@newdestlabel[2]{}
\@writefile{lot}{\contentsline {table}{\numberline {15}{\ignorespaces Detector and background systematics for $cos\theta _{+}^{k}$ in the fiducial region and in the full phase space\relax }}{184}{table.caption.206}}
\@writefile{lot}{\contentsline {table}{\numberline {16}{\ignorespaces Detector and background systematics for $cos\theta _{-}^{k}$ in the fiducial region and in the full phase space\relax }}{184}{table.caption.207}}
\@writefile{toc}{\contentsline {section}{\numberline {E}Systematic Tables}{184}{appendix.E}}
\newlabel{app:syst_tables}{{E}{184}{Systematic Tables}{appendix.E}{}}
\newlabel{app:syst_tables@cref}{{[appendix][5][2147483647]E}{184}}
\@writefile{lot}{\contentsline {table}{\numberline {17}{\ignorespaces Detector and background systematics for $cos\theta _{+}^{n}$ in the fiducial region and in the full phase space\relax }}{185}{table.caption.208}}
\@writefile{lot}{\contentsline {table}{\numberline {18}{\ignorespaces Detector and background systematics for $cos\theta _{-}^{n}$ in the fiducial region and in the full phase space\relax }}{185}{table.caption.209}}
\@writefile{lot}{\contentsline {table}{\numberline {19}{\ignorespaces Detector and background systematics for $cos\theta _{+}^{r}$ in the fiducial region and in the full phase space\relax }}{185}{table.caption.210}}
\@writefile{lot}{\contentsline {table}{\numberline {20}{\ignorespaces Detector and background systematics for $cos\theta _{-}^{r}$ in the fiducial region and in the full phase space\relax }}{186}{table.caption.211}}
\@writefile{lot}{\contentsline {table}{\numberline {21}{\ignorespaces Detector and background systematics for $cos\theta _{+}^{k}cos\theta _{-}^{k}$ in the fiducial region and in the full phase space\relax }}{186}{table.caption.212}}
\@writefile{lot}{\contentsline {table}{\numberline {22}{\ignorespaces Detector and background systematics for $cos\theta _{+}^{n}cos\theta _{-}^{n}$ in the fiducial region and in the full phase space\relax }}{186}{table.caption.213}}
\@writefile{lot}{\contentsline {table}{\numberline {23}{\ignorespaces Detector and background systematics for $cos\theta _{+}^{r}cos\theta _{-}^{r}$ in the fiducial region and in the full phase space\relax }}{187}{table.caption.214}}
\@writefile{lot}{\contentsline {table}{\numberline {24}{\ignorespaces Detector and background systematics for $cos\theta _{+}^{n}cos\theta _{-}^{k} + cos\theta _{+}^{k}cos\theta _{-}^{n}$ in the fiducial region and in the full phase space\relax }}{187}{table.caption.215}}
\@writefile{lot}{\contentsline {table}{\numberline {25}{\ignorespaces Detector and background systematics for $cos\theta _{+}^{n}cos\theta _{-}^{k} - cos\theta _{+}^{k}cos\theta _{-}^{n}$ in the fiducial region and in the full phase space\relax }}{188}{table.caption.216}}
\@writefile{lot}{\contentsline {table}{\numberline {26}{\ignorespaces Detector and background systematics for $cos\theta _{+}^{n}cos\theta _{-}^{r} + cos \theta _{+}^{r}cos\theta _{-}^{n}$ in the fiducial region and in the full phase space\relax }}{188}{table.caption.217}}
\@writefile{lot}{\contentsline {table}{\numberline {27}{\ignorespaces Detector and background systematics for $cos\theta _{+}^{n}cos\theta _{-}^{r} - cos \theta _{+}^{r}cos\theta _{-}^{n}$ in the fiducial region and in the full phase space\relax }}{189}{table.caption.218}}
\@writefile{lot}{\contentsline {table}{\numberline {28}{\ignorespaces Detector and background systematics for $cos\theta _{+}^{r}cos\theta _{-}^{k} + cos\theta _{+}^{k}cos\theta _{-}^{r}$ in the fiducial region and in the full phase space\relax }}{189}{table.caption.219}}
\@writefile{lot}{\contentsline {table}{\numberline {29}{\ignorespaces Detector and background systematics for $cos\theta _{+}^{r}cos\theta _{-}^{k} - cos\theta _{+}^{k}cos\theta _{-}^{r}$ in the fiducial region and in the full phase space\relax }}{189}{table.caption.220}}
\@writefile{lot}{\contentsline {table}{\numberline {30}{\ignorespaces Modelling systematic uncertanty contributions of the different sources for $cos\theta _{+}^{k}$. \relax }}{190}{table.caption.221}}
\@writefile{lot}{\contentsline {table}{\numberline {31}{\ignorespaces Modelling systematic uncertanty contributions of the different sources for $cos\theta _{+}^{n}$. \relax }}{190}{table.caption.222}}
\@writefile{lot}{\contentsline {table}{\numberline {32}{\ignorespaces Modelling systematic uncertanty contributions of the different sources for $cos\theta _{+}^{r}$. \relax }}{190}{table.caption.223}}
\@writefile{lot}{\contentsline {table}{\numberline {33}{\ignorespaces Modelling systematic uncertanty contributions of the different sources for $cos\theta _{+}^{k}cos\theta _{-}^{k}$. \relax }}{190}{table.caption.224}}
\@writefile{lot}{\contentsline {table}{\numberline {34}{\ignorespaces Modelling systematic uncertanty contributions of the different sources for $cos\theta _{+}^{n}cos\theta _{-}^{n}$. \relax }}{191}{table.caption.225}}
\@writefile{lot}{\contentsline {table}{\numberline {35}{\ignorespaces Modelling systematic uncertanty contributions of the different sources for $cos\theta _{+}^{r}cos\theta _{-}^{r}$. \relax }}{191}{table.caption.226}}
\@writefile{lot}{\contentsline {table}{\numberline {36}{\ignorespaces Modelling systematic uncertanty contributions of the different sources for $cos\theta _{+}^{n}cos\theta _{-}^{k} + cos\theta _{+}^{k}cos\theta _{-}^{n}$. \relax }}{191}{table.caption.227}}
\@writefile{lot}{\contentsline {table}{\numberline {37}{\ignorespaces Modelling systematic uncertanty contributions of the different sources for $cos\theta _{+}^{n}cos\theta _{-}^{k} - cos\theta _{+}^{k}cos\theta _{-}^{n}$. \relax }}{192}{table.caption.228}}
\@writefile{lot}{\contentsline {table}{\numberline {38}{\ignorespaces Modelling systematic uncertanty contributions of the different sources for $cos\theta _{+}^{n}cos\theta _{-}^{r} + cos \theta _{+}^{r}cos\theta _{-}^{n}$. \relax }}{192}{table.caption.229}}
\@writefile{lot}{\contentsline {table}{\numberline {39}{\ignorespaces Modelling systematic uncertanty contributions of the different sources for $cos\theta _{+}^{n}cos\theta _{-}^{r} - cos \theta _{+}^{r}cos\theta _{-}^{n}$. \relax }}{192}{table.caption.230}}
\@writefile{lot}{\contentsline {table}{\numberline {40}{\ignorespaces Modelling systematic uncertanty contributions of the different sources for $cos\theta _{+}^{r}cos\theta _{-}^{k} + cos\theta _{+}^{k}cos\theta _{-}^{r}$. \relax }}{193}{table.caption.231}}
\@writefile{lot}{\contentsline {table}{\numberline {41}{\ignorespaces Modelling systematic uncertanty contributions of the different sources for $cos\theta _{+}^{r}cos\theta _{-}^{k} - cos\theta _{+}^{k}cos\theta _{-}^{r}$. \relax }}{193}{table.caption.232}}
\@writefile{lot}{\contentsline {table}{\numberline {42}{\ignorespaces Uncertainties for changing the polarization and spin correlation values in the reweighting method. As the cross correlations do not use the double-differential cross section for the reweighting, no uncertainty is expected.\relax }}{194}{table.caption.233}}
\newlabel{tab:app_syst_polcorr}{{42}{194}{Uncertainties for changing the polarization and spin correlation values in the reweighting method. As the cross correlations do not use the double-differential cross section for the reweighting, no uncertainty is expected.\relax }{table.caption.233}{}}
\newlabel{tab:app_syst_polcorr@cref}{{[table][42][2147483647]42}{194}}
\@writefile{lot}{\contentsline {table}{\numberline {43}{\ignorespaces Systematic uncertainties of the "other" category for all observables of parton (full) and stable-particle (fiducial) measurement.\relax }}{195}{table.caption.234}}
\newlabel{tab:app_syst_fbu}{{43}{195}{Systematic uncertainties of the "other" category for all observables of parton (full) and stable-particle (fiducial) measurement.\relax }{table.caption.234}{}}
\newlabel{tab:app_syst_fbu@cref}{{[table][43][2147483647]43}{195}}
\@setckpt{Pol8TeV/AppendixSystTables}{
\setcounter{page}{196}
\setcounter{equation}{18}
\setcounter{enumi}{0}
\setcounter{enumii}{0}
\setcounter{enumiii}{0}
\setcounter{enumiv}{0}
\setcounter{footnote}{2}
\setcounter{mpfootnote}{0}
\setcounter{part}{0}
\setcounter{section}{5}
\setcounter{subsection}{0}
\setcounter{subsubsection}{0}
\setcounter{paragraph}{0}
\setcounter{subparagraph}{0}
\setcounter{figure}{184}
\setcounter{table}{43}
\setcounter{Item}{0}
\setcounter{Hfootnote}{2}
\setcounter{bookmark@seq@number}{62}
\setcounter{parentequation}{0}
\setcounter{linenumber}{1300}
\setcounter{LN@truepage}{195}
\setcounter{ContinuedFloat}{0}
\setcounter{KVtest}{0}
\setcounter{subfigure}{0}
\setcounter{subfigure@save}{2}
\setcounter{lofdepth}{1}
\setcounter{subtable}{0}
\setcounter{subtable@save}{0}
\setcounter{lotdepth}{1}
\setcounter{Maxaffil}{0}
\setcounter{authors}{5}
\setcounter{affil}{1}
\setcounter{section@level}{1}
}
