\relax 
\providecommand\hyper@newdestlabel[2]{}
\newlabel{tab:app_fid_slopes}{{\caption@xref {tab:app_fid_slopes}{ on input line 26}}{196}{Calibration curves for the stable-particle measurement}{table.caption.235}{}}
\newlabel{tab:app_fid_slopes@cref}{{[appendix][6][2147483647]F}{196}}
\@writefile{toc}{\contentsline {section}{\numberline {F}Calibration curves for the stable-particle measurement}{196}{appendix.F}}
\newlabel{app:fid_calib}{{F}{196}{Calibration curves for the stable-particle measurement}{appendix.F}{}}
\newlabel{app:fid_calib@cref}{{[appendix][6][2147483647]F}{196}}
\@writefile{lof}{\contentsline {figure}{\numberline {185}{\ignorespaces Calibration curve of the helicity polarization of the stable-particle measurement using partonic information to reweight the truth and reco distributions.\relax }}{196}{figure.caption.236}}
\newlabel{fig:app_fid_calib}{{185}{196}{Calibration curve of the helicity polarization of the stable-particle measurement using partonic information to reweight the truth and reco distributions.\relax }{figure.caption.236}{}}
\newlabel{fig:app_fid_calib@cref}{{[figure][185][2147483647]185}{196}}
\@writefile{lof}{\contentsline {figure}{\numberline {186}{\ignorespaces Division of the response matrices for a spin correlation of C=0.1 and the nominal case of C=SM for both parton (left) and stable-particle level using particle (right) or parton (bottom) information.\relax }}{197}{figure.caption.237}}
\newlabel{fig:app_resmat_division}{{186}{197}{Division of the response matrices for a spin correlation of C=0.1 and the nominal case of C=SM for both parton (left) and stable-particle level using particle (right) or parton (bottom) information.\relax }{figure.caption.237}{}}
\newlabel{fig:app_resmat_division@cref}{{[figure][186][2147483647]186}{197}}
\@writefile{lof}{\contentsline {subfigure}{\numberline{(a)}{\ignorespaces {Parton level}}}{197}{subfigure.186.1}}
\@writefile{lof}{\contentsline {subfigure}{\numberline{(b)}{\ignorespaces {Stable-particle level,particle reweighting}}}{197}{subfigure.186.2}}
\@writefile{lof}{\contentsline {subfigure}{\numberline{(c)}{\ignorespaces {Stable-particle level,parton reweighting}}}{197}{subfigure.186.3}}
\@setckpt{Pol8TeV/AppendixFidCalib}{
\setcounter{page}{198}
\setcounter{equation}{18}
\setcounter{enumi}{0}
\setcounter{enumii}{0}
\setcounter{enumiii}{0}
\setcounter{enumiv}{0}
\setcounter{footnote}{2}
\setcounter{mpfootnote}{0}
\setcounter{part}{0}
\setcounter{section}{6}
\setcounter{subsection}{0}
\setcounter{subsubsection}{0}
\setcounter{paragraph}{0}
\setcounter{subparagraph}{0}
\setcounter{figure}{186}
\setcounter{table}{43}
\setcounter{Item}{0}
\setcounter{Hfootnote}{2}
\setcounter{bookmark@seq@number}{63}
\setcounter{parentequation}{0}
\setcounter{linenumber}{1324}
\setcounter{LN@truepage}{197}
\setcounter{ContinuedFloat}{0}
\setcounter{KVtest}{0}
\setcounter{subfigure}{0}
\setcounter{subfigure@save}{3}
\setcounter{lofdepth}{1}
\setcounter{subtable}{0}
\setcounter{subtable@save}{0}
\setcounter{lotdepth}{1}
\setcounter{Maxaffil}{0}
\setcounter{authors}{5}
\setcounter{affil}{1}
\setcounter{section@level}{1}
}
