\relax 
\providecommand\hyper@newdestlabel[2]{}
\citation{Fakes8TeV}
\@writefile{toc}{\contentsline {section}{\numberline {C}Fakes estimation}{169}{appendix.C}}
\newlabel{sec:FakesEstimate}{{C}{169}{Fakes estimation}{appendix.C}{}}
\newlabel{sec:FakesEstimate@cref}{{[appendix][3][2147483647]C}{169}}
\@writefile{lot}{\contentsline {table}{\numberline {14}{\ignorespaces The yields in fakes control regions (pretag and btag) for the $\mu \mu $ channel. Here, the fakes are estimated by MM.\relax }}{169}{table.caption.197}}
\newlabel{tab:yields_CR_fakesMM_mumu}{{14}{169}{The yields in fakes control regions (pretag and btag) for the $\mu \mu $ channel. Here, the fakes are estimated by MM.\relax }{table.caption.197}{}}
\newlabel{tab:yields_CR_fakesMM_mumu@cref}{{[table][14][2147483647]14}{169}}
\@writefile{lof}{\contentsline {figure}{\numberline {171}{\ignorespaces The jet multiplicity, jet $p_T$, missing $E_T$, $H_T$, lepton $p_T$ and $\ensuremath  {\etaa }\xspace  $ in the fakes pretag control region in the $ee$ channel. The grey area in the ratio plot corresponds to total uncertainty on the prediction where as systematic uncertainty we consider only the uncertainty on the theoretical cross-sections of all processes.\relax }}{170}{figure.caption.191}}
\newlabel{fig:CR_fakes_pretag_ee}{{171}{170}{The jet multiplicity, jet $p_T$, missing $E_T$, $H_T$, lepton $p_T$ and $\eta $ in the fakes pretag control region in the $ee$ channel. The grey area in the ratio plot corresponds to total uncertainty on the prediction where as systematic uncertainty we consider only the uncertainty on the theoretical cross-sections of all processes.\relax }{figure.caption.191}{}}
\newlabel{fig:CR_fakes_pretag_ee@cref}{{[figure][171][2147483647]171}{170}}
\@writefile{lof}{\contentsline {figure}{\numberline {172}{\ignorespaces The jet multiplicity, jet $p_T$, missing $E_T$, $H_T$, lepton $p_T$ and $\ensuremath  {\etaa }\xspace  $ in the fakes pretag control region in the $\mu \mu $ channel. The grey area in the ratio plot corresponds to total uncertainty on the prediction where as systematic uncertainty we consider only the uncertainty on the theoretical cross-sections of all processes.\relax }}{171}{figure.caption.192}}
\newlabel{fig:CR_fakes_pretag_mm}{{172}{171}{The jet multiplicity, jet $p_T$, missing $E_T$, $H_T$, lepton $p_T$ and $\eta $ in the fakes pretag control region in the $\mu \mu $ channel. The grey area in the ratio plot corresponds to total uncertainty on the prediction where as systematic uncertainty we consider only the uncertainty on the theoretical cross-sections of all processes.\relax }{figure.caption.192}{}}
\newlabel{fig:CR_fakes_pretag_mm@cref}{{[figure][172][2147483647]172}{171}}
\@writefile{lof}{\contentsline {figure}{\numberline {173}{\ignorespaces The jet multiplicity, jet $p_T$, missing $E_T$, $H_T$, lepton $p_T$ and $\ensuremath  {\etaa }\xspace  $ in the fakes pretag control region in the $e\mu $ channel. The grey area in the ratio plot corresponds to total uncertainty on the prediction where as systematic uncertainty we consider only the uncertainty on the theoretical cross-sections of all processes.\relax }}{172}{figure.caption.193}}
\newlabel{fig:CR_fakes_pretag_em}{{173}{172}{The jet multiplicity, jet $p_T$, missing $E_T$, $H_T$, lepton $p_T$ and $\eta $ in the fakes pretag control region in the $e\mu $ channel. The grey area in the ratio plot corresponds to total uncertainty on the prediction where as systematic uncertainty we consider only the uncertainty on the theoretical cross-sections of all processes.\relax }{figure.caption.193}{}}
\newlabel{fig:CR_fakes_pretag_em@cref}{{[figure][173][2147483647]173}{172}}
\@writefile{lof}{\contentsline {figure}{\numberline {174}{\ignorespaces The jet multiplicity, jet $p_T$, missing $E_T$, $H_T$, lepton $p_T$ and $\ensuremath  {\etaa }\xspace  $ in the fakes btag control region in the $ee$ channel. The grey area in the ratio plot corresponds to total uncertainty on the prediction where as systematic uncertainty we consider only the uncertainty on the theoretical cross-sections of all processes.\relax }}{173}{figure.caption.194}}
\newlabel{fig:CR_fakes_btag_ee}{{174}{173}{The jet multiplicity, jet $p_T$, missing $E_T$, $H_T$, lepton $p_T$ and $\eta $ in the fakes btag control region in the $ee$ channel. The grey area in the ratio plot corresponds to total uncertainty on the prediction where as systematic uncertainty we consider only the uncertainty on the theoretical cross-sections of all processes.\relax }{figure.caption.194}{}}
\newlabel{fig:CR_fakes_btag_ee@cref}{{[figure][174][2147483647]174}{173}}
\@writefile{lof}{\contentsline {figure}{\numberline {175}{\ignorespaces The jet multiplicity, jet $p_T$, missing $E_T$, $H_T$, lepton $p_T$ and $\ensuremath  {\etaa }\xspace  $ in the fakes btag control region in the $\mu \mu $ channel. The grey area in the ratio plot corresponds to total uncertainty on the prediction where as systematic uncertainty we consider only the uncertainty on the theoretical cross-sections of all processes.\relax }}{174}{figure.caption.195}}
\newlabel{fig:CR_fakes_btag_mm}{{175}{174}{The jet multiplicity, jet $p_T$, missing $E_T$, $H_T$, lepton $p_T$ and $\eta $ in the fakes btag control region in the $\mu \mu $ channel. The grey area in the ratio plot corresponds to total uncertainty on the prediction where as systematic uncertainty we consider only the uncertainty on the theoretical cross-sections of all processes.\relax }{figure.caption.195}{}}
\newlabel{fig:CR_fakes_btag_mm@cref}{{[figure][175][2147483647]175}{174}}
\@writefile{lof}{\contentsline {figure}{\numberline {176}{\ignorespaces The jet multiplicity, jet $p_T$, missing $E_T$, $H_T$, lepton $p_T$ and $\ensuremath  {\etaa }\xspace  $ in the fakes btag control region in the $e\mu $ channel. The grey area in the ratio plot corresponds to total uncertainty on the prediction where as systematic uncertainty we consider only the uncertainty on the theoretical cross-sections of all processes.\relax }}{175}{figure.caption.196}}
\newlabel{fig:CR_fakes_btag_em}{{176}{175}{The jet multiplicity, jet $p_T$, missing $E_T$, $H_T$, lepton $p_T$ and $\eta $ in the fakes btag control region in the $e\mu $ channel. The grey area in the ratio plot corresponds to total uncertainty on the prediction where as systematic uncertainty we consider only the uncertainty on the theoretical cross-sections of all processes.\relax }{figure.caption.196}{}}
\newlabel{fig:CR_fakes_btag_em@cref}{{[figure][176][2147483647]176}{175}}
\@writefile{lof}{\contentsline {figure}{\numberline {177}{\ignorespaces The jet multiplicity, jet $p_T$, missing $E_T$, $H_T$, lepton $p_T$ and $\ensuremath  {\etaa }\xspace  $ in the fakes pretag control region in the $\mu \mu $ channel. Here, the fakes estimated by MM method are used. The grey area in the ratio plot corresponds to total uncertainty on the prediction where as systematic uncertainty we consider only the uncertainty on the theoretical cross-sections of all processes.\relax }}{176}{figure.caption.198}}
\newlabel{fig:CR_fakes_pretag_mm_MM}{{177}{176}{The jet multiplicity, jet $p_T$, missing $E_T$, $H_T$, lepton $p_T$ and $\eta $ in the fakes pretag control region in the $\mu \mu $ channel. Here, the fakes estimated by MM method are used. The grey area in the ratio plot corresponds to total uncertainty on the prediction where as systematic uncertainty we consider only the uncertainty on the theoretical cross-sections of all processes.\relax }{figure.caption.198}{}}
\newlabel{fig:CR_fakes_pretag_mm_MM@cref}{{[figure][177][2147483647]177}{176}}
\@writefile{lof}{\contentsline {figure}{\numberline {178}{\ignorespaces The jet multiplicity, jet $p_T$, missing $E_T$, $H_T$, lepton $p_T$ and $\ensuremath  {\etaa }\xspace  $ in the fakes btag control region in the $\mu \mu $ channel. Here, the fakes estimated by MM method are used. The grey area in the ratio plot corresponds to total uncertainty on the prediction where as systematic uncertainty we consider only the uncertainty on the theoretical cross-sections of all processes.\relax }}{177}{figure.caption.199}}
\newlabel{fig:CR_fakes_btag_mm_MM}{{178}{177}{The jet multiplicity, jet $p_T$, missing $E_T$, $H_T$, lepton $p_T$ and $\eta $ in the fakes btag control region in the $\mu \mu $ channel. Here, the fakes estimated by MM method are used. The grey area in the ratio plot corresponds to total uncertainty on the prediction where as systematic uncertainty we consider only the uncertainty on the theoretical cross-sections of all processes.\relax }{figure.caption.199}{}}
\newlabel{fig:CR_fakes_btag_mm_MM@cref}{{[figure][178][2147483647]178}{177}}
\@writefile{lof}{\contentsline {figure}{\numberline {179}{\ignorespaces The comparison between the fakes estimated from MC and by MM method. The jet multiplicity, jet $p_T$, missing $E_T$, $H_T$, lepton $p_T$ and $\ensuremath  {\etaa }\xspace  $ are plotted in the fakes pretag control region in the $\mu \mu $ channel. \relax }}{178}{figure.caption.200}}
\newlabel{fig:CR_fakes_pretag_mm_MMvsMC}{{179}{178}{The comparison between the fakes estimated from MC and by MM method. The jet multiplicity, jet $p_T$, missing $E_T$, $H_T$, lepton $p_T$ and $\eta $ are plotted in the fakes pretag control region in the $\mu \mu $ channel. \relax }{figure.caption.200}{}}
\newlabel{fig:CR_fakes_pretag_mm_MMvsMC@cref}{{[figure][179][2147483647]179}{178}}
\@writefile{lof}{\contentsline {figure}{\numberline {180}{\ignorespaces The comparison between the fakes estimated from MC and by MM method. The jet multiplicity, jet $p_T$, missing $E_T$, $H_T$, lepton $p_T$ and $\ensuremath  {\etaa }\xspace  $ are plotted in the fakes btag control region in the $\mu \mu $ channel. \relax }}{179}{figure.caption.201}}
\newlabel{fig:CR_fakes_btag_mm_MMvsMC}{{180}{179}{The comparison between the fakes estimated from MC and by MM method. The jet multiplicity, jet $p_T$, missing $E_T$, $H_T$, lepton $p_T$ and $\eta $ are plotted in the fakes btag control region in the $\mu \mu $ channel. \relax }{figure.caption.201}{}}
\newlabel{fig:CR_fakes_btag_mm_MMvsMC@cref}{{[figure][180][2147483647]180}{179}}
\@setckpt{Pol8TeV/FakesEstimate}{
\setcounter{page}{180}
\setcounter{equation}{18}
\setcounter{enumi}{0}
\setcounter{enumii}{0}
\setcounter{enumiii}{0}
\setcounter{enumiv}{0}
\setcounter{footnote}{2}
\setcounter{mpfootnote}{0}
\setcounter{part}{0}
\setcounter{section}{3}
\setcounter{subsection}{0}
\setcounter{subsubsection}{1}
\setcounter{paragraph}{0}
\setcounter{subparagraph}{0}
\setcounter{figure}{180}
\setcounter{table}{14}
\setcounter{Item}{0}
\setcounter{Hfootnote}{2}
\setcounter{bookmark@seq@number}{57}
\setcounter{parentequation}{0}
\setcounter{linenumber}{1206}
\setcounter{LN@truepage}{179}
\setcounter{ContinuedFloat}{0}
\setcounter{KVtest}{0}
\setcounter{subfigure}{0}
\setcounter{subfigure@save}{2}
\setcounter{lofdepth}{1}
\setcounter{subtable}{0}
\setcounter{subtable@save}{0}
\setcounter{lotdepth}{1}
\setcounter{Maxaffil}{0}
\setcounter{authors}{5}
\setcounter{affil}{1}
\setcounter{section@level}{1}
}
