\relax 
\providecommand\hyper@newdestlabel[2]{}
\citation{topdisc1}
\citation{topdisc2}
\citation{cdf_asym_early}
\citation{dzero_asym_early}
\citation{cdf_asym_new}
\citation{dzero_asym_new}
\citation{theo_asym_new}
\citation{pseudotop}
\@writefile{toc}{\contentsline {section}{\numberline {1}Introduction}{6}{section.1}}
\newlabel{sec:intro}{{1}{6}{Introduction}{section.1}{}}
\newlabel{sec:intro@cref}{{[section][1][]1}{6}}
\@setckpt{Pol8TeV/Introduction}{
\setcounter{page}{7}
\setcounter{equation}{0}
\setcounter{enumi}{0}
\setcounter{enumii}{0}
\setcounter{enumiii}{0}
\setcounter{enumiv}{0}
\setcounter{footnote}{0}
\setcounter{mpfootnote}{0}
\setcounter{part}{0}
\setcounter{section}{1}
\setcounter{subsection}{0}
\setcounter{subsubsection}{0}
\setcounter{paragraph}{0}
\setcounter{subparagraph}{0}
\setcounter{figure}{0}
\setcounter{table}{0}
\setcounter{Item}{0}
\setcounter{Hfootnote}{0}
\setcounter{bookmark@seq@number}{1}
\setcounter{parentequation}{0}
\setcounter{linenumber}{127}
\setcounter{LN@truepage}{6}
\setcounter{ContinuedFloat}{0}
\setcounter{KVtest}{0}
\setcounter{subfigure}{0}
\setcounter{subfigure@save}{0}
\setcounter{lofdepth}{1}
\setcounter{subtable}{0}
\setcounter{subtable@save}{0}
\setcounter{lotdepth}{1}
\setcounter{Maxaffil}{0}
\setcounter{authors}{5}
\setcounter{affil}{1}
\setcounter{section@level}{1}
}
