\relax 
\providecommand\hyper@newdestlabel[2]{}
\citation{spin_anapow_lep}
\citation{atlas_pol}
\citation{atlas_spincorr}
\citation{cms_spinpol}
\citation{bernreuther_8tev}
\citation{baumgart_transpol}
\@writefile{toc}{\contentsline {section}{\numberline {2}Observables}{7}{section.2}}
\newlabel{sec:obs}{{2}{7}{Observables}{section.2}{}}
\newlabel{sec:obs@cref}{{[section][2][]2}{7}}
\newlabel{eqn:double-diff}{{1}{7}{Observables}{equation.2.1}{}}
\newlabel{eqn:double-diff@cref}{{[equation][1][]1}{7}}
\newlabel{eqn:single_diff}{{2}{7}{Observables}{equation.2.2}{}}
\newlabel{eqn:single_diff@cref}{{[equation][2][]2}{7}}
\@writefile{toc}{\contentsline {subsection}{\numberline {2.1}Spin density matrix and the set of observables}{7}{subsection.2.1}}
\newlabel{eqn:obs_me}{{3}{7}{Spin density matrix and the set of observables}{equation.2.3}{}}
\newlabel{eqn:obs_me@cref}{{[equation][3][]3}{7}}
\newlabel{eqn:axis_defs}{{7}{7}{Spin density matrix and the set of observables}{equation.2.6}{}}
\newlabel{eqn:axis_defs@cref}{{[subsection][1][2]2.1}{7}}
\citation{atlas_pol}
\citation{atlas_spincorr}
\citation{cms_spinpol}
\@writefile{lot}{\contentsline {table}{\numberline {1}{\ignorespaces Axes taken for the \ensuremath  {\qopname  \relax o{cos}\theta }\xspace  calculation by taking the dot product with the momentum direction of the positive (+) or negative (-) lepton. The fact of having two symmetric beams is considered by multiplying with the sign of the scattering angle $y$.\relax }}{8}{table.caption.2}}
\providecommand*\caption@xref[2]{\@setref\relax\@undefined{#1}}
\newlabel{tab:new_axes_defs}{{1}{8}{Axes taken for the \costheta calculation by taking the dot product with the momentum direction of the positive (+) or negative (-) lepton. The fact of having two symmetric beams is considered by multiplying with the sign of the scattering angle $y$.\relax }{table.caption.2}{}}
\newlabel{tab:new_axes_defs@cref}{{[table][1][]1}{8}}
\@writefile{lot}{\contentsline {table}{\numberline {2}{\ignorespaces The top spin observables, their definitions and their sensitivity to new physics are listed in this table.\relax }}{9}{table.caption.3}}
\newlabel{tab:obs}{{2}{9}{The top spin observables, their definitions and their sensitivity to new physics are listed in this table.\relax }{table.caption.3}{}}
\newlabel{tab:obs@cref}{{[table][2][]2}{9}}
\@setckpt{Pol8TeV/Observables}{
\setcounter{page}{10}
\setcounter{equation}{7}
\setcounter{enumi}{0}
\setcounter{enumii}{0}
\setcounter{enumiii}{0}
\setcounter{enumiv}{0}
\setcounter{footnote}{0}
\setcounter{mpfootnote}{0}
\setcounter{part}{0}
\setcounter{section}{2}
\setcounter{subsection}{1}
\setcounter{subsubsection}{0}
\setcounter{paragraph}{0}
\setcounter{subparagraph}{0}
\setcounter{figure}{0}
\setcounter{table}{2}
\setcounter{Item}{0}
\setcounter{Hfootnote}{0}
\setcounter{bookmark@seq@number}{3}
\setcounter{parentequation}{0}
\setcounter{linenumber}{186}
\setcounter{LN@truepage}{9}
\setcounter{ContinuedFloat}{0}
\setcounter{KVtest}{0}
\setcounter{subfigure}{0}
\setcounter{subfigure@save}{0}
\setcounter{lofdepth}{1}
\setcounter{subtable}{0}
\setcounter{subtable@save}{0}
\setcounter{lotdepth}{1}
\setcounter{Maxaffil}{0}
\setcounter{authors}{5}
\setcounter{affil}{1}
\setcounter{section@level}{2}
}
