\relax 
\providecommand\hyper@newdestlabel[2]{}
\citation{Abulencia:2006js}
\citation{Aaltonen:2012tk}
\citation{Abazov:2004cs}
\citation{ATLAS-CONF-2012-057}
\citation{Abbott:1997fv}
\citation{Borroni:1536502}
\citation{mt2reco}
\citation{KinRecoNote}
\citation{Abbott:1997fv}
\@writefile{toc}{\contentsline {section}{\numberline {5}Reconstruction}{32}{section.5}}
\newlabel{sec:reco}{{5}{32}{Reconstruction}{section.5}{}}
\newlabel{sec:reco@cref}{{[section][5][]5}{32}}
\newlabel{eqn:ttbar_kinematics}{{9}{32}{Reconstruction}{equation.5.9}{}}
\newlabel{eqn:ttbar_kinematics@cref}{{[equation][9][]9}{32}}
\citation{Erdmann:2013rxa}
\@writefile{toc}{\contentsline {subsection}{\numberline {5.1}The neutrino weighting method}{33}{subsection.5.1}}
\@writefile{toc}{\contentsline {subsection}{\numberline {5.2}Comparison of Data and Simulation}{33}{subsection.5.2}}
\newlabel{subsec:reco_cmpr}{{5.2}{33}{Comparison of Data and Simulation}{subsection.5.2}{}}
\newlabel{subsec:reco_cmpr@cref}{{[subsection][2][5]5.2}{33}}
\@writefile{lof}{\contentsline {figure}{\numberline {15}{\ignorespaces Comparison of the top/antitop $p_{\text  {T}}$ and $\ensuremath  {\etaa }\xspace  $ distributions between data and predictions after the kinematic reconstruction in the inclusive dilepton channel. The data/expectation ratio is also shown. The hatched area shows the uncertainty on signal and background coming from MC statistics, normalization, detector and signal modelling systematics.\relax }}{34}{figure.caption.30}}
\newlabel{fig:dataMC1reco}{{15}{34}{Comparison of the top/antitop $p_{\text {T}}$ and $\eta $ distributions between data and predictions after the kinematic reconstruction in the inclusive dilepton channel. The data/expectation ratio is also shown. The hatched area shows the uncertainty on signal and background coming from MC statistics, normalization, detector and signal modelling systematics.\relax }{figure.caption.30}{}}
\newlabel{fig:dataMC1reco@cref}{{[figure][15][]15}{34}}
\@writefile{lof}{\contentsline {figure}{\numberline {16}{\ignorespaces Comparison of the \ensuremath  {t\bar {t}}\xspace  $p_{\text  {T}}$ and mass distributions between data and predictions after the kinematic reconstruction in the inclusive dilepton channel. The data/expectation ratio is also shown. The hatched area shows the uncertainty on signal and background coming from MC statistics, normalization, detector and signal modelling systematics. \relax }}{34}{figure.caption.31}}
\newlabel{fig:dataMC2reco}{{16}{34}{Comparison of the \ttbar $p_{\text {T}}$ and mass distributions between data and predictions after the kinematic reconstruction in the inclusive dilepton channel. The data/expectation ratio is also shown. The hatched area shows the uncertainty on signal and background coming from MC statistics, normalization, detector and signal modelling systematics. \relax }{figure.caption.31}{}}
\newlabel{fig:dataMC2reco@cref}{{[figure][16][]16}{34}}
\@writefile{lof}{\contentsline {figure}{\numberline {17}{\ignorespaces Comparison of the transverse-/r-axis $\phi $ and $\ensuremath  {\etaa }\xspace  $ distributions between data and predictions after the kinematic reconstruction in the inclusive dilepton channel. The data/expectation ratio is also shown. The hatched area shows the uncertainty on signal and background coming from MC statistics, normalization, detector and signal modelling systematics. \relax }}{35}{figure.caption.32}}
\newlabel{fig:dataMC3reco}{{17}{35}{Comparison of the transverse-/r-axis $\phi $ and $\eta $ distributions between data and predictions after the kinematic reconstruction in the inclusive dilepton channel. The data/expectation ratio is also shown. The hatched area shows the uncertainty on signal and background coming from MC statistics, normalization, detector and signal modelling systematics. \relax }{figure.caption.32}{}}
\newlabel{fig:dataMC3reco@cref}{{[figure][17][]17}{35}}
\@writefile{lot}{\contentsline {table}{\numberline {9}{\ignorespaces Observed number of data events at reconstruction level in comparison to the expected number of signal events and different background contributions from MC predictions and data-driven methods (DD) as described in the text. The given uncertainty comes from MC statistics, normalization and detector systematics.\relax }}{35}{table.caption.33}}
\newlabel{tab:evtnumbers_reco}{{9}{35}{Observed number of data events at reconstruction level in comparison to the expected number of signal events and different background contributions from MC predictions and data-driven methods (DD) as described in the text. The given uncertainty comes from MC statistics, normalization and detector systematics.\relax }{table.caption.33}{}}
\newlabel{tab:evtnumbers_reco@cref}{{[table][9][]9}{35}}
\@setckpt{Pol8TeV/Reconstruction}{
\setcounter{page}{36}
\setcounter{equation}{11}
\setcounter{enumi}{0}
\setcounter{enumii}{0}
\setcounter{enumiii}{0}
\setcounter{enumiv}{0}
\setcounter{footnote}{1}
\setcounter{mpfootnote}{0}
\setcounter{part}{0}
\setcounter{section}{5}
\setcounter{subsection}{2}
\setcounter{subsubsection}{0}
\setcounter{paragraph}{0}
\setcounter{subparagraph}{0}
\setcounter{figure}{17}
\setcounter{table}{9}
\setcounter{Item}{0}
\setcounter{Hfootnote}{1}
\setcounter{bookmark@seq@number}{15}
\setcounter{parentequation}{0}
\setcounter{linenumber}{557}
\setcounter{LN@truepage}{35}
\setcounter{ContinuedFloat}{0}
\setcounter{KVtest}{0}
\setcounter{subfigure}{0}
\setcounter{subfigure@save}{2}
\setcounter{lofdepth}{1}
\setcounter{subtable}{0}
\setcounter{subtable@save}{0}
\setcounter{lotdepth}{1}
\setcounter{Maxaffil}{0}
\setcounter{authors}{5}
\setcounter{affil}{1}
\setcounter{section@level}{2}
}
