\relax 
\providecommand\hyper@newdestlabel[2]{}
\citation{spinobspaper}
\citation{spinobspaper}
\citation{spinobspaper}
\citation{spinobspaper}
\citation{spinobspaper}
\citation{spinobspaper}
\@writefile{toc}{\contentsline {section}{\numberline {8}Results}{54}{section.8}}
\newlabel{sec:results}{{8}{54}{Results}{section.8}{}}
\newlabel{sec:results@cref}{{[section][8][]8}{54}}
\@writefile{toc}{\contentsline {subsection}{\numberline {8.1}Parton measurement}{54}{subsection.8.1}}
\@writefile{lof}{\contentsline {figure}{\numberline {32}{\ignorespaces Results of the polarization observables for the unfolding back to Powheg parton level. The statistical + detector-related uncertainties are shown in red, signal modelling systematics in blue. The results are compared to predictions taken from~\cite  {spinobspaper}.\relax }}{54}{figure.caption.51}}
\newlabel{fig:results_parton_pol}{{32}{54}{Results of the polarization observables for the unfolding back to Powheg parton level. The statistical + detector-related uncertainties are shown in red, signal modelling systematics in blue. The results are compared to predictions taken from~\cite {spinobspaper}.\relax }{figure.caption.51}{}}
\newlabel{fig:results_parton_pol@cref}{{[figure][32][]32}{54}}
\@writefile{lof}{\contentsline {figure}{\numberline {33}{\ignorespaces Results of the spin correlation observables for the unfolding back to Powheg parton level. The statistical + detector-related uncertainties are shown in red, signal modelling systematics in blue. The results are compared to predictions taken from~\cite  {spinobspaper}.\relax }}{55}{figure.caption.52}}
\newlabel{fig:results_parton_corr}{{33}{55}{Results of the spin correlation observables for the unfolding back to Powheg parton level. The statistical + detector-related uncertainties are shown in red, signal modelling systematics in blue. The results are compared to predictions taken from~\cite {spinobspaper}.\relax }{figure.caption.52}{}}
\newlabel{fig:results_parton_corr@cref}{{[figure][33][]33}{55}}
\@writefile{lof}{\contentsline {figure}{\numberline {34}{\ignorespaces Results of the cross correlation observables for the unfolding back to Powheg parton level. The statistical + detector-related uncertainties are shown in red, signal modelling systematics in blue. The results are compared to predictions taken from~\cite  {spinobspaper}.\relax }}{55}{figure.caption.53}}
\newlabel{fig:results_parton_crosscorr}{{34}{55}{Results of the cross correlation observables for the unfolding back to Powheg parton level. The statistical + detector-related uncertainties are shown in red, signal modelling systematics in blue. The results are compared to predictions taken from~\cite {spinobspaper}.\relax }{figure.caption.53}{}}
\newlabel{fig:results_parton_crosscorr@cref}{{[figure][34][]34}{55}}
\@writefile{lot}{\contentsline {table}{\numberline {13}{\ignorespaces Results of the observables after the unfolding back to Monte Carlo parton level. The uncertainties are broken down into the uncertainty coming from the marginalisation procedure and signal modelling systematics. Each value is compared to the predicted values shown in sec.~\ref  {sec:parton_def}. \relax }}{56}{table.caption.54}}
\newlabel{tab:finalpartonresults}{{13}{56}{Results of the observables after the unfolding back to Monte Carlo parton level. The uncertainties are broken down into the uncertainty coming from the marginalisation procedure and signal modelling systematics. Each value is compared to the predicted values shown in sec.~\ref {sec:parton_def}. \relax }{table.caption.54}{}}
\newlabel{tab:finalpartonresults@cref}{{[table][13][]13}{56}}
\@writefile{toc}{\contentsline {subsection}{\numberline {8.2}Stable-particle measurement}{56}{subsection.8.2}}
\@writefile{lof}{\contentsline {figure}{\numberline {35}{\ignorespaces Polarization distributions corrected back to stable particle level and compared to the truth distribution from the signal MC.\relax }}{57}{figure.caption.55}}
\newlabel{fig:unfolded_data_particle1}{{35}{57}{Polarization distributions corrected back to stable particle level and compared to the truth distribution from the signal MC.\relax }{figure.caption.55}{}}
\newlabel{fig:unfolded_data_particle1@cref}{{[figure][35][]35}{57}}
\@writefile{lof}{\contentsline {subfigure}{\numberline{(a)}{\ignorespaces {\ensuremath {B_{k}^{+}}\xspace }}}{57}{subfigure.35.1}}
\@writefile{lof}{\contentsline {subfigure}{\numberline{(b)}{\ignorespaces {\ensuremath {B_{k}^{-}}\xspace }}}{57}{subfigure.35.2}}
\@writefile{lof}{\contentsline {subfigure}{\numberline{(c)}{\ignorespaces {\ensuremath {B_{n}^{+}}\xspace }}}{57}{subfigure.35.3}}
\@writefile{lof}{\contentsline {subfigure}{\numberline{(d)}{\ignorespaces {\ensuremath {B_{n}^{-}}\xspace }}}{57}{subfigure.35.4}}
\@writefile{lof}{\contentsline {subfigure}{\numberline{(e)}{\ignorespaces {\ensuremath {B_{r}^{+}}\xspace }}}{57}{subfigure.35.5}}
\@writefile{lof}{\contentsline {subfigure}{\numberline{(f)}{\ignorespaces {\ensuremath {B_{r}^{-}}\xspace }}}{57}{subfigure.35.6}}
\@writefile{lof}{\contentsline {figure}{\numberline {36}{\ignorespaces Correlation distributions corrected back to stable particle level and compared to the truth distribution from the signal MC.\relax }}{58}{figure.caption.56}}
\newlabel{fig:unfolded_data_particle2}{{36}{58}{Correlation distributions corrected back to stable particle level and compared to the truth distribution from the signal MC.\relax }{figure.caption.56}{}}
\newlabel{fig:unfolded_data_particle2@cref}{{[figure][36][]36}{58}}
\@writefile{lof}{\contentsline {subfigure}{\numberline{(a)}{\ignorespaces {\ensuremath {C(k,k)}\xspace }}}{58}{subfigure.36.1}}
\@writefile{lof}{\contentsline {subfigure}{\numberline{(b)}{\ignorespaces {\ensuremath {C(n,n)}\xspace }}}{58}{subfigure.36.2}}
\@writefile{lof}{\contentsline {subfigure}{\numberline{(c)}{\ignorespaces {\ensuremath {C(r,r)}\xspace }}}{58}{subfigure.36.3}}
\@writefile{lof}{\contentsline {figure}{\numberline {37}{\ignorespaces Cross correlation distributions corrected back to stable particle level and compared to the truth distribution from the signal MC.\relax }}{59}{figure.caption.57}}
\newlabel{fig:unfolded_data_particle3}{{37}{59}{Cross correlation distributions corrected back to stable particle level and compared to the truth distribution from the signal MC.\relax }{figure.caption.57}{}}
\newlabel{fig:unfolded_data_particle3@cref}{{[figure][37][]37}{59}}
\@writefile{lof}{\contentsline {subfigure}{\numberline{(a)}{\ignorespaces {\ensuremath {C(n,k)+C(k,n)}\xspace }}}{59}{subfigure.37.1}}
\@writefile{lof}{\contentsline {subfigure}{\numberline{(b)}{\ignorespaces {\ensuremath {C(n,k)-C(k,n)}\xspace }}}{59}{subfigure.37.2}}
\@writefile{lof}{\contentsline {subfigure}{\numberline{(c)}{\ignorespaces {\ensuremath {C(n,r)+C(r,n)}\xspace }}}{59}{subfigure.37.3}}
\@writefile{lof}{\contentsline {subfigure}{\numberline{(d)}{\ignorespaces {\ensuremath {C(n,r)-C(r,n)}\xspace }}}{59}{subfigure.37.4}}
\@writefile{lof}{\contentsline {subfigure}{\numberline{(e)}{\ignorespaces {\ensuremath {C(r,k)+C(k,r)}\xspace }}}{59}{subfigure.37.5}}
\@writefile{lof}{\contentsline {subfigure}{\numberline{(f)}{\ignorespaces {\ensuremath {C(r,k)-C(k,r)}\xspace }}}{59}{subfigure.37.6}}
\@writefile{lof}{\contentsline {figure}{\numberline {38}{\ignorespaces Results of the polarization observables for the unfolding back to Powheg particle level. The statistical + detector-related uncertainties are shown in red, signal modelling systematics in blue. The results are compared to predictions from Powheg+Pythia.\relax }}{60}{figure.caption.58}}
\newlabel{fig:results_particle_pol}{{38}{60}{Results of the polarization observables for the unfolding back to Powheg particle level. The statistical + detector-related uncertainties are shown in red, signal modelling systematics in blue. The results are compared to predictions from Powheg+Pythia.\relax }{figure.caption.58}{}}
\newlabel{fig:results_particle_pol@cref}{{[figure][38][]38}{60}}
\@writefile{lof}{\contentsline {figure}{\numberline {39}{\ignorespaces Results of the spin correlation observables for the unfolding back to Powheg particle level. The statistical + detector-related uncertainties are shown in red, signal modelling systematics in blue. The results are compared to predictions from Powheg+Pythia.\relax }}{60}{figure.caption.59}}
\newlabel{fig:results_particle_corr}{{39}{60}{Results of the spin correlation observables for the unfolding back to Powheg particle level. The statistical + detector-related uncertainties are shown in red, signal modelling systematics in blue. The results are compared to predictions from Powheg+Pythia.\relax }{figure.caption.59}{}}
\newlabel{fig:results_particle_corr@cref}{{[figure][39][]39}{60}}
\@writefile{lof}{\contentsline {figure}{\numberline {40}{\ignorespaces Results of the cross correlation observables for the unfolding back to Powheg particle level. The statistical + detector-related uncertainties are shown in red, signal modelling systematics in blue. The results are compared to predictions from Powheg+Pythia.\relax }}{61}{figure.caption.60}}
\newlabel{fig:results_particle_crosscorr}{{40}{61}{Results of the cross correlation observables for the unfolding back to Powheg particle level. The statistical + detector-related uncertainties are shown in red, signal modelling systematics in blue. The results are compared to predictions from Powheg+Pythia.\relax }{figure.caption.60}{}}
\newlabel{fig:results_particle_crosscorr@cref}{{[figure][40][]40}{61}}
\@setckpt{Pol8TeV/Results}{
\setcounter{page}{62}
\setcounter{equation}{18}
\setcounter{enumi}{0}
\setcounter{enumii}{0}
\setcounter{enumiii}{0}
\setcounter{enumiv}{0}
\setcounter{footnote}{2}
\setcounter{mpfootnote}{0}
\setcounter{part}{0}
\setcounter{section}{8}
\setcounter{subsection}{2}
\setcounter{subsubsection}{0}
\setcounter{paragraph}{0}
\setcounter{subparagraph}{0}
\setcounter{figure}{40}
\setcounter{table}{13}
\setcounter{Item}{0}
\setcounter{Hfootnote}{2}
\setcounter{bookmark@seq@number}{37}
\setcounter{parentequation}{0}
\setcounter{linenumber}{910}
\setcounter{LN@truepage}{61}
\setcounter{ContinuedFloat}{0}
\setcounter{KVtest}{0}
\setcounter{subfigure}{0}
\setcounter{subfigure@save}{6}
\setcounter{lofdepth}{1}
\setcounter{subtable}{0}
\setcounter{subtable@save}{0}
\setcounter{lotdepth}{1}
\setcounter{Maxaffil}{0}
\setcounter{authors}{5}
\setcounter{affil}{1}
\setcounter{section@level}{2}
}
