\relax 
\providecommand\hyper@newdestlabel[2]{}
\citation{TopCommonObj}
\citation{top_objects}
\citation{Guindon:1638000}
\@writefile{toc}{\contentsline {section}{\numberline {4}Selection}{19}{section.4}}
\newlabel{sec:sel}{{4}{19}{Selection}{section.4}{}}
\newlabel{sec:sel@cref}{{[section][4][]4}{19}}
\@writefile{toc}{\contentsline {subsection}{\numberline {4.1}Object Selection}{19}{subsection.4.1}}
\newlabel{sec:selection_objects}{{4.1}{19}{Object Selection}{subsection.4.1}{}}
\newlabel{sec:selection_objects@cref}{{[subsection][1][4]4.1}{19}}
\newlabel{subsubsec:jets}{{4.1}{19}{Jets}{section*.13}{}}
\newlabel{subsubsec:jets@cref}{{[subsection][1][4]4.1}{19}}
\@writefile{toc}{\contentsline {paragraph}{Jets}{19}{section*.13}}
\newlabel{subsubsec:electrons}{{4.1}{19}{Electrons}{section*.14}{}}
\newlabel{subsubsec:electrons@cref}{{[subsection][1][4]4.1}{19}}
\@writefile{toc}{\contentsline {paragraph}{Electrons}{19}{section*.14}}
\newlabel{subsubsec:muons}{{4.1}{19}{Muons}{section*.15}{}}
\newlabel{subsubsec:muons@cref}{{[subsection][1][4]4.1}{19}}
\@writefile{toc}{\contentsline {paragraph}{Muons}{19}{section*.15}}
\@writefile{toc}{\contentsline {paragraph}{Missing Transverse Momentum}{19}{section*.16}}
\@writefile{toc}{\contentsline {paragraph}{Trigger Requirements}{20}{section*.17}}
\@writefile{toc}{\contentsline {paragraph}{Event Cleaning}{20}{section*.18}}
\@writefile{toc}{\contentsline {subsection}{\numberline {4.2}Dilepton selection}{20}{subsection.4.2}}
\newlabel{sec:selection_dilep}{{4.2}{20}{Dilepton selection}{subsection.4.2}{}}
\newlabel{sec:selection_dilep@cref}{{[subsection][2][4]4.2}{20}}
\@writefile{toc}{\contentsline {subsubsection}{\numberline {4.2.1}$Z+$jets\xspace  \ Background Estimation}{21}{subsubsection.4.2.1}}
\newlabel{sec:backgrounds_dilep_dy}{{4.2.1}{21}{\ZX \ Background Estimation}{subsubsection.4.2.1}{}}
\newlabel{sec:backgrounds_dilep_dy@cref}{{[subsubsection][1][4,2]4.2.1}{21}}
\@writefile{lof}{\contentsline {figure}{\numberline {9}{\ignorespaces Dilepton invariant mass in the pretag region for $ee$ (top-left) and $\mu \mu $ (top-right) and in the b-tag region for $ee$ (bottom-left) and $\mu \mu $ (bottom-right) before applying the scale factors. The data/MC ratio is also shown. The shaded area shows the uncertainty on the signal and background normalization. \relax }}{22}{figure.caption.19}}
\newlabel{fig:zjetsnsf1}{{9}{22}{Dilepton invariant mass in the pretag region for $ee$ (top-left) and $\mu \mu $ (top-right) and in the b-tag region for $ee$ (bottom-left) and $\mu \mu $ (bottom-right) before applying the scale factors. The data/MC ratio is also shown. The shaded area shows the uncertainty on the signal and background normalization. \relax }{figure.caption.19}{}}
\newlabel{fig:zjetsnsf1@cref}{{[figure][9][]9}{22}}
\citation{SpinCorrNote}
\@writefile{toc}{\contentsline {subsubsection}{\numberline {4.2.2}Fake Background Estimation}{23}{subsubsection.4.2.2}}
\newlabel{sec:backgrounds_dilep_fakes}{{4.2.2}{23}{Fake Background Estimation}{subsubsection.4.2.2}{}}
\newlabel{sec:backgrounds_dilep_fakes@cref}{{[subsubsection][2][4,2]4.2.2}{23}}
\@writefile{lof}{\contentsline {figure}{\numberline {10}{\ignorespaces Dilepton invariant mass in the pretag region for $ee$ (top-left) and $\mu \mu $ (top-right) and in the b-tag region for $ee$ (bottom-left) and $\mu \mu $ (bottom-right) after applying the derived scale factors. The data/MC ratio is also shown. The shaded area shows the uncertainty on the signal and background normalization. \relax }}{24}{figure.caption.20}}
\newlabel{fig:zjets1}{{10}{24}{Dilepton invariant mass in the pretag region for $ee$ (top-left) and $\mu \mu $ (top-right) and in the b-tag region for $ee$ (bottom-left) and $\mu \mu $ (bottom-right) after applying the derived scale factors. The data/MC ratio is also shown. The shaded area shows the uncertainty on the signal and background normalization. \relax }{figure.caption.20}{}}
\newlabel{fig:zjets1@cref}{{[figure][10][]10}{24}}
\@writefile{lot}{\contentsline {table}{\numberline {4}{\ignorespaces Yields obtained for the $Z+$jets\xspace  background, other background and data in the pretag and btag control region. These yields are used to estimate the different scale factors.\relax }}{24}{table.caption.22}}
\newlabel{tab:z_bkg_sf}{{4}{24}{Yields obtained for the \ZX background, other background and data in the pretag and btag control region. These yields are used to estimate the different scale factors.\relax }{table.caption.22}{}}
\newlabel{tab:z_bkg_sf@cref}{{[table][4][]4}{24}}
\@writefile{lof}{\contentsline {figure}{\numberline {11}{\ignorespaces \ensuremath  {E_{\text  {T}}^{\text  {miss}}}\xspace  in the pretag region for $ee$ (left) and $\mu \mu $ (right) (1st and 3rd rows) ) and in the b-tag region for $ee$ and $\mu \mu $ (2nd and 4th rows) before (1st and 2nd rows) and after (3rd and 4th rows) applying the scale factors. The data/MC ratio is also shown. The shaded area shows the uncertainty on the signal and background normalization. \relax }}{25}{figure.caption.21}}
\newlabel{fig:zjets2}{{11}{25}{\met in the pretag region for $ee$ (left) and $\mu \mu $ (right) (1st and 3rd rows) ) and in the b-tag region for $ee$ and $\mu \mu $ (2nd and 4th rows) before (1st and 2nd rows) and after (3rd and 4th rows) applying the scale factors. The data/MC ratio is also shown. The shaded area shows the uncertainty on the signal and background normalization. \relax }{figure.caption.21}{}}
\newlabel{fig:zjets2@cref}{{[figure][11][]11}{25}}
\@writefile{lot}{\contentsline {table}{\numberline {5}{\ignorespaces The yields in the fake control region. Only statistical uncertainties are only shown.\relax }}{26}{table.caption.23}}
\newlabel{tab:yields_CR_fakes_btag}{{5}{26}{The yields in the fake control region. Only statistical uncertainties are only shown.\relax }{table.caption.23}{}}
\newlabel{tab:yields_CR_fakes_btag@cref}{{[table][5][]5}{26}}
\@writefile{lot}{\contentsline {table}{\numberline {6}{\ignorespaces The expected number of events for the signal region after applying the corrections with only statistical uncertainties. These yields are used in the measurement.\relax }}{27}{table.caption.24}}
\newlabel{tab:yields_SR_fakes}{{6}{27}{The expected number of events for the signal region after applying the corrections with only statistical uncertainties. These yields are used in the measurement.\relax }{table.caption.24}{}}
\newlabel{tab:yields_SR_fakes@cref}{{[table][6][]6}{27}}
\@writefile{lof}{\contentsline {figure}{\numberline {12}{\ignorespaces The jet multiplicity in the same-sign control region in the $ee$ (top left), $\ensuremath  {\mu ^{+} \mu ^{-}}\xspace  $ (top right), and $e\mu $ (bottom) channel after applying the corresponding fakes scale factors. The grey area in the ratio plot corresponds to the uncertainty on the prediction where as systematic uncertainty we consider only the uncertainty on the theoretical cross-sections of all processes.\relax }}{27}{figure.caption.25}}
\newlabel{fig:CR_fakes_dil}{{12}{27}{The jet multiplicity in the same-sign control region in the $ee$ (top left), $\mumu $ (top right), and $e\mu $ (bottom) channel after applying the corresponding fakes scale factors. The grey area in the ratio plot corresponds to the uncertainty on the prediction where as systematic uncertainty we consider only the uncertainty on the theoretical cross-sections of all processes.\relax }{figure.caption.25}{}}
\newlabel{fig:CR_fakes_dil@cref}{{[figure][12][]12}{27}}
\citation{TopSysUncertainties}
\citation{ttV_norm_unc}
\@writefile{lot}{\contentsline {table}{\numberline {7}{\ignorespaces The uncertainties in the normalization of the fakes estimates due to changes in MC generators for various processes.\relax }}{28}{table.caption.26}}
\newlabel{tab:syst_fakes}{{7}{28}{The uncertainties in the normalization of the fakes estimates due to changes in MC generators for various processes.\relax }{table.caption.26}{}}
\newlabel{tab:syst_fakes@cref}{{[table][7][]7}{28}}
\@writefile{toc}{\contentsline {subsubsection}{\numberline {4.2.3}Comparison of Data and Simulation}{28}{subsubsection.4.2.3}}
\@writefile{lof}{\contentsline {figure}{\numberline {13}{\ignorespaces Comparisons of number of jets, dilepton invariant mass and \ensuremath  {E_{\text  {T}}^{\text  {miss}}}\xspace  \ distributions between data and predictions after event selection in the $ee$ (left), $e\mu $ (middle) and $\mu \mu $ channels (right). The data/expectation ratio is also shown. The shaded area shows the uncertainty on the signal and background normalization. \relax }}{29}{figure.caption.28}}
\newlabel{fig:dataMC1}{{13}{29}{Comparisons of number of jets, dilepton invariant mass and \met \ distributions between data and predictions after event selection in the $ee$ (left), $e\mu $ (middle) and $\mu \mu $ channels (right). The data/expectation ratio is also shown. The shaded area shows the uncertainty on the signal and background normalization. \relax }{figure.caption.28}{}}
\newlabel{fig:dataMC1@cref}{{[figure][13][]13}{29}}
\@writefile{lof}{\contentsline {figure}{\numberline {14}{\ignorespaces Comparisons of $H_{\rm  T}$ distribution and lepton and jet transverse momenta between data and predictions after event selection in the $ee$ (left), $e\mu $ (middle) and $\mu \mu $ channels (right). The data/expectation ratio is also shown. The shaded area shows the uncertainty on the signal and background normalization. \relax }}{30}{figure.caption.29}}
\newlabel{fig:dataMC2}{{14}{30}{Comparisons of $H_{\rm T}$ distribution and lepton and jet transverse momenta between data and predictions after event selection in the $ee$ (left), $e\mu $ (middle) and $\mu \mu $ channels (right). The data/expectation ratio is also shown. The shaded area shows the uncertainty on the signal and background normalization. \relax }{figure.caption.29}{}}
\newlabel{fig:dataMC2@cref}{{[figure][14][]14}{30}}
\@writefile{lot}{\contentsline {table}{\numberline {8}{\ignorespaces Observed number of data events in comparison to the expected number of signal events and different background contributions from MC predictions and data-driven methods (DD) as described in the text. The first uncertainty is statistical, the second corresponds to the cross-section uncertainty for a given process.\relax }}{31}{table.caption.27}}
\newlabel{tab:evtnumbers}{{8}{31}{Observed number of data events in comparison to the expected number of signal events and different background contributions from MC predictions and data-driven methods (DD) as described in the text. The first uncertainty is statistical, the second corresponds to the cross-section uncertainty for a given process.\relax }{table.caption.27}{}}
\newlabel{tab:evtnumbers@cref}{{[table][8][]8}{31}}
\@setckpt{Pol8TeV/Selection}{
\setcounter{page}{32}
\setcounter{equation}{8}
\setcounter{enumi}{0}
\setcounter{enumii}{0}
\setcounter{enumiii}{0}
\setcounter{enumiv}{0}
\setcounter{footnote}{1}
\setcounter{mpfootnote}{0}
\setcounter{part}{0}
\setcounter{section}{4}
\setcounter{subsection}{2}
\setcounter{subsubsection}{3}
\setcounter{paragraph}{0}
\setcounter{subparagraph}{0}
\setcounter{figure}{14}
\setcounter{table}{8}
\setcounter{Item}{0}
\setcounter{Hfootnote}{1}
\setcounter{bookmark@seq@number}{12}
\setcounter{parentequation}{0}
\setcounter{linenumber}{489}
\setcounter{LN@truepage}{31}
\setcounter{ContinuedFloat}{0}
\setcounter{KVtest}{0}
\setcounter{subfigure}{0}
\setcounter{subfigure@save}{2}
\setcounter{lofdepth}{1}
\setcounter{subtable}{0}
\setcounter{subtable@save}{0}
\setcounter{lotdepth}{1}
\setcounter{Maxaffil}{0}
\setcounter{authors}{5}
\setcounter{affil}{1}
\setcounter{section@level}{3}
}
