\relax 
\providecommand\hyper@newdestlabel[2]{}
\citation{top_systematics}
\@writefile{toc}{\contentsline {section}{\numberline {7}Systematics}{46}{section.7}}
\newlabel{sec:systs}{{7}{46}{Systematics}{section.7}{}}
\newlabel{sec:systs@cref}{{[section][7][]7}{46}}
\@writefile{toc}{\contentsline {subsection}{\numberline {7.1}Procedure used to assess systematic uncertainties}{46}{subsection.7.1}}
\@writefile{toc}{\contentsline {subsubsection}{\numberline {7.1.1}Signal Modelling Uncertainties}{46}{subsubsection.7.1.1}}
\newlabel{subsubsec:MCsys}{{7.1.1}{46}{Signal Modelling Uncertainties}{subsubsection.7.1.1}{}}
\newlabel{subsubsec:MCsys@cref}{{[subsubsection][1][7,1]7.1.1}{46}}
\@writefile{toc}{\contentsline {subsubsection}{\numberline {7.1.2}Detector Modelling Uncertainties}{46}{subsubsection.7.1.2}}
\newlabel{subsubsec:Detsys}{{7.1.2}{46}{Detector Modelling Uncertainties}{subsubsection.7.1.2}{}}
\newlabel{subsubsec:Detsys@cref}{{[subsubsection][2][7,1]7.1.2}{46}}
\@writefile{lof}{\contentsline {figure}{\numberline {28}{\ignorespaces Example plots for the parton shower modelling systematic. The two calibration curves are for a fixed response matrix of the nominal sample, but varied input distributions (left: Powheg+Pythia fast simulation; right: Powheg+Herwig). The calibration curves are used to calculate back the true observable, for which the measured value is obtained for both calibration curves and the difference for one calibration curve pair is added to the bottom distribution. The mean of the distribution is taken as modelling uncertainty, if the mean is larger than the distribution's width. If not, the latter is taken as final modelling uncertainty\relax }}{47}{figure.caption.45}}
\newlabel{fig:modeling_syst_calib_examples}{{28}{47}{Example plots for the parton shower modelling systematic. The two calibration curves are for a fixed response matrix of the nominal sample, but varied input distributions (left: Powheg+Pythia fast simulation; right: Powheg+Herwig). The calibration curves are used to calculate back the true observable, for which the measured value is obtained for both calibration curves and the difference for one calibration curve pair is added to the bottom distribution. The mean of the distribution is taken as modelling uncertainty, if the mean is larger than the distribution's width. If not, the latter is taken as final modelling uncertainty\relax }{figure.caption.45}{}}
\newlabel{fig:modeling_syst_calib_examples@cref}{{[figure][28][]28}{47}}
\citation{powhegbox}
\citation{mcatnlo}
\citation{herwig}
\@writefile{lof}{\contentsline {figure}{\numberline {29}{\ignorespaces Example of a bin variation done by the bootstrapping method for the down variation of the BJES uncertainty and the 9th bin of the \ensuremath  {B_{k}^{+}}\xspace  observable.\relax }}{48}{figure.caption.46}}
\newlabel{fig:bootstrap_bin_example}{{29}{48}{Example of a bin variation done by the bootstrapping method for the down variation of the BJES uncertainty and the 9th bin of the \helpolplus observable.\relax }{figure.caption.46}{}}
\newlabel{fig:bootstrap_bin_example@cref}{{[figure][29][]29}{48}}
\@writefile{toc}{\contentsline {subsubsection}{\numberline {7.1.3}Other systematics}{48}{subsubsection.7.1.3}}
\citation{toppdf}
\citation{lhapdf}
\@writefile{lof}{\contentsline {figure}{\numberline {30}{\ignorespaces Relative variations of electron identification SF with respect to the nominal \ensuremath  {\qopname  \relax o{cos}\theta }\xspace  distribution in the helicity axis.\relax }}{49}{figure.caption.47}}
\newlabel{fig:helpol_boot_elidsf}{{30}{49}{Relative variations of electron identification SF with respect to the nominal \costheta distribution in the helicity axis.\relax }{figure.caption.47}{}}
\newlabel{fig:helpol_boot_elidsf@cref}{{[figure][30][]30}{49}}
\@writefile{toc}{\contentsline {subsection}{\numberline {7.2}List of systematics considered}{49}{subsection.7.2}}
\@writefile{toc}{\contentsline {subsubsection}{\numberline {7.2.1}\ensuremath  {t\bar {t}}\xspace  \ modelling systematics}{49}{subsubsection.7.2.1}}
\citation{top_object_selection}
\@writefile{lot}{\contentsline {table}{\numberline {11}{\ignorespaces Comparison of the observable values as obtained from the truth distributions of all different MC samples that are used within the analysis.\relax }}{50}{table.caption.48}}
\newlabel{tab:numbers_mctheo_systs}{{11}{50}{Comparison of the observable values as obtained from the truth distributions of all different MC samples that are used within the analysis.\relax }{table.caption.48}{}}
\newlabel{tab:numbers_mctheo_systs@cref}{{[table][11][]11}{50}}
\@writefile{toc}{\contentsline {subsubsection}{\numberline {7.2.2}Background uncertainties}{50}{subsubsection.7.2.2}}
\@writefile{toc}{\contentsline {subsubsection}{\numberline {7.2.3}Detector modelling systematics}{50}{subsubsection.7.2.3}}
\@writefile{lof}{\contentsline {figure}{\numberline {31}{\ignorespaces Nuisance parameters for the parton level unfolding of the helicity polarization using the Asimov data set (black). The red bars refer to the data measurement. \relax }}{52}{figure.caption.50}}
\newlabel{fig:nuisance_helpol_asimov}{{31}{52}{Nuisance parameters for the parton level unfolding of the helicity polarization using the Asimov data set (black). The red bars refer to the data measurement. \relax }{figure.caption.50}{}}
\newlabel{fig:nuisance_helpol_asimov@cref}{{[figure][31][]31}{52}}
\@writefile{lot}{\contentsline {table}{\numberline {12}{\ignorespaces Notation for all the detector systematics considered in this analysis.\relax }}{53}{table.caption.49}}
\newlabel{tab:notation}{{12}{53}{Notation for all the detector systematics considered in this analysis.\relax }{table.caption.49}{}}
\newlabel{tab:notation@cref}{{[table][12][]12}{53}}
\@setckpt{Pol8TeV/Systematics}{
\setcounter{page}{54}
\setcounter{equation}{18}
\setcounter{enumi}{0}
\setcounter{enumii}{0}
\setcounter{enumiii}{0}
\setcounter{enumiv}{0}
\setcounter{footnote}{2}
\setcounter{mpfootnote}{0}
\setcounter{part}{0}
\setcounter{section}{7}
\setcounter{subsection}{2}
\setcounter{subsubsection}{3}
\setcounter{paragraph}{0}
\setcounter{subparagraph}{0}
\setcounter{figure}{31}
\setcounter{table}{12}
\setcounter{Item}{0}
\setcounter{Hfootnote}{2}
\setcounter{bookmark@seq@number}{34}
\setcounter{parentequation}{0}
\setcounter{linenumber}{872}
\setcounter{LN@truepage}{53}
\setcounter{ContinuedFloat}{0}
\setcounter{KVtest}{0}
\setcounter{subfigure}{0}
\setcounter{subfigure@save}{2}
\setcounter{lofdepth}{1}
\setcounter{subtable}{0}
\setcounter{subtable@save}{0}
\setcounter{lotdepth}{1}
\setcounter{Maxaffil}{0}
\setcounter{authors}{5}
\setcounter{affil}{1}
\setcounter{section@level}{3}
}
