\relax 
\providecommand\hyper@newdestlabel[2]{}
\citation{powhegbox}
\citation{pythia6}
\citation{alpgen}
\citation{herwig}
\citation{pythia8}
\citation{spinobspaper}
\citation{spinobspaper}
\citation{spinobspaper}
\@writefile{toc}{\contentsline {section}{\numberline {3}Monte Carlo}{10}{section.3}}
\newlabel{sec:truth}{{3}{10}{Monte Carlo}{section.3}{}}
\newlabel{sec:truth@cref}{{[section][3][]3}{10}}
\@writefile{toc}{\contentsline {subsection}{\numberline {3.1}Parton level}{10}{subsection.3.1}}
\newlabel{sec:parton_def}{{3.1}{10}{Parton level}{subsection.3.1}{}}
\newlabel{sec:parton_def@cref}{{[subsection][1][3]3.1}{10}}
\@writefile{lot}{\contentsline {table}{\numberline {3}{\ignorespaces Comparison of polarization and spin correlation values from theoretical predictions(~\cite  {spinobspaper}) and the signal MC sample(see app.~\ref  {app:mcsamples}).\relax }}{11}{table.caption.4}}
\newlabel{tab:numbers_mctheo}{{3}{11}{Comparison of polarization and spin correlation values from theoretical predictions(~\cite {spinobspaper}) and the signal MC sample(see app.~\ref {app:mcsamples}).\relax }{table.caption.4}{}}
\newlabel{tab:numbers_mctheo@cref}{{[table][3][]3}{11}}
\@writefile{toc}{\contentsline {subsection}{\numberline {3.2}Stable-particle level}{11}{subsection.3.2}}
\newlabel{sec:fiducial_def}{{3.2}{11}{Stable-particle level}{subsection.3.2}{}}
\newlabel{sec:fiducial_def@cref}{{[subsection][2][3]3.2}{11}}
\@writefile{lof}{\contentsline {figure}{\numberline {1}{\ignorespaces Comparison of polarization observables in different axes on Monte Carlo parton level for SM spin correlation and no correlation (which should not affect the polarization, any differences come from the generators and parton showers themselves).\relax }}{12}{figure.caption.5}}
\newlabel{fig:truth_dists0}{{1}{12}{Comparison of polarization observables in different axes on Monte Carlo parton level for SM spin correlation and no correlation (which should not affect the polarization, any differences come from the generators and parton showers themselves).\relax }{figure.caption.5}{}}
\newlabel{fig:truth_dists0@cref}{{[figure][1][]1}{12}}
\@writefile{lof}{\contentsline {subfigure}{\numberline{(a)}{\ignorespaces {\ensuremath {B_{k}^{+}}\xspace }}}{12}{subfigure.1.1}}
\@writefile{lof}{\contentsline {subfigure}{\numberline{(b)}{\ignorespaces {\ensuremath {B_{n}^{+}}\xspace }}}{12}{subfigure.1.2}}
\@writefile{lof}{\contentsline {subfigure}{\numberline{(c)}{\ignorespaces {\ensuremath {B_{r}^{+}}\xspace }}}{12}{subfigure.1.3}}
\@writefile{lof}{\contentsline {figure}{\numberline {2}{\ignorespaces Comparison of spin correlation observables in different axes on Monte Carlo parton level for SM spin correlation and no correlation.\relax }}{13}{figure.caption.6}}
\newlabel{fig:truth_dists1}{{2}{13}{Comparison of spin correlation observables in different axes on Monte Carlo parton level for SM spin correlation and no correlation.\relax }{figure.caption.6}{}}
\newlabel{fig:truth_dists1@cref}{{[figure][2][]2}{13}}
\@writefile{lof}{\contentsline {subfigure}{\numberline{(a)}{\ignorespaces {\ensuremath {C(k,k)}\xspace }}}{13}{subfigure.2.1}}
\@writefile{lof}{\contentsline {subfigure}{\numberline{(b)}{\ignorespaces {\ensuremath {C(n,n)}\xspace }}}{13}{subfigure.2.2}}
\@writefile{lof}{\contentsline {subfigure}{\numberline{(c)}{\ignorespaces {\ensuremath {C(r,r)}\xspace }}}{13}{subfigure.2.3}}
\@writefile{lof}{\contentsline {figure}{\numberline {3}{\ignorespaces Comparison of spin correlation observables in different axes on Monte Carlo parton level for SM spin correlation and no correlation.\relax }}{14}{figure.caption.7}}
\newlabel{fig:truth_dists2}{{3}{14}{Comparison of spin correlation observables in different axes on Monte Carlo parton level for SM spin correlation and no correlation.\relax }{figure.caption.7}{}}
\newlabel{fig:truth_dists2@cref}{{[figure][3][]3}{14}}
\@writefile{lof}{\contentsline {subfigure}{\numberline{(a)}{\ignorespaces {\ensuremath {C(n,k)+C(k,n)}\xspace }}}{14}{subfigure.3.1}}
\@writefile{lof}{\contentsline {subfigure}{\numberline{(b)}{\ignorespaces {\ensuremath {C(n,k)-C(k,n)}\xspace }}}{14}{subfigure.3.2}}
\@writefile{lof}{\contentsline {subfigure}{\numberline{(c)}{\ignorespaces {\ensuremath {C(n,r)+C(r,n)}\xspace }}}{14}{subfigure.3.3}}
\@writefile{lof}{\contentsline {subfigure}{\numberline{(d)}{\ignorespaces {\ensuremath {C(n,r)-C(r,n)}\xspace }}}{14}{subfigure.3.4}}
\@writefile{lof}{\contentsline {figure}{\numberline {4}{\ignorespaces Comparison of spin correlation observables in different axes on Monte Carlo parton level for SM spin correlation and no correlation.\relax }}{14}{figure.caption.8}}
\newlabel{fig:truth_dists3}{{4}{14}{Comparison of spin correlation observables in different axes on Monte Carlo parton level for SM spin correlation and no correlation.\relax }{figure.caption.8}{}}
\newlabel{fig:truth_dists3@cref}{{[figure][4][]4}{14}}
\@writefile{lof}{\contentsline {subfigure}{\numberline{(a)}{\ignorespaces {\ensuremath {C(r,k)+C(k,r)}\xspace }}}{14}{subfigure.4.1}}
\@writefile{lof}{\contentsline {subfigure}{\numberline{(b)}{\ignorespaces {\ensuremath {C(r,k)-C(k,r)}\xspace }}}{14}{subfigure.4.2}}
\citation{pseudotop}
\citation{pseudotop}
\@writefile{lof}{\contentsline {figure}{\numberline {5}{\ignorespaces Comparison of polarization observables in different axes on stable-particle level for SM spin correlation and no correlation.\relax }}{16}{figure.caption.9}}
\newlabel{fig:truth_fid_dists0}{{5}{16}{Comparison of polarization observables in different axes on stable-particle level for SM spin correlation and no correlation.\relax }{figure.caption.9}{}}
\newlabel{fig:truth_fid_dists0@cref}{{[figure][5][]5}{16}}
\@writefile{lof}{\contentsline {subfigure}{\numberline{(a)}{\ignorespaces {\ensuremath {B_{k}^{+}}\xspace }}}{16}{subfigure.5.1}}
\@writefile{lof}{\contentsline {subfigure}{\numberline{(b)}{\ignorespaces {\ensuremath {B_{n}^{+}}\xspace }}}{16}{subfigure.5.2}}
\@writefile{lof}{\contentsline {subfigure}{\numberline{(c)}{\ignorespaces {\ensuremath {B_{r}^{+}}\xspace }}}{16}{subfigure.5.3}}
\@writefile{lof}{\contentsline {figure}{\numberline {6}{\ignorespaces Comparison of spin correlation observables in different axes on stable-particle level for SM spin correlation and no correlation.\relax }}{17}{figure.caption.10}}
\newlabel{fig:truth_fid_dists1}{{6}{17}{Comparison of spin correlation observables in different axes on stable-particle level for SM spin correlation and no correlation.\relax }{figure.caption.10}{}}
\newlabel{fig:truth_fid_dists1@cref}{{[figure][6][]6}{17}}
\@writefile{lof}{\contentsline {subfigure}{\numberline{(a)}{\ignorespaces {\ensuremath {C(k,k)}\xspace }}}{17}{subfigure.6.1}}
\@writefile{lof}{\contentsline {subfigure}{\numberline{(b)}{\ignorespaces {\ensuremath {C(n,n)}\xspace }}}{17}{subfigure.6.2}}
\@writefile{lof}{\contentsline {subfigure}{\numberline{(c)}{\ignorespaces {\ensuremath {C(r,r)}\xspace }}}{17}{subfigure.6.3}}
\@writefile{lof}{\contentsline {figure}{\numberline {7}{\ignorespaces Comparison of spin correlation observables in different axes on stable-particle level for SM spin correlation and no correlation.\relax }}{18}{figure.caption.11}}
\newlabel{fig:truth_fid_dists2}{{7}{18}{Comparison of spin correlation observables in different axes on stable-particle level for SM spin correlation and no correlation.\relax }{figure.caption.11}{}}
\newlabel{fig:truth_fid_dists2@cref}{{[figure][7][]7}{18}}
\@writefile{lof}{\contentsline {subfigure}{\numberline{(a)}{\ignorespaces {\ensuremath {C(n,k)+C(k,n)}\xspace }}}{18}{subfigure.7.1}}
\@writefile{lof}{\contentsline {subfigure}{\numberline{(b)}{\ignorespaces {\ensuremath {C(n,k)-C(k,n)}\xspace }}}{18}{subfigure.7.2}}
\@writefile{lof}{\contentsline {subfigure}{\numberline{(c)}{\ignorespaces {\ensuremath {C(n,r)+C(r,n)}\xspace }}}{18}{subfigure.7.3}}
\@writefile{lof}{\contentsline {subfigure}{\numberline{(d)}{\ignorespaces {\ensuremath {C(n,r)-C(r,n)}\xspace }}}{18}{subfigure.7.4}}
\@writefile{lof}{\contentsline {figure}{\numberline {8}{\ignorespaces Comparison of spin correlation observables in different axes on stable-particle level for SM spin correlation and no correlation.\relax }}{18}{figure.caption.12}}
\newlabel{fig:truth_fid_dists3}{{8}{18}{Comparison of spin correlation observables in different axes on stable-particle level for SM spin correlation and no correlation.\relax }{figure.caption.12}{}}
\newlabel{fig:truth_fid_dists3@cref}{{[figure][8][]8}{18}}
\@writefile{lof}{\contentsline {subfigure}{\numberline{(a)}{\ignorespaces {\ensuremath {C(r,k)+C(k,r)}\xspace }}}{18}{subfigure.8.1}}
\@writefile{lof}{\contentsline {subfigure}{\numberline{(b)}{\ignorespaces {\ensuremath {C(r,k)-C(k,r)}\xspace }}}{18}{subfigure.8.2}}
\@setckpt{Pol8TeV/Truth}{
\setcounter{page}{19}
\setcounter{equation}{7}
\setcounter{enumi}{0}
\setcounter{enumii}{0}
\setcounter{enumiii}{0}
\setcounter{enumiv}{0}
\setcounter{footnote}{1}
\setcounter{mpfootnote}{0}
\setcounter{part}{0}
\setcounter{section}{3}
\setcounter{subsection}{2}
\setcounter{subsubsection}{0}
\setcounter{paragraph}{0}
\setcounter{subparagraph}{0}
\setcounter{figure}{8}
\setcounter{table}{3}
\setcounter{Item}{0}
\setcounter{Hfootnote}{1}
\setcounter{bookmark@seq@number}{6}
\setcounter{parentequation}{0}
\setcounter{linenumber}{288}
\setcounter{LN@truepage}{18}
\setcounter{ContinuedFloat}{0}
\setcounter{KVtest}{0}
\setcounter{subfigure}{0}
\setcounter{subfigure@save}{2}
\setcounter{lofdepth}{1}
\setcounter{subtable}{0}
\setcounter{subtable@save}{0}
\setcounter{lotdepth}{1}
\setcounter{Maxaffil}{0}
\setcounter{authors}{5}
\setcounter{affil}{1}
\setcounter{section@level}{2}
}
