\relax 
\providecommand\hyper@newdestlabel[2]{}
\citation{FBU}
\citation{PyFBU}
\citation{tikhonov_rew}
\@writefile{toc}{\contentsline {section}{\numberline {6}Unfolding}{36}{section.6}}
\newlabel{sec:fbu}{{6}{36}{Unfolding}{section.6}{}}
\newlabel{sec:fbu@cref}{{[section][6][]6}{36}}
\@writefile{toc}{\contentsline {subsection}{\numberline {6.1}FBU}{36}{subsection.6.1}}
\@writefile{toc}{\contentsline {subsubsection}{\numberline {6.1.1}FBU Ingredients}{36}{subsubsection.6.1.1}}
\@writefile{toc}{\contentsline {subsubsection}{\numberline {6.1.2}Prior Choice}{36}{subsubsection.6.1.2}}
\@writefile{toc}{\contentsline {subsubsection}{\numberline {6.1.3}Marginalization}{37}{subsubsection.6.1.3}}
\@writefile{toc}{\contentsline {subsection}{\numberline {6.2}Parton level unfolding}{37}{subsection.6.2}}
\newlabel{sec:unf_parton}{{6.2}{37}{Parton level unfolding}{subsection.6.2}{}}
\newlabel{sec:unf_parton@cref}{{[subsection][2][6]6.2}{37}}
\@writefile{lof}{\contentsline {figure}{\numberline {18}{\ignorespaces Example of a signal input distribution and its response matrix as used in the unfolding. The different channels for the response matrix are clearly visible and follow the same order as for the input distribution.\relax }}{38}{figure.caption.34}}
\newlabel{fig:unf_example}{{18}{38}{Example of a signal input distribution and its response matrix as used in the unfolding. The different channels for the response matrix are clearly visible and follow the same order as for the input distribution.\relax }{figure.caption.34}{}}
\newlabel{fig:unf_example@cref}{{[figure][18][]18}{38}}
\@writefile{lof}{\contentsline {subfigure}{\numberline{(a)}{\ignorespaces {Example \ensuremath {t\bar {t}}\xspace spin correlation distribution in the helicity axes as input for the unfolding}}}{38}{subfigure.18.1}}
\@writefile{lof}{\contentsline {subfigure}{\numberline{(b)}{\ignorespaces {Example response matrix of the spin correlation in the helicity axis as it used in the unfolding}}}{38}{subfigure.18.2}}
\@writefile{toc}{\contentsline {subsubsection}{\numberline {6.2.1}Binning choice}{39}{subsubsection.6.2.1}}
\newlabel{subsubsec:unf_bin}{{6.2.1}{39}{Binning choice}{subsubsection.6.2.1}{}}
\newlabel{subsubsec:unf_bin@cref}{{[subsubsection][1][6,2]6.2.1}{39}}
\newlabel{eqn:rew_pol}{{17}{39}{Binning choice}{equation.6.17}{}}
\newlabel{eqn:rew_pol@cref}{{[subsubsection][1][6,2]6.2.1}{39}}
\newlabel{fig:unf_bin_transcorr_slopes}{{19a}{40}{Subfigure 19a}{subfigure.19.1}{}}
\newlabel{sub@fig:unf_bin_transcorr_slopes}{{(a)}{a}{Subfigure 19a\relax }{subfigure.19.1}{}}
\newlabel{fig:unf_bin_transcorr_slopes@cref}{{[subfigure][1][19]19a}{40}}
\newlabel{fig:unf_bin_transcorr_offsets}{{19b}{40}{Subfigure 19b}{subfigure.19.2}{}}
\newlabel{sub@fig:unf_bin_transcorr_offsets}{{(b)}{b}{Subfigure 19b\relax }{subfigure.19.2}{}}
\newlabel{fig:unf_bin_transcorr_offsets@cref}{{[subfigure][2][19]19b}{40}}
\newlabel{fig:unf_bin_transcorr_pulls}{{19c}{40}{Subfigure 19c}{subfigure.19.3}{}}
\newlabel{sub@fig:unf_bin_transcorr_pulls}{{(c)}{c}{Subfigure 19c\relax }{subfigure.19.3}{}}
\newlabel{fig:unf_bin_transcorr_pulls@cref}{{[subfigure][3][19]19c}{40}}
\newlabel{fig:unf_bin_transcorr_relative}{{19d}{40}{Subfigure 19d}{subfigure.19.4}{}}
\newlabel{sub@fig:unf_bin_transcorr_relative}{{(d)}{d}{Subfigure 19d\relax }{subfigure.19.4}{}}
\newlabel{fig:unf_bin_transcorr_relative@cref}{{[subfigure][4][19]19d}{40}}
\@writefile{lof}{\contentsline {figure}{\numberline {19}{\ignorespaces Binning optimisation plots for the transverse correlation. Shown are the slopes and offsets of the calibration curves for different binnings (top), the pulls of the observables and its unfolded distributions (bottom left) as well as the relative differences of the ensembles with respect to the truth distribution.\relax }}{40}{figure.caption.35}}
\newlabel{fig:binning_opti_transcorr}{{19}{40}{Binning optimisation plots for the transverse correlation. Shown are the slopes and offsets of the calibration curves for different binnings (top), the pulls of the observables and its unfolded distributions (bottom left) as well as the relative differences of the ensembles with respect to the truth distribution.\relax }{figure.caption.35}{}}
\newlabel{fig:binning_opti_transcorr@cref}{{[figure][19][]19}{40}}
\@writefile{lof}{\contentsline {subfigure}{\numberline{(a)}{\ignorespaces {Slopes}}}{40}{subfigure.19.1}}
\@writefile{lof}{\contentsline {subfigure}{\numberline{(b)}{\ignorespaces {Offsets}}}{40}{subfigure.19.2}}
\@writefile{lof}{\contentsline {subfigure}{\numberline{(c)}{\ignorespaces {Pulls}}}{40}{subfigure.19.3}}
\@writefile{lof}{\contentsline {subfigure}{\numberline{(d)}{\ignorespaces {Relative difference}}}{40}{subfigure.19.4}}
\@writefile{toc}{\contentsline {subsection}{\numberline {6.3}Stable-particle level unfolding}{40}{subsection.6.3}}
\newlabel{sec:unf_fiducial}{{6.3}{40}{Stable-particle level unfolding}{subsection.6.3}{}}
\newlabel{sec:unf_fiducial@cref}{{[subsection][3][6]6.3}{40}}
\newlabel{fig:unf_bin_transcorr_slopes_unc}{{20a}{41}{Subfigure 20a}{subfigure.20.1}{}}
\newlabel{sub@fig:unf_bin_transcorr_slopes_unc}{{(a)}{a}{Subfigure 20a\relax }{subfigure.20.1}{}}
\newlabel{fig:unf_bin_transcorr_slopes_unc@cref}{{[subfigure][1][20]20a}{41}}
\newlabel{fig:unf_bin_transcorr_offsets_unc}{{20b}{41}{Subfigure 20b}{subfigure.20.2}{}}
\newlabel{sub@fig:unf_bin_transcorr_offsets_unc}{{(b)}{b}{Subfigure 20b\relax }{subfigure.20.2}{}}
\newlabel{fig:unf_bin_transcorr_offsets_unc@cref}{{[subfigure][2][20]20b}{41}}
\@writefile{lof}{\contentsline {figure}{\numberline {20}{\ignorespaces The slopes (left) and offsets (right) of the calibration curves for two different binnings of the transverse correlation along with the uncertainty on the slope/offset (grey band) for one binning.\relax }}{41}{figure.caption.36}}
\newlabel{fig:binning_calib_transcorr_unc}{{20}{41}{The slopes (left) and offsets (right) of the calibration curves for two different binnings of the transverse correlation along with the uncertainty on the slope/offset (grey band) for one binning.\relax }{figure.caption.36}{}}
\newlabel{fig:binning_calib_transcorr_unc@cref}{{[figure][20][]20}{41}}
\@writefile{lof}{\contentsline {subfigure}{\numberline{(a)}{\ignorespaces {Slope uncertainty}}}{41}{subfigure.20.1}}
\@writefile{lof}{\contentsline {subfigure}{\numberline{(b)}{\ignorespaces {Offset uncertainty}}}{41}{subfigure.20.2}}
\@writefile{lot}{\contentsline {table}{\numberline {10}{\ignorespaces Chosen binning configurations for the partonic measurement\relax }}{41}{table.caption.37}}
\newlabel{tbl:chosen_binnings}{{10}{41}{Chosen binning configurations for the partonic measurement\relax }{table.caption.37}{}}
\newlabel{tbl:chosen_binnings@cref}{{[table][10][]10}{41}}
\@writefile{toc}{\contentsline {subsubsection}{\numberline {6.3.1}Non-fiducial background}{42}{subsubsection.6.3.1}}
\@writefile{lof}{\contentsline {figure}{\numberline {21}{\ignorespaces Fraction of nonfiducial to all reconstructed signal (nonfid.+fid.) events for the helicity correlation for different levels of spin correlation. The figure is splitted for the different channels $ee$\xspace  (left), $\mu \mu $\xspace  (middle) and $e\mu $\xspace  (right). The ratio with respect to the SM fraction is shown at the bottom of the figure. (KIN method plot)\relax }}{42}{figure.caption.38}}
\newlabel{fig:helcorr_nonfid_ratios}{{21}{42}{Fraction of nonfiducial to all reconstructed signal (nonfid.+fid.) events for the helicity correlation for different levels of spin correlation. The figure is splitted for the different channels \eeme (left), \mumume (middle) and \emume (right). The ratio with respect to the SM fraction is shown at the bottom of the figure. (KIN method plot)\relax }{figure.caption.38}{}}
\newlabel{fig:helcorr_nonfid_ratios@cref}{{[figure][21][]21}{42}}
\@writefile{lof}{\contentsline {figure}{\numberline {22}{\ignorespaces Fraction of non-fiducial to all reconstructed signal (nonfid.+fid.) events for the helicity polarization (left) and helicity correlation (right).\relax }}{43}{figure.caption.39}}
\newlabel{fig:helpolcorr_nonfid_ratios}{{22}{43}{Fraction of non-fiducial to all reconstructed signal (nonfid.+fid.) events for the helicity polarization (left) and helicity correlation (right).\relax }{figure.caption.39}{}}
\newlabel{fig:helpolcorr_nonfid_ratios@cref}{{[figure][22][]22}{43}}
\@writefile{lof}{\contentsline {figure}{\numberline {23}{\ignorespaces Fraction of non-fiducial to all reconstructed signal (nonfid.+fid.) events for the transverse polarization (left) and transverse correlation (right).\relax }}{43}{figure.caption.40}}
\newlabel{fig:helpolcorr_nonfid_ratios}{{23}{43}{Fraction of non-fiducial to all reconstructed signal (nonfid.+fid.) events for the transverse polarization (left) and transverse correlation (right).\relax }{figure.caption.40}{}}
\newlabel{fig:helpolcorr_nonfid_ratios@cref}{{[figure][23][]23}{43}}
\@writefile{lof}{\contentsline {figure}{\numberline {24}{\ignorespaces Fraction of non-fiducial to all reconstructed signal (nonfid.+fid.) events for the r-axis polarization (left) and r-axis correlation (right).\relax }}{43}{figure.caption.41}}
\newlabel{fig:rpolcorr_nonfid_ratios}{{24}{43}{Fraction of non-fiducial to all reconstructed signal (nonfid.+fid.) events for the r-axis polarization (left) and r-axis correlation (right).\relax }{figure.caption.41}{}}
\newlabel{fig:rpolcorr_nonfid_ratios@cref}{{[figure][24][]24}{43}}
\@writefile{lof}{\contentsline {figure}{\numberline {25}{\ignorespaces Fraction of non-fiducial to all reconstructed signal (nonfid.+fid.) events for the \ensuremath  {C(n,k)+C(k,n)}\xspace  (left) and \ensuremath  {C(n,k)-C(k,n)}\xspace  (right) observables.\relax }}{44}{figure.caption.42}}
\newlabel{fig:transhel_nonfid_ratios}{{25}{44}{Fraction of non-fiducial to all reconstructed signal (nonfid.+fid.) events for the \transhelsum (left) and \transheldiff (right) observables.\relax }{figure.caption.42}{}}
\newlabel{fig:transhel_nonfid_ratios@cref}{{[figure][25][]25}{44}}
\@writefile{lof}{\contentsline {figure}{\numberline {26}{\ignorespaces Fraction of non-fiducial to all reconstructed signal (nonfid.+fid.) events for the \ensuremath  {C(n,r)+C(r,n)}\xspace  (left) and \ensuremath  {C(n,r)-C(r,n)}\xspace  (right) observables.\relax }}{44}{figure.caption.43}}
\newlabel{fig:transr_nonfid_ratios}{{26}{44}{Fraction of non-fiducial to all reconstructed signal (nonfid.+fid.) events for the \transrsum (left) and \transrdiff (right) observables.\relax }{figure.caption.43}{}}
\newlabel{fig:transr_nonfid_ratios@cref}{{[figure][26][]26}{44}}
\@writefile{lof}{\contentsline {figure}{\numberline {27}{\ignorespaces Fraction of non-fiducial to all reconstructed signal (nonfid.+fid.) events for the \ensuremath  {C(r,k)+C(k,r)}\xspace  (left) and \ensuremath  {C(r,k)-C(k,r)}\xspace  (right) observables.\relax }}{44}{figure.caption.44}}
\newlabel{fig:rhel_nonfid_ratios}{{27}{44}{Fraction of non-fiducial to all reconstructed signal (nonfid.+fid.) events for the \rhelsum (left) and \rheldiff (right) observables.\relax }{figure.caption.44}{}}
\newlabel{fig:rhel_nonfid_ratios@cref}{{[figure][27][]27}{44}}
\@writefile{toc}{\contentsline {subsubsection}{\numberline {6.3.2}Binning choice}{45}{subsubsection.6.3.2}}
\@setckpt{Pol8TeV/Unfolding}{
\setcounter{page}{46}
\setcounter{equation}{18}
\setcounter{enumi}{0}
\setcounter{enumii}{0}
\setcounter{enumiii}{0}
\setcounter{enumiv}{0}
\setcounter{footnote}{1}
\setcounter{mpfootnote}{0}
\setcounter{part}{0}
\setcounter{section}{6}
\setcounter{subsection}{3}
\setcounter{subsubsection}{2}
\setcounter{paragraph}{0}
\setcounter{subparagraph}{0}
\setcounter{figure}{27}
\setcounter{table}{10}
\setcounter{Item}{0}
\setcounter{Hfootnote}{1}
\setcounter{bookmark@seq@number}{25}
\setcounter{parentequation}{0}
\setcounter{linenumber}{713}
\setcounter{LN@truepage}{45}
\setcounter{ContinuedFloat}{0}
\setcounter{KVtest}{0}
\setcounter{subfigure}{0}
\setcounter{subfigure@save}{2}
\setcounter{lofdepth}{1}
\setcounter{subtable}{0}
\setcounter{subtable@save}{0}
\setcounter{lotdepth}{1}
\setcounter{Maxaffil}{0}
\setcounter{authors}{5}
\setcounter{affil}{1}
\setcounter{section@level}{3}
}
