%!PS-Adobe-3.0 EPSF-3.0
%%Title: systematics/plots/nuisance_transhelsum_full.eps
%%Creator: matplotlib version 1.5.1, http://matplotlib.org/
%%CreationDate: Thu Aug 18 14:12:15 2016
%%Orientation: portrait
%%BoundingBox: 18 -36 594 828
%%EndComments
%%BeginProlog
/mpldict 11 dict def
mpldict begin
/m { moveto } bind def
/l { lineto } bind def
/r { rlineto } bind def
/c { curveto } bind def
/cl { closepath } bind def
/box {
m
1 index 0 r
0 exch r
neg 0 r
cl
} bind def
/clipbox {
box
clip
newpath
} bind def
%!PS-Adobe-3.0 Resource-Font
%%Title: cmr10
%%Copyright: Copyright (C) 1994, Basil K. Malyshev. All Rights Reserved.012BaKoMa Fonts Collection, Level-B.
%%Creator: Converted from TrueType to type 3 by PPR
25 dict begin
/_d{bind def}bind def
/_m{moveto}_d
/_l{lineto}_d
/_cl{closepath eofill}_d
/_c{curveto}_d
/_sc{7 -1 roll{setcachedevice}{pop pop pop pop pop pop}ifelse}_d
/_e{exec}_d
/FontName /Cmr10 def
/PaintType 0 def
/FontMatrix[.001 0 0 .001 0 0]def
/FontBBox[-44 -250 1009 750]def
/FontType 3 def
/Encoding [ /two /one ] def
/FontInfo 10 dict dup begin
/FamilyName (cmr10) def
/FullName (cmr10) def
/Notice (Copyright (C) 1994, Basil K. Malyshev. All Rights Reserved.012BaKoMa Fonts Collection, Level-B. ) def
/Weight (Regular) def
/Version (1.1/12-Nov-94) def
/ItalicAngle 0.0 def
/isFixedPitch false def
/UnderlinePosition -133 def
/UnderlineThickness 20 def
end readonly def
/CharStrings 2 dict dup begin
/two{{500 0 50 0 449 666 _sc
50 0 _m
50 27 _l
50 28 50 30 52 32 _c
207 204 _l
230 229 249 250 264 268 _c
278 285 293 305 307 327 _c
321 349 333 372 341 396 _c
349 419 354 444 354 470 _c
354 497 349 523 339 548 _c
329 573 314 593 294 608 _c
274 623 249 631 221 631 _c
192 631 166 622 143 605 _c
119 587 103 565 94 537 _c
96 537 100 538 105 538 _c
}_e{119 538 132 533 143 523 _c
153 513 159 500 159 484 _c
159 468 153 455 143 445 _c
132 434 119 429 105 429 _c
89 429 76 434 66 445 _c
55 456 50 469 50 484 _c
50 508 54 532 64 554 _c
73 576 86 595 104 613 _c
122 630 142 643 164 652 _c
186 661 210 666 236 666 _c
274 666 309 658 342 642 _c
375 626 401 603 420 573 _c
439 543 449 509 449 470 _c
}_e{449 441 442 414 430 388 _c
417 362 401 338 381 317 _c
361 295 336 271 305 244 _c
274 217 254 199 244 190 _c
131 81 _l
227 81 _l
274 81 313 81 345 82 _c
377 82 394 84 396 86 _c
404 94 412 125 420 178 _c
449 178 _l
421 0 _l
50 0 _l
_cl}_e}_d
/one{500 0 87 0 421 666 _sc
93 0 _m
93 35 _l
176 35 218 45 218 67 _c
218 592 _l
183 575 139 567 87 567 _c
87 602 _l
168 602 230 623 272 666 _c
286 666 _l
288 666 291 665 293 663 _c
295 661 296 659 296 657 _c
296 67 _l
296 45 337 35 421 35 _c
421 0 _l
93 0 _l
_cl}_d
end readonly def

/BuildGlyph
 {exch begin
 CharStrings exch
 2 copy known not{pop /.notdef}if
 true 3 1 roll get exec
 end}_d

/BuildChar {
 1 index /Encoding get exch get
 1 index /BuildGlyph get exec
}_d

FontName currentdict end definefont pop
%!PS-Adobe-3.0 Resource-Font
%%Title: cmsy10
%%Copyright: Copyright (C) 1994, Basil K. Malyshev. All Rights Reserved.012BaKoMa Fonts Collection, Level-B.
%%Creator: Converted from TrueType to type 3 by PPR
25 dict begin
/_d{bind def}bind def
/_m{moveto}_d
/_l{lineto}_d
/_cl{closepath eofill}_d
/_c{curveto}_d
/_sc{7 -1 roll{setcachedevice}{pop pop pop pop pop pop}ifelse}_d
/_e{exec}_d
/FontName /Cmsy10 def
/PaintType 0 def
/FontMatrix[.001 0 0 .001 0 0]def
/FontBBox[-29 -960 1123 779]def
/FontType 3 def
/Encoding [ /plusminus ] def
/FontInfo 10 dict dup begin
/FamilyName (cmsy10) def
/FullName (cmsy10) def
/Notice (Copyright (C) 1994, Basil K. Malyshev. All Rights Reserved.012BaKoMa Fonts Collection, Level-B. ) def
/Weight (Regular) def
/Version (1.1/12-Nov-94) def
/ItalicAngle 0.0 def
/isFixedPitch false def
/UnderlinePosition -133 def
/UnderlineThickness 20 def
end readonly def
/CharStrings 1 dict dup begin
/plusminus{{777 0 56 0 721 666 _sc
75 0 _m
69 0 65 2 61 6 _c
57 10 56 14 56 20 _c
56 24 57 29 61 33 _c
65 37 69 40 75 40 _c
369 40 _l
369 313 _l
75 313 _l
69 313 65 315 61 319 _c
57 323 56 328 56 333 _c
56 337 57 342 61 346 _c
65 350 69 353 75 353 _c
369 353 _l
369 648 _l
369 653 371 657 375 661 _c
379 664 383 666 389 666 _c
}_e{393 666 398 664 402 661 _c
406 657 409 653 409 648 _c
409 353 _l
703 353 _l
707 353 711 350 715 346 _c
719 342 721 337 721 333 _c
721 328 719 323 715 319 _c
711 315 707 313 703 313 _c
409 313 _l
409 40 _l
703 40 _l
707 40 711 37 715 33 _c
719 29 721 24 721 20 _c
721 14 719 10 715 6 _c
711 2 707 0 703 0 _c
75 0 _l
_cl}_e}_d
end readonly def

/BuildGlyph
 {exch begin
 CharStrings exch
 2 copy known not{pop /.notdef}if
 true 3 1 roll get exec
 end}_d

/BuildChar {
 1 index /Encoding get exch get
 1 index /BuildGlyph get exec
}_d

FontName currentdict end definefont pop
%!PS-Adobe-3.0 Resource-Font
%%Title: Bitstream Vera Sans
%%Copyright: Copyright (c) 2003 by Bitstream, Inc. All Rights Reserved.
%%Creator: Converted from TrueType to type 3 by PPR
25 dict begin
/_d{bind def}bind def
/_m{moveto}_d
/_l{lineto}_d
/_cl{closepath eofill}_d
/_c{curveto}_d
/_sc{7 -1 roll{setcachedevice}{pop pop pop pop pop pop}ifelse}_d
/_e{exec}_d
/FontName /BitstreamVeraSans-Roman def
/PaintType 0 def
/FontMatrix[.001 0 0 .001 0 0]def
/FontBBox[-183 -236 1287 928]def
/FontType 3 def
/Encoding [ /space /parenleft /parenright /zero /one /two /three /four /five /six /seven /eight /D /N /P /underscore /a /b /c /d /e /f /g /h /i /j /l /m /n /o /p /r /s /t /u /v /x /z /minus ] def
/FontInfo 10 dict dup begin
/FamilyName (Bitstream Vera Sans) def
/FullName (Bitstream Vera Sans) def
/Notice (Copyright (c) 2003 by Bitstream, Inc. All Rights Reserved. Bitstream Vera is a trademark of Bitstream, Inc.) def
/Weight (Roman) def
/Version (Release 1.10) def
/ItalicAngle 0.0 def
/isFixedPitch false def
/UnderlinePosition -213 def
/UnderlineThickness 143 def
end readonly def
/CharStrings 39 dict dup begin
/space{318 0 0 0 0 0 _sc
}_d
/parenleft{390 0 86 -131 310 759 _sc
310 759 _m
266 683 234 609 213 536 _c
191 463 181 389 181 314 _c
181 238 191 164 213 91 _c
234 17 266 -56 310 -131 _c
232 -131 _l
183 -54 146 20 122 94 _c
98 168 86 241 86 314 _c
86 386 98 459 122 533 _c
146 607 182 682 232 759 _c
310 759 _l
_cl}_d
/parenright{390 0 80 -131 304 759 _sc
80 759 _m
158 759 _l
206 682 243 607 267 533 _c
291 459 304 386 304 314 _c
304 241 291 168 267 94 _c
243 20 206 -54 158 -131 _c
80 -131 _l
123 -56 155 17 177 91 _c
198 164 209 238 209 314 _c
209 389 198 463 177 536 _c
155 609 123 683 80 759 _c
_cl}_d
/zero{636 0 66 -13 570 742 _sc
318 664 _m
267 664 229 639 203 589 _c
177 539 165 464 165 364 _c
165 264 177 189 203 139 _c
229 89 267 64 318 64 _c
369 64 407 89 433 139 _c
458 189 471 264 471 364 _c
471 464 458 539 433 589 _c
407 639 369 664 318 664 _c
318 742 _m
399 742 461 709 505 645 _c
548 580 570 486 570 364 _c
570 241 548 147 505 83 _c
461 19 399 -13 318 -13 _c
236 -13 173 19 130 83 _c
87 147 66 241 66 364 _c
66 486 87 580 130 645 _c
173 709 236 742 318 742 _c
_cl}_d
/one{636 0 110 0 544 729 _sc
124 83 _m
285 83 _l
285 639 _l
110 604 _l
110 694 _l
284 729 _l
383 729 _l
383 83 _l
544 83 _l
544 0 _l
124 0 _l
124 83 _l
_cl}_d
/two{{636 0 73 0 536 742 _sc
192 83 _m
536 83 _l
536 0 _l
73 0 _l
73 83 _l
110 121 161 173 226 239 _c
290 304 331 346 348 365 _c
380 400 402 430 414 455 _c
426 479 433 504 433 528 _c
433 566 419 598 392 622 _c
365 646 330 659 286 659 _c
255 659 222 653 188 643 _c
154 632 117 616 78 594 _c
78 694 _l
118 710 155 722 189 730 _c
223 738 255 742 284 742 _c
}_e{359 742 419 723 464 685 _c
509 647 532 597 532 534 _c
532 504 526 475 515 449 _c
504 422 484 390 454 354 _c
446 344 420 317 376 272 _c
332 227 271 164 192 83 _c
_cl}_e}_d
/three{{636 0 76 -13 556 742 _sc
406 393 _m
453 383 490 362 516 330 _c
542 298 556 258 556 212 _c
556 140 531 84 482 45 _c
432 6 362 -13 271 -13 _c
240 -13 208 -10 176 -4 _c
144 1 110 10 76 22 _c
76 117 _l
103 101 133 89 166 81 _c
198 73 232 69 268 69 _c
330 69 377 81 409 105 _c
441 129 458 165 458 212 _c
458 254 443 288 413 312 _c
383 336 341 349 287 349 _c
}_e{202 349 _l
202 430 _l
291 430 _l
339 430 376 439 402 459 _c
428 478 441 506 441 543 _c
441 580 427 609 401 629 _c
374 649 336 659 287 659 _c
260 659 231 656 200 650 _c
169 644 135 635 98 623 _c
98 711 _l
135 721 170 729 203 734 _c
235 739 266 742 296 742 _c
370 742 429 725 473 691 _c
517 657 539 611 539 553 _c
539 513 527 479 504 451 _c
481 423 448 403 406 393 _c
_cl}_e}_d
/four{636 0 49 0 580 729 _sc
378 643 _m
129 254 _l
378 254 _l
378 643 _l
352 729 _m
476 729 _l
476 254 _l
580 254 _l
580 172 _l
476 172 _l
476 0 _l
378 0 _l
378 172 _l
49 172 _l
49 267 _l
352 729 _l
_cl}_d
/five{{636 0 77 -13 549 729 _sc
108 729 _m
495 729 _l
495 646 _l
198 646 _l
198 467 _l
212 472 227 476 241 478 _c
255 480 270 482 284 482 _c
365 482 429 459 477 415 _c
525 370 549 310 549 234 _c
549 155 524 94 475 51 _c
426 8 357 -13 269 -13 _c
238 -13 207 -10 175 -6 _c
143 -1 111 6 77 17 _c
77 116 _l
106 100 136 88 168 80 _c
199 72 232 69 267 69 _c
}_e{323 69 368 83 401 113 _c
433 143 450 183 450 234 _c
450 284 433 324 401 354 _c
368 384 323 399 267 399 _c
241 399 214 396 188 390 _c
162 384 135 375 108 363 _c
108 729 _l
_cl}_e}_d
/six{{636 0 70 -13 573 742 _sc
330 404 _m
286 404 251 388 225 358 _c
199 328 186 286 186 234 _c
186 181 199 139 225 109 _c
251 79 286 64 330 64 _c
374 64 409 79 435 109 _c
461 139 474 181 474 234 _c
474 286 461 328 435 358 _c
409 388 374 404 330 404 _c
526 713 _m
526 623 _l
501 635 476 644 451 650 _c
425 656 400 659 376 659 _c
310 659 260 637 226 593 _c
}_e{192 549 172 482 168 394 _c
187 422 211 444 240 459 _c
269 474 301 482 336 482 _c
409 482 467 459 509 415 _c
551 371 573 310 573 234 _c
573 159 550 99 506 54 _c
462 9 403 -13 330 -13 _c
246 -13 181 19 137 83 _c
92 147 70 241 70 364 _c
70 479 97 571 152 639 _c
206 707 280 742 372 742 _c
396 742 421 739 447 735 _c
472 730 498 723 526 713 _c
_cl}_e}_d
/seven{636 0 82 0 551 729 _sc
82 729 _m
551 729 _l
551 687 _l
286 0 _l
183 0 _l
432 646 _l
82 646 _l
82 729 _l
_cl}_d
/eight{{636 0 68 -13 568 742 _sc
318 346 _m
271 346 234 333 207 308 _c
180 283 167 249 167 205 _c
167 161 180 126 207 101 _c
234 76 271 64 318 64 _c
364 64 401 76 428 102 _c
455 127 469 161 469 205 _c
469 249 455 283 429 308 _c
402 333 365 346 318 346 _c
219 388 _m
177 398 144 418 120 447 _c
96 476 85 511 85 553 _c
85 611 105 657 147 691 _c
188 725 245 742 318 742 _c
}_e{390 742 447 725 489 691 _c
530 657 551 611 551 553 _c
551 511 539 476 515 447 _c
491 418 459 398 417 388 _c
464 377 501 355 528 323 _c
554 291 568 251 568 205 _c
568 134 546 80 503 43 _c
459 5 398 -13 318 -13 _c
237 -13 175 5 132 43 _c
89 80 68 134 68 205 _c
68 251 81 291 108 323 _c
134 355 171 377 219 388 _c
183 544 _m
183 506 194 476 218 455 _c
}_e{242 434 275 424 318 424 _c
360 424 393 434 417 455 _c
441 476 453 506 453 544 _c
453 582 441 611 417 632 _c
393 653 360 664 318 664 _c
275 664 242 653 218 632 _c
194 611 183 582 183 544 _c
_cl}_e}_d
/D{770 0 98 0 711 729 _sc
197 648 _m
197 81 _l
316 81 _l
416 81 490 103 537 149 _c
583 195 607 267 607 365 _c
607 463 583 534 537 580 _c
490 625 416 648 316 648 _c
197 648 _l
98 729 _m
301 729 _l
442 729 546 699 612 641 _c
678 582 711 490 711 365 _c
711 239 677 147 611 88 _c
545 29 441 0 301 0 _c
98 0 _l
98 729 _l
_cl}_d
/N{748 0 98 0 650 729 _sc
98 729 _m
231 729 _l
554 119 _l
554 729 _l
650 729 _l
650 0 _l
517 0 _l
194 610 _l
194 0 _l
98 0 _l
98 729 _l
_cl}_d
/P{603 0 98 0 569 729 _sc
197 648 _m
197 374 _l
321 374 _l
367 374 402 385 427 409 _c
452 433 465 467 465 511 _c
465 555 452 588 427 612 _c
402 636 367 648 321 648 _c
197 648 _l
98 729 _m
321 729 _l
402 729 464 710 506 673 _c
548 636 569 582 569 511 _c
569 439 548 384 506 348 _c
464 311 402 293 321 293 _c
197 293 _l
197 0 _l
98 0 _l
98 729 _l
_cl}_d
/underscore{500 0 -9 -235 510 -165 _sc
510 -165 _m
510 -235 _l
-9 -235 _l
-9 -165 _l
510 -165 _l
_cl}_d
/a{{613 0 60 -13 522 560 _sc
343 275 _m
270 275 220 266 192 250 _c
164 233 150 205 150 165 _c
150 133 160 107 181 89 _c
202 70 231 61 267 61 _c
317 61 357 78 387 114 _c
417 149 432 196 432 255 _c
432 275 _l
343 275 _l
522 312 _m
522 0 _l
432 0 _l
432 83 _l
411 49 385 25 355 10 _c
325 -5 287 -13 243 -13 _c
187 -13 142 2 109 33 _c
76 64 60 106 60 159 _c
}_e{60 220 80 266 122 298 _c
163 329 224 345 306 345 _c
432 345 _l
432 354 _l
432 395 418 427 391 450 _c
364 472 326 484 277 484 _c
245 484 215 480 185 472 _c
155 464 127 453 100 439 _c
100 522 _l
132 534 164 544 195 550 _c
226 556 256 560 286 560 _c
365 560 424 539 463 498 _c
502 457 522 395 522 312 _c
_cl}_e}_d
/b{{635 0 91 -13 580 760 _sc
487 273 _m
487 339 473 390 446 428 _c
418 466 381 485 334 485 _c
286 485 249 466 222 428 _c
194 390 181 339 181 273 _c
181 207 194 155 222 117 _c
249 79 286 61 334 61 _c
381 61 418 79 446 117 _c
473 155 487 207 487 273 _c
181 464 _m
199 496 223 520 252 536 _c
281 552 316 560 356 560 _c
422 560 476 533 518 481 _c
559 428 580 359 580 273 _c
}_e{580 187 559 117 518 65 _c
476 13 422 -13 356 -13 _c
316 -13 281 -5 252 10 _c
223 25 199 49 181 82 _c
181 0 _l
91 0 _l
91 760 _l
181 760 _l
181 464 _l
_cl}_e}_d
/c{{550 0 55 -13 488 560 _sc
488 526 _m
488 442 _l
462 456 437 466 411 473 _c
385 480 360 484 334 484 _c
276 484 230 465 198 428 _c
166 391 150 339 150 273 _c
150 206 166 154 198 117 _c
230 80 276 62 334 62 _c
360 62 385 65 411 72 _c
437 79 462 90 488 104 _c
488 21 _l
462 9 436 0 410 -5 _c
383 -10 354 -13 324 -13 _c
242 -13 176 12 128 64 _c
}_e{79 115 55 185 55 273 _c
55 362 79 432 128 483 _c
177 534 244 560 330 560 _c
358 560 385 557 411 551 _c
437 545 463 537 488 526 _c
_cl}_e}_d
/d{{635 0 55 -13 544 760 _sc
454 464 _m
454 760 _l
544 760 _l
544 0 _l
454 0 _l
454 82 _l
435 49 411 25 382 10 _c
353 -5 319 -13 279 -13 _c
213 -13 159 13 117 65 _c
75 117 55 187 55 273 _c
55 359 75 428 117 481 _c
159 533 213 560 279 560 _c
319 560 353 552 382 536 _c
411 520 435 496 454 464 _c
148 273 _m
148 207 161 155 188 117 _c
215 79 253 61 301 61 _c
}_e{348 61 385 79 413 117 _c
440 155 454 207 454 273 _c
454 339 440 390 413 428 _c
385 466 348 485 301 485 _c
253 485 215 466 188 428 _c
161 390 148 339 148 273 _c
_cl}_e}_d
/e{{615 0 55 -13 562 560 _sc
562 296 _m
562 252 _l
149 252 _l
153 190 171 142 205 110 _c
238 78 284 62 344 62 _c
378 62 412 66 444 74 _c
476 82 509 95 541 113 _c
541 28 _l
509 14 476 3 442 -3 _c
408 -9 373 -13 339 -13 _c
251 -13 182 12 131 62 _c
80 112 55 181 55 268 _c
55 357 79 428 127 481 _c
175 533 241 560 323 560 _c
397 560 455 536 498 489 _c
}_e{540 441 562 377 562 296 _c
472 322 _m
471 371 457 410 431 440 _c
404 469 368 484 324 484 _c
274 484 234 469 204 441 _c
174 413 156 373 152 322 _c
472 322 _l
_cl}_e}_d
/f{352 0 23 0 371 760 _sc
371 760 _m
371 685 _l
285 685 _l
253 685 230 678 218 665 _c
205 652 199 629 199 595 _c
199 547 _l
347 547 _l
347 477 _l
199 477 _l
199 0 _l
109 0 _l
109 477 _l
23 477 _l
23 547 _l
109 547 _l
109 585 _l
109 645 123 690 151 718 _c
179 746 224 760 286 760 _c
371 760 _l
_cl}_d
/g{{635 0 55 -207 544 560 _sc
454 280 _m
454 344 440 395 414 431 _c
387 467 349 485 301 485 _c
253 485 215 467 188 431 _c
161 395 148 344 148 280 _c
148 215 161 165 188 129 _c
215 93 253 75 301 75 _c
349 75 387 93 414 129 _c
440 165 454 215 454 280 _c
544 68 _m
544 -24 523 -93 482 -139 _c
440 -184 377 -207 292 -207 _c
260 -207 231 -204 203 -200 _c
175 -195 147 -188 121 -178 _c
}_e{121 -91 _l
147 -105 173 -115 199 -122 _c
225 -129 251 -133 278 -133 _c
336 -133 380 -117 410 -87 _c
439 -56 454 -10 454 52 _c
454 96 _l
435 64 411 40 382 24 _c
353 8 319 0 279 0 _c
211 0 157 25 116 76 _c
75 127 55 195 55 280 _c
55 364 75 432 116 483 _c
157 534 211 560 279 560 _c
319 560 353 552 382 536 _c
411 520 435 496 454 464 _c
454 547 _l
544 547 _l
}_e{544 68 _l
_cl}_e}_d
/h{634 0 91 0 549 760 _sc
549 330 _m
549 0 _l
459 0 _l
459 327 _l
459 379 448 417 428 443 _c
408 469 378 482 338 482 _c
289 482 251 466 223 435 _c
195 404 181 362 181 309 _c
181 0 _l
91 0 _l
91 760 _l
181 760 _l
181 462 _l
202 494 227 519 257 535 _c
286 551 320 560 358 560 _c
420 560 468 540 500 501 _c
532 462 549 405 549 330 _c
_cl}_d
/i{278 0 94 0 184 760 _sc
94 547 _m
184 547 _l
184 0 _l
94 0 _l
94 547 _l
94 760 _m
184 760 _l
184 646 _l
94 646 _l
94 760 _l
_cl}_d
/j{278 0 -17 -207 184 760 _sc
94 547 _m
184 547 _l
184 -9 _l
184 -78 170 -128 144 -160 _c
117 -191 74 -207 16 -207 _c
-17 -207 _l
-17 -131 _l
6 -131 _l
40 -131 63 -123 75 -107 _c
87 -91 94 -58 94 -9 _c
94 547 _l
94 760 _m
184 760 _l
184 646 _l
94 646 _l
94 760 _l
_cl}_d
/l{278 0 94 0 184 760 _sc
94 760 _m
184 760 _l
184 0 _l
94 0 _l
94 760 _l
_cl}_d
/m{{974 0 91 0 889 560 _sc
520 442 _m
542 482 569 511 600 531 _c
631 550 668 560 711 560 _c
767 560 811 540 842 500 _c
873 460 889 403 889 330 _c
889 0 _l
799 0 _l
799 327 _l
799 379 789 418 771 444 _c
752 469 724 482 686 482 _c
639 482 602 466 575 435 _c
548 404 535 362 535 309 _c
535 0 _l
445 0 _l
445 327 _l
445 379 435 418 417 444 _c
398 469 369 482 331 482 _c
}_e{285 482 248 466 221 435 _c
194 404 181 362 181 309 _c
181 0 _l
91 0 _l
91 547 _l
181 547 _l
181 462 _l
201 495 226 520 255 536 _c
283 552 317 560 357 560 _c
397 560 430 550 458 530 _c
486 510 506 480 520 442 _c
_cl}_e}_d
/n{634 0 91 0 549 560 _sc
549 330 _m
549 0 _l
459 0 _l
459 327 _l
459 379 448 417 428 443 _c
408 469 378 482 338 482 _c
289 482 251 466 223 435 _c
195 404 181 362 181 309 _c
181 0 _l
91 0 _l
91 547 _l
181 547 _l
181 462 _l
202 494 227 519 257 535 _c
286 551 320 560 358 560 _c
420 560 468 540 500 501 _c
532 462 549 405 549 330 _c
_cl}_d
/o{612 0 55 -13 557 560 _sc
306 484 _m
258 484 220 465 192 427 _c
164 389 150 338 150 273 _c
150 207 163 156 191 118 _c
219 80 257 62 306 62 _c
354 62 392 80 420 118 _c
448 156 462 207 462 273 _c
462 337 448 389 420 427 _c
392 465 354 484 306 484 _c
306 560 _m
384 560 445 534 490 484 _c
534 433 557 363 557 273 _c
557 183 534 113 490 63 _c
445 12 384 -13 306 -13 _c
227 -13 165 12 121 63 _c
77 113 55 183 55 273 _c
55 363 77 433 121 484 _c
165 534 227 560 306 560 _c
_cl}_d
/p{{635 0 91 -207 580 560 _sc
181 82 _m
181 -207 _l
91 -207 _l
91 547 _l
181 547 _l
181 464 _l
199 496 223 520 252 536 _c
281 552 316 560 356 560 _c
422 560 476 533 518 481 _c
559 428 580 359 580 273 _c
580 187 559 117 518 65 _c
476 13 422 -13 356 -13 _c
316 -13 281 -5 252 10 _c
223 25 199 49 181 82 _c
487 273 _m
487 339 473 390 446 428 _c
418 466 381 485 334 485 _c
}_e{286 485 249 466 222 428 _c
194 390 181 339 181 273 _c
181 207 194 155 222 117 _c
249 79 286 61 334 61 _c
381 61 418 79 446 117 _c
473 155 487 207 487 273 _c
_cl}_e}_d
/r{411 0 91 0 411 560 _sc
411 463 _m
401 469 390 473 378 476 _c
366 478 353 480 339 480 _c
288 480 249 463 222 430 _c
194 397 181 350 181 288 _c
181 0 _l
91 0 _l
91 547 _l
181 547 _l
181 462 _l
199 495 224 520 254 536 _c
284 552 321 560 365 560 _c
371 560 378 559 386 559 _c
393 558 401 557 411 555 _c
411 463 _l
_cl}_d
/s{{521 0 54 -13 472 560 _sc
443 531 _m
443 446 _l
417 458 391 468 364 475 _c
336 481 308 485 279 485 _c
234 485 200 478 178 464 _c
156 450 145 430 145 403 _c
145 382 153 366 169 354 _c
185 342 217 330 265 320 _c
296 313 _l
360 299 405 279 432 255 _c
458 230 472 195 472 151 _c
472 100 452 60 412 31 _c
372 1 316 -13 246 -13 _c
216 -13 186 -10 154 -5 _c
}_e{122 0 89 8 54 20 _c
54 113 _l
87 95 120 82 152 74 _c
184 65 216 61 248 61 _c
290 61 323 68 346 82 _c
368 96 380 117 380 144 _c
380 168 371 187 355 200 _c
339 213 303 226 247 238 _c
216 245 _l
160 257 119 275 95 299 _c
70 323 58 356 58 399 _c
58 450 76 490 112 518 _c
148 546 200 560 268 560 _c
301 560 332 557 362 552 _c
391 547 418 540 443 531 _c
}_e{_cl}_e}_d
/t{392 0 27 0 368 702 _sc
183 702 _m
183 547 _l
368 547 _l
368 477 _l
183 477 _l
183 180 _l
183 135 189 106 201 94 _c
213 81 238 75 276 75 _c
368 75 _l
368 0 _l
276 0 _l
206 0 158 13 132 39 _c
106 65 93 112 93 180 _c
93 477 _l
27 477 _l
27 547 _l
93 547 _l
93 702 _l
183 702 _l
_cl}_d
/u{634 0 85 -13 543 547 _sc
85 216 _m
85 547 _l
175 547 _l
175 219 _l
175 167 185 129 205 103 _c
225 77 255 64 296 64 _c
344 64 383 79 411 110 _c
439 141 453 183 453 237 _c
453 547 _l
543 547 _l
543 0 _l
453 0 _l
453 84 _l
431 50 405 26 377 10 _c
348 -5 315 -13 277 -13 _c
214 -13 166 6 134 45 _c
101 83 85 140 85 216 _c
_cl}_d
/v{592 0 30 0 562 547 _sc
30 547 _m
125 547 _l
296 88 _l
467 547 _l
562 547 _l
357 0 _l
235 0 _l
30 547 _l
_cl}_d
/x{592 0 29 0 559 547 _sc
549 547 _m
351 281 _l
559 0 _l
453 0 _l
294 215 _l
135 0 _l
29 0 _l
241 286 _l
47 547 _l
153 547 _l
298 352 _l
443 547 _l
549 547 _l
_cl}_d
/z{525 0 43 0 482 547 _sc
55 547 _m
482 547 _l
482 465 _l
144 72 _l
482 72 _l
482 0 _l
43 0 _l
43 82 _l
381 475 _l
55 475 _l
55 547 _l
_cl}_d
/minus{838 0 106 272 732 355 _sc
106 355 _m
732 355 _l
732 272 _l
106 272 _l
106 355 _l
_cl}_d
end readonly def

/BuildGlyph
 {exch begin
 CharStrings exch
 2 copy known not{pop /.notdef}if
 true 3 1 roll get exec
 end}_d

/BuildChar {
 1 index /Encoding get exch get
 1 index /BuildGlyph get exec
}_d

FontName currentdict end definefont pop
%!PS-Adobe-3.0 Resource-Font
%%Title: cmmi10
%%Copyright: Copyright (C) 1994, Basil K. Malyshev. All Rights Reserved.012BaKoMa Fonts Collection, Level-B.
%%Creator: Converted from TrueType to type 3 by PPR
25 dict begin
/_d{bind def}bind def
/_m{moveto}_d
/_l{lineto}_d
/_cl{closepath eofill}_d
/_c{curveto}_d
/_sc{7 -1 roll{setcachedevice}{pop pop pop pop pop pop}ifelse}_d
/_e{exec}_d
/FontName /Cmmi10 def
/PaintType 0 def
/FontMatrix[.001 0 0 .001 0 0]def
/FontBBox[-34 -250 1048 750]def
/FontType 3 def
/Encoding [ /theta /sigma ] def
/FontInfo 10 dict dup begin
/FamilyName (cmmi10) def
/FullName (cmmi10) def
/Notice (Copyright (C) 1994, Basil K. Malyshev. All Rights Reserved.012BaKoMa Fonts Collection, Level-B. ) def
/Weight (Regular) def
/Version (1.1/12-Nov-94) def
/ItalicAngle 0.0 def
/isFixedPitch false def
/UnderlinePosition -133 def
/UnderlineThickness 20 def
end readonly def
/CharStrings 2 dict dup begin
/theta{{469 0 40 -10 457 705 _sc
161 -10 _m
131 -10 106 0 88 22 _c
70 44 57 70 50 102 _c
43 133 40 164 40 195 _c
40 196 _l
40 229 43 263 49 299 _c
55 335 65 370 77 406 _c
89 442 102 474 116 502 _c
126 521 138 543 154 567 _c
169 591 186 614 205 635 _c
224 656 245 673 267 686 _c
289 698 311 705 334 705 _c
335 705 _l
359 705 379 698 395 685 _c
}_e{411 671 423 654 432 634 _c
441 613 447 591 451 567 _c
455 543 457 520 457 499 _c
457 448 450 396 436 344 _c
422 292 404 241 380 192 _c
370 173 358 151 342 126 _c
326 101 309 79 291 59 _c
273 39 252 22 230 9 _c
207 -3 184 -10 162 -10 _c
161 -10 _l
163 15 _m
185 15 206 26 226 50 _c
246 74 264 102 280 136 _c
295 170 308 204 320 240 _c
332 275 340 305 346 330 _c
}_e{142 330 _l
131 288 123 251 117 221 _c
111 191 109 161 109 132 _c
109 54 127 15 163 15 _c
150 365 _m
355 365 _l
362 394 368 418 372 438 _c
376 458 379 479 382 501 _c
385 523 387 543 387 562 _c
387 640 369 679 334 679 _c
292 679 255 645 224 577 _c
193 509 168 438 150 365 _c
_cl}_e}_d
/sigma{{571 0 36 -10 568 431 _sc
187 -10 _m
157 -10 131 -3 108 10 _c
85 24 67 43 55 67 _c
42 91 36 118 36 147 _c
36 177 43 210 57 244 _c
71 278 90 310 114 338 _c
138 366 166 389 197 406 _c
227 422 259 431 291 431 _c
543 431 _l
549 431 555 428 560 424 _c
565 419 568 413 568 406 _c
568 396 564 387 557 380 _c
550 372 542 369 532 369 _c
410 369 _l
}_e{429 340 439 305 439 265 _c
439 231 432 198 419 166 _c
406 133 388 103 365 77 _c
342 50 315 29 284 13 _c
253 -2 221 -10 187 -10 _c
188 15 _m
224 15 257 29 285 58 _c
313 86 334 121 349 162 _c
364 203 372 241 372 277 _c
372 305 364 328 348 344 _c
332 360 310 369 282 369 _c
243 369 210 356 183 330 _c
156 304 136 271 122 232 _c
108 192 102 154 102 118 _c
}_e{102 89 109 65 124 45 _c
139 25 160 15 188 15 _c
_cl}_e}_d
end readonly def

/BuildGlyph
 {exch begin
 CharStrings exch
 2 copy known not{pop /.notdef}if
 true 3 1 roll get exec
 end}_d

/BuildChar {
 1 index /Encoding get exch get
 1 index /BuildGlyph get exec
}_d

FontName currentdict end definefont pop
end
%%EndProlog
mpldict begin
18 -36 translate
576 864 0 0 clipbox
100000 setmiterlimit
gsave
0 0 m
576 0 l
576 864 l
0 864 l
cl
1.000 setgray
fill
grestore
gsave
178.8475 50.76 m
563.04 50.76 l
563.04 851.04 l
178.8475 851.04 l
cl
1.000 setgray
fill
grestore
1.000 setlinewidth
0 setlinejoin
0 setlinecap
[] 0 setdash
0.000 setgray
gsave
384.2 800.3 178.8 50.76 clipbox
294.10525 50.76 m
294.10525 851.04 l
447.78225 851.04 l
447.78225 50.76 l
cl
gsave
0.969 0.996 0.180 setrgbcolor
fill
grestore
stroke
grestore
gsave
384.2 800.3 178.8 50.76 clipbox
332.5245 50.76 m
332.5245 851.04 l
409.363 851.04 l
409.363 50.76 l
cl
gsave
0.000 1.000 0.000 setrgbcolor
fill
grestore
stroke
grestore
1 setlinejoin
1.000 0.000 0.000 setrgbcolor
gsave
384.2 800.3 178.8 50.76 clipbox
331.626256 65.310545 m
407.778047 65.310545 l
stroke
grestore
gsave
384.2 800.3 178.8 50.76 clipbox
339.402763 79.861091 m
411.771131 79.861091 l
stroke
grestore
gsave
384.2 800.3 178.8 50.76 clipbox
332.851495 94.411636 m
408.97118 94.411636 l
stroke
grestore
gsave
384.2 800.3 178.8 50.76 clipbox
336.385003 108.962182 m
410.153292 108.962182 l
stroke
grestore
gsave
384.2 800.3 178.8 50.76 clipbox
327.801051 123.512727 m
402.092053 123.512727 l
stroke
grestore
gsave
384.2 800.3 178.8 50.76 clipbox
337.717345 138.063273 m
410.714308 138.063273 l
stroke
grestore
gsave
384.2 800.3 178.8 50.76 clipbox
325.735786 152.613818 m
398.260592 152.613818 l
stroke
grestore
gsave
384.2 800.3 178.8 50.76 clipbox
335.404648 167.164364 m
410.994875 167.164364 l
stroke
grestore
gsave
384.2 800.3 178.8 50.76 clipbox
333.653555 181.714909 m
409.278625 181.714909 l
stroke
grestore
gsave
384.2 800.3 178.8 50.76 clipbox
335.035429 196.265455 m
411.523608 196.265455 l
stroke
grestore
gsave
384.2 800.3 178.8 50.76 clipbox
347.4832 210.816 m
417.877857 210.816 l
stroke
grestore
gsave
384.2 800.3 178.8 50.76 clipbox
334.769996 225.366545 m
410.417348 225.366545 l
stroke
grestore
gsave
384.2 800.3 178.8 50.76 clipbox
334.646789 239.917091 m
409.67226 239.917091 l
stroke
grestore
gsave
384.2 800.3 178.8 50.76 clipbox
341.082783 254.467636 m
409.603839 254.467636 l
stroke
grestore
gsave
384.2 800.3 178.8 50.76 clipbox
336.035966 269.018182 m
411.890855 269.018182 l
stroke
grestore
gsave
384.2 800.3 178.8 50.76 clipbox
334.942186 283.568727 m
409.722237 283.568727 l
stroke
grestore
gsave
384.2 800.3 178.8 50.76 clipbox
355.425129 298.119273 m
425.732283 298.119273 l
stroke
grestore
gsave
384.2 800.3 178.8 50.76 clipbox
327.867962 312.669818 m
395.612614 312.669818 l
stroke
grestore
gsave
384.2 800.3 178.8 50.76 clipbox
332.980586 327.220364 m
408.615424 327.220364 l
stroke
grestore
gsave
384.2 800.3 178.8 50.76 clipbox
343.67553 341.770909 m
418.142842 341.770909 l
stroke
grestore
gsave
384.2 800.3 178.8 50.76 clipbox
330.50309 356.321455 m
401.245332 356.321455 l
stroke
grestore
gsave
384.2 800.3 178.8 50.76 clipbox
348.004225 370.872 m
417.199275 370.872 l
stroke
grestore
gsave
384.2 800.3 178.8 50.76 clipbox
347.596123 385.422545 m
415.496701 385.422545 l
stroke
grestore
gsave
384.2 800.3 178.8 50.76 clipbox
327.469111 399.973091 m
399.69145 399.973091 l
stroke
grestore
gsave
384.2 800.3 178.8 50.76 clipbox
345.30753 414.523636 m
415.693537 414.523636 l
stroke
grestore
gsave
384.2 800.3 178.8 50.76 clipbox
320.84493 429.074182 m
391.072149 429.074182 l
stroke
grestore
gsave
384.2 800.3 178.8 50.76 clipbox
336.499817 443.624727 m
410.763677 443.624727 l
stroke
grestore
gsave
384.2 800.3 178.8 50.76 clipbox
333.909959 458.175273 m
408.65631 458.175273 l
stroke
grestore
gsave
384.2 800.3 178.8 50.76 clipbox
349.509626 472.725818 m
420.037665 472.725818 l
stroke
grestore
gsave
384.2 800.3 178.8 50.76 clipbox
380.498007 487.276364 m
423.446765 487.276364 l
stroke
grestore
gsave
384.2 800.3 178.8 50.76 clipbox
323.020431 501.826909 m
395.6748 501.826909 l
stroke
grestore
gsave
384.2 800.3 178.8 50.76 clipbox
339.880382 516.377455 m
412.52341 516.377455 l
stroke
grestore
gsave
384.2 800.3 178.8 50.76 clipbox
320.74562 530.928 m
394.459713 530.928 l
stroke
grestore
gsave
384.2 800.3 178.8 50.76 clipbox
324.237014 545.478545 m
400.150449 545.478545 l
stroke
grestore
gsave
384.2 800.3 178.8 50.76 clipbox
339.473141 560.029091 m
410.769183 560.029091 l
stroke
grestore
gsave
384.2 800.3 178.8 50.76 clipbox
321.877717 574.579636 m
393.996492 574.579636 l
stroke
grestore
gsave
384.2 800.3 178.8 50.76 clipbox
350.337715 589.130182 m
421.114603 589.130182 l
stroke
grestore
gsave
384.2 800.3 178.8 50.76 clipbox
311.807285 603.680727 m
382.997899 603.680727 l
stroke
grestore
gsave
384.2 800.3 178.8 50.76 clipbox
326.226549 618.231273 m
400.830324 618.231273 l
stroke
grestore
gsave
384.2 800.3 178.8 50.76 clipbox
348.057605 632.781818 m
415.992139 632.781818 l
stroke
grestore
gsave
384.2 800.3 178.8 50.76 clipbox
328.122182 647.332364 m
404.373499 647.332364 l
stroke
grestore
gsave
384.2 800.3 178.8 50.76 clipbox
335.550632 661.882909 m
410.23924 661.882909 l
stroke
grestore
gsave
384.2 800.3 178.8 50.76 clipbox
335.62527 676.433455 m
411.598532 676.433455 l
stroke
grestore
gsave
384.2 800.3 178.8 50.76 clipbox
334.957098 690.984 m
410.072867 690.984 l
stroke
grestore
gsave
384.2 800.3 178.8 50.76 clipbox
334.69365 705.534545 m
410.099176 705.534545 l
stroke
grestore
gsave
384.2 800.3 178.8 50.76 clipbox
332.743987 720.085091 m
409.458617 720.085091 l
stroke
grestore
gsave
384.2 800.3 178.8 50.76 clipbox
335.653798 734.635636 m
392.940271 734.635636 l
stroke
grestore
gsave
384.2 800.3 178.8 50.76 clipbox
333.463069 749.186182 m
390.916704 749.186182 l
stroke
grestore
gsave
384.2 800.3 178.8 50.76 clipbox
338.479607 763.736727 m
410.80493 763.736727 l
stroke
grestore
gsave
384.2 800.3 178.8 50.76 clipbox
345.854194 778.287273 m
417.894774 778.287273 l
stroke
grestore
gsave
384.2 800.3 178.8 50.76 clipbox
342.566945 792.837818 m
411.689044 792.837818 l
stroke
grestore
gsave
384.2 800.3 178.8 50.76 clipbox
337.766668 807.388364 m
410.864531 807.388364 l
stroke
grestore
gsave
384.2 800.3 178.8 50.76 clipbox
334.907372 821.938909 m
410.151461 821.938909 l
stroke
grestore
gsave
384.2 800.3 178.8 50.76 clipbox
334.114801 836.489455 m
409.104091 836.489455 l
stroke
grestore
0.000 setgray
gsave
384.2 800.3 178.8 50.76 clipbox
329.90084 65.310545 m
407.566155 65.310545 l
stroke
grestore
gsave
384.2 800.3 178.8 50.76 clipbox
335.451333 79.861091 m
407.617222 79.861091 l
stroke
grestore
gsave
384.2 800.3 178.8 50.76 clipbox
332.595481 94.411636 m
408.759521 94.411636 l
stroke
grestore
gsave
384.2 800.3 178.8 50.76 clipbox
335.414673 108.962182 m
407.51706 108.962182 l
stroke
grestore
gsave
384.2 800.3 178.8 50.76 clipbox
334.09179 123.512727 m
408.141951 123.512727 l
stroke
grestore
gsave
384.2 800.3 178.8 50.76 clipbox
334.989766 138.063273 m
408.39459 138.063273 l
stroke
grestore
gsave
384.2 800.3 178.8 50.76 clipbox
335.205426 152.613818 m
407.793453 152.613818 l
stroke
grestore
gsave
384.2 800.3 178.8 50.76 clipbox
333.712297 167.164364 m
408.975441 167.164364 l
stroke
grestore
gsave
384.2 800.3 178.8 50.76 clipbox
332.594272 181.714909 m
408.295932 181.714909 l
stroke
grestore
gsave
384.2 800.3 178.8 50.76 clipbox
333.533893 196.265455 m
409.789073 196.265455 l
stroke
grestore
gsave
384.2 800.3 178.8 50.76 clipbox
336.405177 210.816 m
406.568186 210.816 l
stroke
grestore
gsave
384.2 800.3 178.8 50.76 clipbox
333.110436 225.366545 m
409.404817 225.366545 l
stroke
grestore
gsave
384.2 800.3 178.8 50.76 clipbox
333.883616 239.917091 m
410.125463 239.917091 l
stroke
grestore
gsave
384.2 800.3 178.8 50.76 clipbox
336.728119 254.467636 m
407.030081 254.467636 l
stroke
grestore
gsave
384.2 800.3 178.8 50.76 clipbox
333.89886 269.018182 m
409.355473 269.018182 l
stroke
grestore
gsave
384.2 800.3 178.8 50.76 clipbox
332.829162 283.568727 m
409.355877 283.568727 l
stroke
grestore
gsave
384.2 800.3 178.8 50.76 clipbox
336.824528 298.119273 m
405.739662 298.119273 l
stroke
grestore
gsave
384.2 800.3 178.8 50.76 clipbox
338.336936 312.669818 m
406.084768 312.669818 l
stroke
grestore
gsave
384.2 800.3 178.8 50.76 clipbox
333.267117 327.220364 m
408.856435 327.220364 l
stroke
grestore
gsave
384.2 800.3 178.8 50.76 clipbox
336.451317 341.770909 m
408.931502 341.770909 l
stroke
grestore
gsave
384.2 800.3 178.8 50.76 clipbox
336.160701 356.321455 m
406.418089 356.321455 l
stroke
grestore
gsave
384.2 800.3 178.8 50.76 clipbox
334.39438 370.872 m
405.113109 370.872 l
stroke
grestore
gsave
384.2 800.3 178.8 50.76 clipbox
335.633744 385.422545 m
404.171906 385.422545 l
stroke
grestore
gsave
384.2 800.3 178.8 50.76 clipbox
335.428761 399.973091 m
407.328884 399.973091 l
stroke
grestore
gsave
384.2 800.3 178.8 50.76 clipbox
334.660635 414.523636 m
405.670638 414.523636 l
stroke
grestore
gsave
384.2 800.3 178.8 50.76 clipbox
335.859129 429.074182 m
407.465554 429.074182 l
stroke
grestore
gsave
384.2 800.3 178.8 50.76 clipbox
334.378181 443.624727 m
408.913817 443.624727 l
stroke
grestore
gsave
384.2 800.3 178.8 50.76 clipbox
334.403001 458.175273 m
407.877624 458.175273 l
stroke
grestore
gsave
384.2 800.3 178.8 50.76 clipbox
336.24196 472.725818 m
407.688668 472.725818 l
stroke
grestore
gsave
384.2 800.3 178.8 50.76 clipbox
348.940739 487.276364 m
390.523495 487.276364 l
stroke
grestore
gsave
384.2 800.3 178.8 50.76 clipbox
335.815667 501.826909 m
407.504176 501.826909 l
stroke
grestore
gsave
384.2 800.3 178.8 50.76 clipbox
334.943225 516.377455 m
407.059958 516.377455 l
stroke
grestore
gsave
384.2 800.3 178.8 50.76 clipbox
333.929588 530.928 m
406.759222 530.928 l
stroke
grestore
gsave
384.2 800.3 178.8 50.76 clipbox
332.220944 545.478545 m
406.896313 545.478545 l
stroke
grestore
gsave
384.2 800.3 178.8 50.76 clipbox
335.683585 560.029091 m
408.046633 560.029091 l
stroke
grestore
gsave
384.2 800.3 178.8 50.76 clipbox
335.08269 574.579636 m
408.342978 574.579636 l
stroke
grestore
gsave
384.2 800.3 178.8 50.76 clipbox
334.632459 589.130182 m
406.040974 589.130182 l
stroke
grestore
gsave
384.2 800.3 178.8 50.76 clipbox
334.376327 603.680727 m
406.576544 603.680727 l
stroke
grestore
gsave
384.2 800.3 178.8 50.76 clipbox
334.710172 618.231273 m
409.376475 618.231273 l
stroke
grestore
gsave
384.2 800.3 178.8 50.76 clipbox
338.1859 632.781818 m
407.290097 632.781818 l
stroke
grestore
gsave
384.2 800.3 178.8 50.76 clipbox
332.924508 647.332364 m
408.488289 647.332364 l
stroke
grestore
gsave
384.2 800.3 178.8 50.76 clipbox
333.34531 661.882909 m
409.273875 661.882909 l
stroke
grestore
gsave
384.2 800.3 178.8 50.76 clipbox
332.908377 676.433455 m
408.754116 676.433455 l
stroke
grestore
gsave
384.2 800.3 178.8 50.76 clipbox
334.116658 690.984 m
409.68279 690.984 l
stroke
grestore
gsave
384.2 800.3 178.8 50.76 clipbox
334.869144 705.534545 m
409.459543 705.534545 l
stroke
grestore
gsave
384.2 800.3 178.8 50.76 clipbox
332.337416 720.085091 m
409.294577 720.085091 l
stroke
grestore
gsave
384.2 800.3 178.8 50.76 clipbox
343.947573 734.635636 m
401.980936 734.635636 l
stroke
grestore
gsave
384.2 800.3 178.8 50.76 clipbox
343.531882 749.186182 m
401.151012 749.186182 l
stroke
grestore
gsave
384.2 800.3 178.8 50.76 clipbox
334.062175 763.736727 m
407.273563 763.736727 l
stroke
grestore
gsave
384.2 800.3 178.8 50.76 clipbox
334.565906 778.287273 m
407.574057 778.287273 l
stroke
grestore
gsave
384.2 800.3 178.8 50.76 clipbox
337.50264 792.837818 m
406.622062 792.837818 l
stroke
grestore
gsave
384.2 800.3 178.8 50.76 clipbox
334.469657 807.388364 m
408.356385 807.388364 l
stroke
grestore
gsave
384.2 800.3 178.8 50.76 clipbox
334.035017 821.938909 m
408.603078 821.938909 l
stroke
grestore
gsave
384.2 800.3 178.8 50.76 clipbox
332.742252 836.489455 m
408.987349 836.489455 l
stroke
grestore
0.500 setlinewidth
1.000 0.000 0.000 setrgbcolor
gsave
384.2 800.3 178.8 50.76 clipbox
/o {
gsave
newpath
translate
0.5 setlinewidth
1 setlinejoin
0 setlinecap
0 -3 m
0 3 l

gsave
1.000 0.000 0.000 setrgbcolor
fill
grestore
stroke
grestore
} bind def
331.626 65.3105 o
339.403 79.8611 o
332.851 94.4116 o
336.385 108.962 o
327.801 123.513 o
337.717 138.063 o
325.736 152.614 o
335.405 167.164 o
333.654 181.715 o
335.035 196.265 o
347.483 210.816 o
334.77 225.367 o
334.647 239.917 o
341.083 254.468 o
336.036 269.018 o
334.942 283.569 o
355.425 298.119 o
327.868 312.67 o
332.981 327.22 o
343.676 341.771 o
330.503 356.321 o
348.004 370.872 o
347.596 385.423 o
327.469 399.973 o
345.308 414.524 o
320.845 429.074 o
336.5 443.625 o
333.91 458.175 o
349.51 472.726 o
380.498 487.276 o
323.02 501.827 o
339.88 516.377 o
320.746 530.928 o
324.237 545.479 o
339.473 560.029 o
321.878 574.58 o
350.338 589.13 o
311.807 603.681 o
326.227 618.231 o
348.058 632.782 o
328.122 647.332 o
335.551 661.883 o
335.625 676.433 o
334.957 690.984 o
334.694 705.535 o
332.744 720.085 o
335.654 734.636 o
333.463 749.186 o
338.48 763.737 o
345.854 778.287 o
342.567 792.838 o
337.767 807.388 o
334.907 821.939 o
334.115 836.489 o
grestore
gsave
384.2 800.3 178.8 50.76 clipbox
/o {
gsave
newpath
translate
0.5 setlinewidth
1 setlinejoin
0 setlinecap
0 -3 m
0 3 l

gsave
1.000 0.000 0.000 setrgbcolor
fill
grestore
stroke
grestore
} bind def
407.778 65.3105 o
411.771 79.8611 o
408.971 94.4116 o
410.153 108.962 o
402.092 123.513 o
410.714 138.063 o
398.261 152.614 o
410.995 167.164 o
409.279 181.715 o
411.524 196.265 o
417.878 210.816 o
410.417 225.367 o
409.672 239.917 o
409.604 254.468 o
411.891 269.018 o
409.722 283.569 o
425.732 298.119 o
395.613 312.67 o
408.615 327.22 o
418.143 341.771 o
401.245 356.321 o
417.199 370.872 o
415.497 385.423 o
399.691 399.973 o
415.694 414.524 o
391.072 429.074 o
410.764 443.625 o
408.656 458.175 o
420.038 472.726 o
423.447 487.276 o
395.675 501.827 o
412.523 516.377 o
394.46 530.928 o
400.15 545.479 o
410.769 560.029 o
393.996 574.58 o
421.115 589.13 o
382.998 603.681 o
400.83 618.231 o
415.992 632.782 o
404.373 647.332 o
410.239 661.883 o
411.599 676.433 o
410.073 690.984 o
410.099 705.535 o
409.459 720.085 o
392.94 734.636 o
390.917 749.186 o
410.805 763.737 o
417.895 778.287 o
411.689 792.838 o
410.865 807.388 o
410.151 821.939 o
409.104 836.489 o
grestore
0.000 setgray
gsave
384.2 800.3 178.8 50.76 clipbox
/o {
gsave
newpath
translate
0.5 setlinewidth
1 setlinejoin
0 setlinecap
0 -3 m
0.795609 -3 1.55874 -2.683901 2.12132 -2.12132 c
2.683901 -1.55874 3 -0.795609 3 0 c
3 0.795609 2.683901 1.55874 2.12132 2.12132 c
1.55874 2.683901 0.795609 3 0 3 c
-0.795609 3 -1.55874 2.683901 -2.12132 2.12132 c
-2.683901 1.55874 -3 0.795609 -3 0 c
-3 -0.795609 -2.683901 -1.55874 -2.12132 -2.12132 c
-1.55874 -2.683901 -0.795609 -3 0 -3 c
cl

gsave
1.000 0.000 0.000 setrgbcolor
fill
grestore
stroke
grestore
} bind def
369.702 65.3105 o
375.587 79.8611 o
370.911 94.4116 o
373.269 108.962 o
364.947 123.513 o
374.216 138.063 o
361.998 152.614 o
373.2 167.164 o
371.466 181.715 o
373.28 196.265 o
382.681 210.816 o
372.594 225.367 o
372.16 239.917 o
375.343 254.468 o
373.963 269.018 o
372.332 283.569 o
390.579 298.119 o
361.74 312.67 o
370.798 327.22 o
380.909 341.771 o
365.874 356.321 o
382.602 370.872 o
381.546 385.423 o
363.58 399.973 o
380.501 414.524 o
355.959 429.074 o
373.632 443.625 o
371.283 458.175 o
384.774 472.726 o
401.972 487.276 o
359.348 501.827 o
376.202 516.377 o
357.603 530.928 o
362.194 545.479 o
375.121 560.029 o
357.937 574.58 o
385.726 589.13 o
347.403 603.681 o
363.528 618.231 o
382.025 632.782 o
366.248 647.332 o
372.895 661.883 o
373.612 676.433 o
372.515 690.984 o
372.396 705.535 o
371.101 720.085 o
364.297 734.636 o
362.19 749.186 o
374.642 763.737 o
381.874 778.287 o
377.128 792.838 o
374.316 807.388 o
372.529 821.939 o
371.609 836.489 o
grestore
gsave
384.2 800.3 178.8 50.76 clipbox
/o {
gsave
newpath
translate
0.5 setlinewidth
1 setlinejoin
0 setlinecap
0 -3 m
0 3 l

gsave
0.000 setgray
fill
grestore
stroke
grestore
} bind def
329.901 65.3105 o
335.451 79.8611 o
332.595 94.4116 o
335.415 108.962 o
334.092 123.513 o
334.99 138.063 o
335.205 152.614 o
333.712 167.164 o
332.594 181.715 o
333.534 196.265 o
336.405 210.816 o
333.11 225.367 o
333.884 239.917 o
336.728 254.468 o
333.899 269.018 o
332.829 283.569 o
336.825 298.119 o
338.337 312.67 o
333.267 327.22 o
336.451 341.771 o
336.161 356.321 o
334.394 370.872 o
335.634 385.423 o
335.429 399.973 o
334.661 414.524 o
335.859 429.074 o
334.378 443.625 o
334.403 458.175 o
336.242 472.726 o
348.941 487.276 o
335.816 501.827 o
334.943 516.377 o
333.93 530.928 o
332.221 545.479 o
335.684 560.029 o
335.083 574.58 o
334.632 589.13 o
334.376 603.681 o
334.71 618.231 o
338.186 632.782 o
332.925 647.332 o
333.345 661.883 o
332.908 676.433 o
334.117 690.984 o
334.869 705.535 o
332.337 720.085 o
343.948 734.636 o
343.532 749.186 o
334.062 763.737 o
334.566 778.287 o
337.503 792.838 o
334.47 807.388 o
334.035 821.939 o
332.742 836.489 o
grestore
gsave
384.2 800.3 178.8 50.76 clipbox
/o {
gsave
newpath
translate
0.5 setlinewidth
1 setlinejoin
0 setlinecap
0 -3 m
0 3 l

gsave
0.000 setgray
fill
grestore
stroke
grestore
} bind def
407.566 65.3105 o
407.617 79.8611 o
408.76 94.4116 o
407.517 108.962 o
408.142 123.513 o
408.395 138.063 o
407.793 152.614 o
408.975 167.164 o
408.296 181.715 o
409.789 196.265 o
406.568 210.816 o
409.405 225.367 o
410.125 239.917 o
407.03 254.468 o
409.355 269.018 o
409.356 283.569 o
405.74 298.119 o
406.085 312.67 o
408.856 327.22 o
408.932 341.771 o
406.418 356.321 o
405.113 370.872 o
404.172 385.423 o
407.329 399.973 o
405.671 414.524 o
407.466 429.074 o
408.914 443.625 o
407.878 458.175 o
407.689 472.726 o
390.523 487.276 o
407.504 501.827 o
407.06 516.377 o
406.759 530.928 o
406.896 545.479 o
408.047 560.029 o
408.343 574.58 o
406.041 589.13 o
406.577 603.681 o
409.376 618.231 o
407.29 632.782 o
408.488 647.332 o
409.274 661.883 o
408.754 676.433 o
409.683 690.984 o
409.46 705.535 o
409.295 720.085 o
401.981 734.636 o
401.151 749.186 o
407.274 763.737 o
407.574 778.287 o
406.622 792.838 o
408.356 807.388 o
408.603 821.939 o
408.987 836.489 o
grestore
gsave
384.2 800.3 178.8 50.76 clipbox
/o {
gsave
newpath
translate
0.5 setlinewidth
1 setlinejoin
0 setlinecap
0 -3 m
0.795609 -3 1.55874 -2.683901 2.12132 -2.12132 c
2.683901 -1.55874 3 -0.795609 3 0 c
3 0.795609 2.683901 1.55874 2.12132 2.12132 c
1.55874 2.683901 0.795609 3 0 3 c
-0.795609 3 -1.55874 2.683901 -2.12132 2.12132 c
-2.683901 1.55874 -3 0.795609 -3 0 c
-3 -0.795609 -2.683901 -1.55874 -2.12132 -2.12132 c
-1.55874 -2.683901 -0.795609 -3 0 -3 c
cl

gsave
0.000 setgray
fill
grestore
stroke
grestore
} bind def
368.733 65.3105 o
371.534 79.8611 o
370.678 94.4116 o
371.466 108.962 o
371.117 123.513 o
371.692 138.063 o
371.499 152.614 o
371.344 167.164 o
370.445 181.715 o
371.661 196.265 o
371.487 210.816 o
371.258 225.367 o
372.005 239.917 o
371.879 254.468 o
371.627 269.018 o
371.093 283.569 o
371.282 298.119 o
372.211 312.67 o
371.062 327.22 o
372.691 341.771 o
371.289 356.321 o
369.754 370.872 o
369.903 385.423 o
371.379 399.973 o
370.166 414.524 o
371.662 429.074 o
371.646 443.625 o
371.14 458.175 o
371.965 472.726 o
369.732 487.276 o
371.66 501.827 o
371.002 516.377 o
370.344 530.928 o
369.559 545.479 o
371.865 560.029 o
371.713 574.58 o
370.337 589.13 o
370.476 603.681 o
372.043 618.231 o
372.738 632.782 o
370.706 647.332 o
371.31 661.883 o
370.831 676.433 o
371.9 690.984 o
372.164 705.535 o
370.816 720.085 o
372.964 734.636 o
372.341 749.186 o
370.668 763.737 o
371.07 778.287 o
372.062 792.838 o
371.413 807.388 o
371.319 821.939 o
370.865 836.489 o
grestore
1.000 setlinewidth
0 setlinejoin
2 setlinecap
gsave
178.8475 851.04 m
563.04 851.04 l
stroke
grestore
gsave
563.04 50.76 m
563.04 851.04 l
stroke
grestore
gsave
178.8475 50.76 m
563.04 50.76 l
stroke
grestore
gsave
178.8475 50.76 m
178.8475 851.04 l
stroke
grestore
0.500 setlinewidth
1 setlinejoin
0 setlinecap
gsave
/o {
gsave
newpath
translate
0.5 setlinewidth
1 setlinejoin
0 setlinecap
0 0 m
0 4 l

gsave
0.000 setgray
fill
grestore
stroke
grestore
} bind def
217.267 50.76 o
grestore
gsave
/o {
gsave
newpath
translate
0.5 setlinewidth
1 setlinejoin
0 setlinecap
0 0 m
0 -4 l

gsave
0.000 setgray
fill
grestore
stroke
grestore
} bind def
217.267 851.04 o
grestore
/BitstreamVeraSans-Roman findfont
12.000 scalefont
setfont
gsave
208.415188 37.635000 translate
0.000000 rotate
0.000000 0.000000 m /minus glyphshow
10.054688 0.000000 m /four glyphshow
grestore
gsave
/o {
gsave
newpath
translate
0.5 setlinewidth
1 setlinejoin
0 setlinecap
0 0 m
0 4 l

gsave
0.000 setgray
fill
grestore
stroke
grestore
} bind def
294.105 50.76 o
grestore
gsave
/o {
gsave
newpath
translate
0.5 setlinewidth
1 setlinejoin
0 setlinecap
0 0 m
0 -4 l

gsave
0.000 setgray
fill
grestore
stroke
grestore
} bind def
294.105 851.04 o
grestore
gsave
285.253688 37.635000 translate
0.000000 rotate
0.000000 0.000000 m /minus glyphshow
10.054688 0.000000 m /two glyphshow
grestore
gsave
/o {
gsave
newpath
translate
0.5 setlinewidth
1 setlinejoin
0 setlinecap
0 0 m
0 4 l

gsave
0.000 setgray
fill
grestore
stroke
grestore
} bind def
370.944 50.76 o
grestore
gsave
/o {
gsave
newpath
translate
0.5 setlinewidth
1 setlinejoin
0 setlinecap
0 0 m
0 -4 l

gsave
0.000 setgray
fill
grestore
stroke
grestore
} bind def
370.944 851.04 o
grestore
gsave
367.123438 37.635000 translate
0.000000 rotate
0.000000 0.000000 m /zero glyphshow
grestore
gsave
/o {
gsave
newpath
translate
0.5 setlinewidth
1 setlinejoin
0 setlinecap
0 0 m
0 4 l

gsave
0.000 setgray
fill
grestore
stroke
grestore
} bind def
447.782 50.76 o
grestore
gsave
/o {
gsave
newpath
translate
0.5 setlinewidth
1 setlinejoin
0 setlinecap
0 0 m
0 -4 l

gsave
0.000 setgray
fill
grestore
stroke
grestore
} bind def
447.782 851.04 o
grestore
gsave
443.961938 37.635000 translate
0.000000 rotate
0.000000 0.000000 m /two glyphshow
grestore
gsave
/o {
gsave
newpath
translate
0.5 setlinewidth
1 setlinejoin
0 setlinecap
0 0 m
0 4 l

gsave
0.000 setgray
fill
grestore
stroke
grestore
} bind def
524.621 50.76 o
grestore
gsave
/o {
gsave
newpath
translate
0.5 setlinewidth
1 setlinejoin
0 setlinecap
0 0 m
0 -4 l

gsave
0.000 setgray
fill
grestore
stroke
grestore
} bind def
524.621 851.04 o
grestore
gsave
520.800438 37.635000 translate
0.000000 rotate
0.000000 0.000000 m /four glyphshow
grestore
gsave
299.943750 20.135000 translate
0.000000 rotate
/BitstreamVeraSans-Roman findfont
12.0 scalefont
setfont
0.000000 0.875000 moveto
/N glyphshow

8.976562 0.875000 moveto
/u glyphshow

16.582031 0.875000 moveto
/i glyphshow

19.916016 0.875000 moveto
/s glyphshow

26.167969 0.875000 moveto
/a glyphshow

33.521484 0.875000 moveto
/n glyphshow

41.126953 0.875000 moveto
/c glyphshow

47.724609 0.875000 moveto
/e glyphshow

55.107422 0.875000 moveto
/space glyphshow

58.921875 0.875000 moveto
/p glyphshow

66.539062 0.875000 moveto
/a glyphshow

73.892578 0.875000 moveto
/r glyphshow

78.826172 0.875000 moveto
/a glyphshow

86.179688 0.875000 moveto
/m glyphshow

97.869141 0.875000 moveto
/e glyphshow

105.251953 0.875000 moveto
/t glyphshow

109.957031 0.875000 moveto
/e glyphshow

117.339844 0.875000 moveto
/r glyphshow

122.273438 0.875000 moveto
/space glyphshow

126.087891 0.875000 moveto
/parenleft glyphshow

/Cmmi10 findfont
12.0 scalefont
setfont
130.769531 0.875000 moveto
/theta glyphshow

/BitstreamVeraSans-Roman findfont
12.0 scalefont
setfont
136.400391 0.875000 moveto
/parenright glyphshow


grestore
gsave
/o {
gsave
newpath
translate
0.5 setlinewidth
1 setlinejoin
0 setlinecap
0 0 m
4 0 l

gsave
0.000 setgray
fill
grestore
stroke
grestore
} bind def
178.848 65.3105 o
grestore
gsave
/o {
gsave
newpath
translate
0.5 setlinewidth
1 setlinejoin
0 setlinecap
0 0 m
-4 0 l

gsave
0.000 setgray
fill
grestore
stroke
grestore
} bind def
563.04 65.3105 o
grestore
gsave
146.878750 61.998045 translate
0.000000 rotate
0.000000 0.000000 m /z glyphshow
6.298828 0.000000 m /j glyphshow
9.632812 0.000000 m /e glyphshow
17.015625 0.000000 m /t glyphshow
21.720703 0.000000 m /s glyphshow
grestore
gsave
/o {
gsave
newpath
translate
0.5 setlinewidth
1 setlinejoin
0 setlinecap
0 0 m
4 0 l

gsave
0.000 setgray
fill
grestore
stroke
grestore
} bind def
178.848 79.8611 o
grestore
gsave
/o {
gsave
newpath
translate
0.5 setlinewidth
1 setlinejoin
0 setlinecap
0 0 m
-4 0 l

gsave
0.000 setgray
fill
grestore
stroke
grestore
} bind def
563.04 79.8611 o
grestore
gsave
155.691250 76.548591 translate
0.000000 rotate
0.000000 0.000000 m /j glyphshow
3.333984 0.000000 m /e glyphshow
10.716797 0.000000 m /f glyphshow
14.941406 0.000000 m /f glyphshow
grestore
gsave
/o {
gsave
newpath
translate
0.5 setlinewidth
1 setlinejoin
0 setlinecap
0 0 m
4 0 l

gsave
0.000 setgray
fill
grestore
stroke
grestore
} bind def
178.848 94.4116 o
grestore
gsave
/o {
gsave
newpath
translate
0.5 setlinewidth
1 setlinejoin
0 setlinecap
0 0 m
-4 0 l

gsave
0.000 setgray
fill
grestore
stroke
grestore
} bind def
563.04 94.4116 o
grestore
gsave
127.066250 91.263199 translate
0.000000 rotate
0.000000 0.000000 m /e glyphshow
7.382812 0.000000 m /l glyphshow
10.716797 0.000000 m /underscore glyphshow
16.716797 0.000000 m /t glyphshow
21.421875 0.000000 m /r glyphshow
26.355469 0.000000 m /i glyphshow
29.689453 0.000000 m /g glyphshow
37.306641 0.000000 m /s glyphshow
43.558594 0.000000 m /f glyphshow
grestore
gsave
/o {
gsave
newpath
translate
0.5 setlinewidth
1 setlinejoin
0 setlinecap
0 0 m
4 0 l

gsave
0.000 setgray
fill
grestore
stroke
grestore
} bind def
178.848 108.962 o
grestore
gsave
/o {
gsave
newpath
translate
0.5 setlinewidth
1 setlinejoin
0 setlinecap
0 0 m
-4 0 l

gsave
0.000 setgray
fill
grestore
stroke
grestore
} bind def
563.04 108.962 o
grestore
gsave
75.769375 105.649682 translate
0.000000 rotate
0.000000 0.000000 m /j glyphshow
3.333984 0.000000 m /e glyphshow
10.716797 0.000000 m /s glyphshow
16.968750 0.000000 m /e glyphshow
24.351562 0.000000 m /f glyphshow
28.576172 0.000000 m /f glyphshow
32.800781 0.000000 m /e glyphshow
40.183594 0.000000 m /c glyphshow
46.781250 0.000000 m /t glyphshow
51.486328 0.000000 m /i glyphshow
54.820312 0.000000 m /v glyphshow
61.921875 0.000000 m /e glyphshow
69.304688 0.000000 m /m glyphshow
80.994141 0.000000 m /i glyphshow
84.328125 0.000000 m /x glyphshow
91.429688 0.000000 m /four glyphshow
grestore
gsave
/o {
gsave
newpath
translate
0.5 setlinewidth
1 setlinejoin
0 setlinecap
0 0 m
4 0 l

gsave
0.000 setgray
fill
grestore
stroke
grestore
} bind def
178.848 123.513 o
grestore
gsave
/o {
gsave
newpath
translate
0.5 setlinewidth
1 setlinejoin
0 setlinecap
0 0 m
-4 0 l

gsave
0.000 setgray
fill
grestore
stroke
grestore
} bind def
563.04 123.513 o
grestore
gsave
75.769375 120.200227 translate
0.000000 rotate
0.000000 0.000000 m /j glyphshow
3.333984 0.000000 m /e glyphshow
10.716797 0.000000 m /s glyphshow
16.968750 0.000000 m /e glyphshow
24.351562 0.000000 m /f glyphshow
28.576172 0.000000 m /f glyphshow
32.800781 0.000000 m /e glyphshow
40.183594 0.000000 m /c glyphshow
46.781250 0.000000 m /t glyphshow
51.486328 0.000000 m /i glyphshow
54.820312 0.000000 m /v glyphshow
61.921875 0.000000 m /e glyphshow
69.304688 0.000000 m /m glyphshow
80.994141 0.000000 m /i glyphshow
84.328125 0.000000 m /x glyphshow
91.429688 0.000000 m /three glyphshow
grestore
gsave
/o {
gsave
newpath
translate
0.5 setlinewidth
1 setlinejoin
0 setlinecap
0 0 m
4 0 l

gsave
0.000 setgray
fill
grestore
stroke
grestore
} bind def
178.848 138.063 o
grestore
gsave
/o {
gsave
newpath
translate
0.5 setlinewidth
1 setlinejoin
0 setlinecap
0 0 m
-4 0 l

gsave
0.000 setgray
fill
grestore
stroke
grestore
} bind def
563.04 138.063 o
grestore
gsave
75.769375 134.750773 translate
0.000000 rotate
0.000000 0.000000 m /j glyphshow
3.333984 0.000000 m /e glyphshow
10.716797 0.000000 m /s glyphshow
16.968750 0.000000 m /e glyphshow
24.351562 0.000000 m /f glyphshow
28.576172 0.000000 m /f glyphshow
32.800781 0.000000 m /e glyphshow
40.183594 0.000000 m /c glyphshow
46.781250 0.000000 m /t glyphshow
51.486328 0.000000 m /i glyphshow
54.820312 0.000000 m /v glyphshow
61.921875 0.000000 m /e glyphshow
69.304688 0.000000 m /m glyphshow
80.994141 0.000000 m /i glyphshow
84.328125 0.000000 m /x glyphshow
91.429688 0.000000 m /two glyphshow
grestore
gsave
/o {
gsave
newpath
translate
0.5 setlinewidth
1 setlinejoin
0 setlinecap
0 0 m
4 0 l

gsave
0.000 setgray
fill
grestore
stroke
grestore
} bind def
178.848 152.614 o
grestore
gsave
/o {
gsave
newpath
translate
0.5 setlinewidth
1 setlinejoin
0 setlinecap
0 0 m
-4 0 l

gsave
0.000 setgray
fill
grestore
stroke
grestore
} bind def
563.04 152.614 o
grestore
gsave
75.769375 149.301318 translate
0.000000 rotate
0.000000 0.000000 m /j glyphshow
3.333984 0.000000 m /e glyphshow
10.716797 0.000000 m /s glyphshow
16.968750 0.000000 m /e glyphshow
24.351562 0.000000 m /f glyphshow
28.576172 0.000000 m /f glyphshow
32.800781 0.000000 m /e glyphshow
40.183594 0.000000 m /c glyphshow
46.781250 0.000000 m /t glyphshow
51.486328 0.000000 m /i glyphshow
54.820312 0.000000 m /v glyphshow
61.921875 0.000000 m /e glyphshow
69.304688 0.000000 m /m glyphshow
80.994141 0.000000 m /i glyphshow
84.328125 0.000000 m /x glyphshow
91.429688 0.000000 m /one glyphshow
grestore
gsave
/o {
gsave
newpath
translate
0.5 setlinewidth
1 setlinejoin
0 setlinecap
0 0 m
4 0 l

gsave
0.000 setgray
fill
grestore
stroke
grestore
} bind def
178.848 167.164 o
grestore
gsave
/o {
gsave
newpath
translate
0.5 setlinewidth
1 setlinejoin
0 setlinecap
0 0 m
-4 0 l

gsave
0.000 setgray
fill
grestore
stroke
grestore
} bind def
563.04 167.164 o
grestore
gsave
121.253750 163.851864 translate
0.000000 rotate
0.000000 0.000000 m /c glyphshow
6.597656 0.000000 m /t glyphshow
11.302734 0.000000 m /a glyphshow
18.656250 0.000000 m /u glyphshow
26.261719 0.000000 m /t glyphshow
30.966797 0.000000 m /a glyphshow
38.320312 0.000000 m /g glyphshow
45.937500 0.000000 m /six glyphshow
grestore
gsave
/o {
gsave
newpath
translate
0.5 setlinewidth
1 setlinejoin
0 setlinecap
0 0 m
4 0 l

gsave
0.000 setgray
fill
grestore
stroke
grestore
} bind def
178.848 181.715 o
grestore
gsave
/o {
gsave
newpath
translate
0.5 setlinewidth
1 setlinejoin
0 setlinecap
0 0 m
-4 0 l

gsave
0.000 setgray
fill
grestore
stroke
grestore
} bind def
563.04 181.715 o
grestore
gsave
139.894375 178.402409 translate
0.000000 rotate
0.000000 0.000000 m /b glyphshow
7.617188 0.000000 m /t glyphshow
12.322266 0.000000 m /a glyphshow
19.675781 0.000000 m /g glyphshow
27.292969 0.000000 m /three glyphshow
grestore
gsave
/o {
gsave
newpath
translate
0.5 setlinewidth
1 setlinejoin
0 setlinecap
0 0 m
4 0 l

gsave
0.000 setgray
fill
grestore
stroke
grestore
} bind def
178.848 196.265 o
grestore
gsave
/o {
gsave
newpath
translate
0.5 setlinewidth
1 setlinejoin
0 setlinecap
0 0 m
-4 0 l

gsave
0.000 setgray
fill
grestore
stroke
grestore
} bind def
563.04 196.265 o
grestore
gsave
139.894375 192.952955 translate
0.000000 rotate
0.000000 0.000000 m /b glyphshow
7.617188 0.000000 m /t glyphshow
12.322266 0.000000 m /a glyphshow
19.675781 0.000000 m /g glyphshow
27.292969 0.000000 m /two glyphshow
grestore
gsave
/o {
gsave
newpath
translate
0.5 setlinewidth
1 setlinejoin
0 setlinecap
0 0 m
4 0 l

gsave
0.000 setgray
fill
grestore
stroke
grestore
} bind def
178.848 210.816 o
grestore
gsave
/o {
gsave
newpath
translate
0.5 setlinewidth
1 setlinejoin
0 setlinecap
0 0 m
-4 0 l

gsave
0.000 setgray
fill
grestore
stroke
grestore
} bind def
563.04 210.816 o
grestore
gsave
133.488125 207.667562 translate
0.000000 rotate
0.000000 0.000000 m /s glyphshow
6.251953 0.000000 m /c glyphshow
12.849609 0.000000 m /underscore glyphshow
18.849609 0.000000 m /s glyphshow
25.101562 0.000000 m /o glyphshow
32.443359 0.000000 m /f glyphshow
36.667969 0.000000 m /t glyphshow
grestore
gsave
/o {
gsave
newpath
translate
0.5 setlinewidth
1 setlinejoin
0 setlinecap
0 0 m
4 0 l

gsave
0.000 setgray
fill
grestore
stroke
grestore
} bind def
178.848 225.367 o
grestore
gsave
/o {
gsave
newpath
translate
0.5 setlinewidth
1 setlinejoin
0 setlinecap
0 0 m
-4 0 l

gsave
0.000 setgray
fill
grestore
stroke
grestore
} bind def
563.04 225.367 o
grestore
gsave
139.894375 222.054045 translate
0.000000 rotate
0.000000 0.000000 m /b glyphshow
7.617188 0.000000 m /t glyphshow
12.322266 0.000000 m /a glyphshow
19.675781 0.000000 m /g glyphshow
27.292969 0.000000 m /zero glyphshow
grestore
gsave
/o {
gsave
newpath
translate
0.5 setlinewidth
1 setlinejoin
0 setlinecap
0 0 m
4 0 l

gsave
0.000 setgray
fill
grestore
stroke
grestore
} bind def
178.848 239.917 o
grestore
gsave
/o {
gsave
newpath
translate
0.5 setlinewidth
1 setlinejoin
0 setlinecap
0 0 m
-4 0 l

gsave
0.000 setgray
fill
grestore
stroke
grestore
} bind def
563.04 239.917 o
grestore
gsave
139.894375 236.604591 translate
0.000000 rotate
0.000000 0.000000 m /b glyphshow
7.617188 0.000000 m /t glyphshow
12.322266 0.000000 m /a glyphshow
19.675781 0.000000 m /g glyphshow
27.292969 0.000000 m /seven glyphshow
grestore
gsave
/o {
gsave
newpath
translate
0.5 setlinewidth
1 setlinejoin
0 setlinecap
0 0 m
4 0 l

gsave
0.000 setgray
fill
grestore
stroke
grestore
} bind def
178.848 254.468 o
grestore
gsave
/o {
gsave
newpath
translate
0.5 setlinewidth
1 setlinejoin
0 setlinecap
0 0 m
-4 0 l

gsave
0.000 setgray
fill
grestore
stroke
grestore
} bind def
563.04 254.468 o
grestore
gsave
133.894375 251.155136 translate
0.000000 rotate
0.000000 0.000000 m /m glyphshow
11.689453 0.000000 m /i glyphshow
15.023438 0.000000 m /s glyphshow
21.275391 0.000000 m /t glyphshow
25.980469 0.000000 m /a glyphshow
33.333984 0.000000 m /g glyphshow
grestore
gsave
/o {
gsave
newpath
translate
0.5 setlinewidth
1 setlinejoin
0 setlinecap
0 0 m
4 0 l

gsave
0.000 setgray
fill
grestore
stroke
grestore
} bind def
178.848 269.018 o
grestore
gsave
/o {
gsave
newpath
translate
0.5 setlinewidth
1 setlinejoin
0 setlinecap
0 0 m
-4 0 l

gsave
0.000 setgray
fill
grestore
stroke
grestore
} bind def
563.04 269.018 o
grestore
gsave
139.894375 265.705682 translate
0.000000 rotate
0.000000 0.000000 m /b glyphshow
7.617188 0.000000 m /t glyphshow
12.322266 0.000000 m /a glyphshow
19.675781 0.000000 m /g glyphshow
27.292969 0.000000 m /five glyphshow
grestore
gsave
/o {
gsave
newpath
translate
0.5 setlinewidth
1 setlinejoin
0 setlinecap
0 0 m
4 0 l

gsave
0.000 setgray
fill
grestore
stroke
grestore
} bind def
178.848 283.569 o
grestore
gsave
/o {
gsave
newpath
translate
0.5 setlinewidth
1 setlinejoin
0 setlinecap
0 0 m
-4 0 l

gsave
0.000 setgray
fill
grestore
stroke
grestore
} bind def
563.04 283.569 o
grestore
gsave
139.894375 280.256227 translate
0.000000 rotate
0.000000 0.000000 m /b glyphshow
7.617188 0.000000 m /t glyphshow
12.322266 0.000000 m /a glyphshow
19.675781 0.000000 m /g glyphshow
27.292969 0.000000 m /four glyphshow
grestore
gsave
/o {
gsave
newpath
translate
0.5 setlinewidth
1 setlinejoin
0 setlinecap
0 0 m
4 0 l

gsave
0.000 setgray
fill
grestore
stroke
grestore
} bind def
178.848 298.119 o
grestore
gsave
/o {
gsave
newpath
translate
0.5 setlinewidth
1 setlinejoin
0 setlinecap
0 0 m
-4 0 l

gsave
0.000 setgray
fill
grestore
stroke
grestore
} bind def
563.04 298.119 o
grestore
gsave
153.816250 294.806773 translate
0.000000 rotate
0.000000 0.000000 m /e glyphshow
7.382812 0.000000 m /e glyphshow
14.765625 0.000000 m /s glyphshow
grestore
gsave
/o {
gsave
newpath
translate
0.5 setlinewidth
1 setlinejoin
0 setlinecap
0 0 m
4 0 l

gsave
0.000 setgray
fill
grestore
stroke
grestore
} bind def
178.848 312.67 o
grestore
gsave
/o {
gsave
newpath
translate
0.5 setlinewidth
1 setlinejoin
0 setlinecap
0 0 m
-4 0 l

gsave
0.000 setgray
fill
grestore
stroke
grestore
} bind def
563.04 312.67 o
grestore
gsave
60.519375 309.357318 translate
0.000000 rotate
0.000000 0.000000 m /j glyphshow
3.333984 0.000000 m /e glyphshow
10.716797 0.000000 m /s glyphshow
16.968750 0.000000 m /e glyphshow
24.351562 0.000000 m /f glyphshow
28.576172 0.000000 m /f glyphshow
32.800781 0.000000 m /e glyphshow
40.183594 0.000000 m /c glyphshow
46.781250 0.000000 m /t glyphshow
51.486328 0.000000 m /i glyphshow
54.820312 0.000000 m /v glyphshow
61.921875 0.000000 m /e glyphshow
69.304688 0.000000 m /m glyphshow
80.994141 0.000000 m /o glyphshow
88.335938 0.000000 m /d glyphshow
95.953125 0.000000 m /e glyphshow
103.335938 0.000000 m /l glyphshow
106.669922 0.000000 m /four glyphshow
grestore
gsave
/o {
gsave
newpath
translate
0.5 setlinewidth
1 setlinejoin
0 setlinecap
0 0 m
4 0 l

gsave
0.000 setgray
fill
grestore
stroke
grestore
} bind def
178.848 327.22 o
grestore
gsave
/o {
gsave
newpath
translate
0.5 setlinewidth
1 setlinejoin
0 setlinecap
0 0 m
-4 0 l

gsave
0.000 setgray
fill
grestore
stroke
grestore
} bind def
563.04 327.22 o
grestore
gsave
139.894375 323.907864 translate
0.000000 rotate
0.000000 0.000000 m /b glyphshow
7.617188 0.000000 m /t glyphshow
12.322266 0.000000 m /a glyphshow
19.675781 0.000000 m /g glyphshow
27.292969 0.000000 m /eight glyphshow
grestore
gsave
/o {
gsave
newpath
translate
0.5 setlinewidth
1 setlinejoin
0 setlinecap
0 0 m
4 0 l

gsave
0.000 setgray
fill
grestore
stroke
grestore
} bind def
178.848 341.771 o
grestore
gsave
/o {
gsave
newpath
translate
0.5 setlinewidth
1 setlinejoin
0 setlinecap
0 0 m
-4 0 l

gsave
0.000 setgray
fill
grestore
stroke
grestore
} bind def
563.04 341.771 o
grestore
gsave
60.519375 338.458409 translate
0.000000 rotate
0.000000 0.000000 m /j glyphshow
3.333984 0.000000 m /e glyphshow
10.716797 0.000000 m /s glyphshow
16.968750 0.000000 m /e glyphshow
24.351562 0.000000 m /f glyphshow
28.576172 0.000000 m /f glyphshow
32.800781 0.000000 m /e glyphshow
40.183594 0.000000 m /c glyphshow
46.781250 0.000000 m /t glyphshow
51.486328 0.000000 m /i glyphshow
54.820312 0.000000 m /v glyphshow
61.921875 0.000000 m /e glyphshow
69.304688 0.000000 m /m glyphshow
80.994141 0.000000 m /o glyphshow
88.335938 0.000000 m /d glyphshow
95.953125 0.000000 m /e glyphshow
103.335938 0.000000 m /l glyphshow
106.669922 0.000000 m /two glyphshow
grestore
gsave
/o {
gsave
newpath
translate
0.5 setlinewidth
1 setlinejoin
0 setlinecap
0 0 m
4 0 l

gsave
0.000 setgray
fill
grestore
stroke
grestore
} bind def
178.848 356.321 o
grestore
gsave
/o {
gsave
newpath
translate
0.5 setlinewidth
1 setlinejoin
0 setlinecap
0 0 m
-4 0 l

gsave
0.000 setgray
fill
grestore
stroke
grestore
} bind def
563.04 356.321 o
grestore
gsave
60.519375 353.008955 translate
0.000000 rotate
0.000000 0.000000 m /j glyphshow
3.333984 0.000000 m /e glyphshow
10.716797 0.000000 m /s glyphshow
16.968750 0.000000 m /e glyphshow
24.351562 0.000000 m /f glyphshow
28.576172 0.000000 m /f glyphshow
32.800781 0.000000 m /e glyphshow
40.183594 0.000000 m /c glyphshow
46.781250 0.000000 m /t glyphshow
51.486328 0.000000 m /i glyphshow
54.820312 0.000000 m /v glyphshow
61.921875 0.000000 m /e glyphshow
69.304688 0.000000 m /m glyphshow
80.994141 0.000000 m /o glyphshow
88.335938 0.000000 m /d glyphshow
95.953125 0.000000 m /e glyphshow
103.335938 0.000000 m /l glyphshow
106.669922 0.000000 m /three glyphshow
grestore
gsave
/o {
gsave
newpath
translate
0.5 setlinewidth
1 setlinejoin
0 setlinecap
0 0 m
4 0 l

gsave
0.000 setgray
fill
grestore
stroke
grestore
} bind def
178.848 370.872 o
grestore
gsave
/o {
gsave
newpath
translate
0.5 setlinewidth
1 setlinejoin
0 setlinecap
0 0 m
-4 0 l

gsave
0.000 setgray
fill
grestore
stroke
grestore
} bind def
563.04 370.872 o
grestore
gsave
60.519375 367.559500 translate
0.000000 rotate
0.000000 0.000000 m /j glyphshow
3.333984 0.000000 m /e glyphshow
10.716797 0.000000 m /s glyphshow
16.968750 0.000000 m /e glyphshow
24.351562 0.000000 m /f glyphshow
28.576172 0.000000 m /f glyphshow
32.800781 0.000000 m /e glyphshow
40.183594 0.000000 m /c glyphshow
46.781250 0.000000 m /t glyphshow
51.486328 0.000000 m /i glyphshow
54.820312 0.000000 m /v glyphshow
61.921875 0.000000 m /e glyphshow
69.304688 0.000000 m /m glyphshow
80.994141 0.000000 m /o glyphshow
88.335938 0.000000 m /d glyphshow
95.953125 0.000000 m /e glyphshow
103.335938 0.000000 m /l glyphshow
106.669922 0.000000 m /one glyphshow
grestore
gsave
/o {
gsave
newpath
translate
0.5 setlinewidth
1 setlinejoin
0 setlinecap
0 0 m
4 0 l

gsave
0.000 setgray
fill
grestore
stroke
grestore
} bind def
178.848 385.423 o
grestore
gsave
/o {
gsave
newpath
translate
0.5 setlinewidth
1 setlinejoin
0 setlinecap
0 0 m
-4 0 l

gsave
0.000 setgray
fill
grestore
stroke
grestore
} bind def
563.04 385.423 o
grestore
gsave
159.191250 382.110045 translate
0.000000 rotate
0.000000 0.000000 m /j glyphshow
3.333984 0.000000 m /e glyphshow
10.716797 0.000000 m /r glyphshow
grestore
gsave
/o {
gsave
newpath
translate
0.5 setlinewidth
1 setlinejoin
0 setlinecap
0 0 m
4 0 l

gsave
0.000 setgray
fill
grestore
stroke
grestore
} bind def
178.848 399.973 o
grestore
gsave
/o {
gsave
newpath
translate
0.5 setlinewidth
1 setlinejoin
0 setlinecap
0 0 m
-4 0 l

gsave
0.000 setgray
fill
grestore
stroke
grestore
} bind def
563.04 399.973 o
grestore
gsave
128.441250 396.660591 translate
0.000000 rotate
0.000000 0.000000 m /b glyphshow
7.617188 0.000000 m /j glyphshow
10.951172 0.000000 m /e glyphshow
18.333984 0.000000 m /s glyphshow
24.585938 0.000000 m /u glyphshow
32.191406 0.000000 m /n glyphshow
39.796875 0.000000 m /c glyphshow
grestore
gsave
/o {
gsave
newpath
translate
0.5 setlinewidth
1 setlinejoin
0 setlinecap
0 0 m
4 0 l

gsave
0.000 setgray
fill
grestore
stroke
grestore
} bind def
178.848 414.524 o
grestore
gsave
/o {
gsave
newpath
translate
0.5 setlinewidth
1 setlinejoin
0 setlinecap
0 0 m
-4 0 l

gsave
0.000 setgray
fill
grestore
stroke
grestore
} bind def
563.04 414.524 o
grestore
gsave
26.535000 411.211136 translate
0.000000 rotate
0.000000 0.000000 m /e glyphshow
7.382812 0.000000 m /t glyphshow
12.087891 0.000000 m /a glyphshow
19.441406 0.000000 m /i glyphshow
22.775391 0.000000 m /n glyphshow
30.380859 0.000000 m /t glyphshow
35.085938 0.000000 m /e glyphshow
42.468750 0.000000 m /r glyphshow
47.402344 0.000000 m /c glyphshow
54.000000 0.000000 m /a glyphshow
61.353516 0.000000 m /l glyphshow
64.687500 0.000000 m /i glyphshow
68.021484 0.000000 m /b glyphshow
75.638672 0.000000 m /r glyphshow
80.572266 0.000000 m /a glyphshow
87.925781 0.000000 m /t glyphshow
92.630859 0.000000 m /i glyphshow
95.964844 0.000000 m /o glyphshow
103.306641 0.000000 m /n glyphshow
110.912109 0.000000 m /m glyphshow
122.601562 0.000000 m /o glyphshow
129.943359 0.000000 m /d glyphshow
137.560547 0.000000 m /e glyphshow
144.943359 0.000000 m /l glyphshow
grestore
gsave
/o {
gsave
newpath
translate
0.5 setlinewidth
1 setlinejoin
0 setlinecap
0 0 m
4 0 l

gsave
0.000 setgray
fill
grestore
stroke
grestore
} bind def
178.848 429.074 o
grestore
gsave
/o {
gsave
newpath
translate
0.5 setlinewidth
1 setlinejoin
0 setlinecap
0 0 m
-4 0 l

gsave
0.000 setgray
fill
grestore
stroke
grestore
} bind def
563.04 429.074 o
grestore
gsave
78.519375 425.925744 translate
0.000000 rotate
0.000000 0.000000 m /p glyphshow
7.617188 0.000000 m /i glyphshow
10.951172 0.000000 m /l glyphshow
14.285156 0.000000 m /e glyphshow
21.667969 0.000000 m /u glyphshow
29.273438 0.000000 m /p glyphshow
36.890625 0.000000 m /underscore glyphshow
42.890625 0.000000 m /o glyphshow
50.232422 0.000000 m /f glyphshow
54.457031 0.000000 m /f glyphshow
58.681641 0.000000 m /s glyphshow
64.933594 0.000000 m /e glyphshow
72.316406 0.000000 m /t glyphshow
77.021484 0.000000 m /m glyphshow
88.710938 0.000000 m /u glyphshow
grestore
gsave
/o {
gsave
newpath
translate
0.5 setlinewidth
1 setlinejoin
0 setlinecap
0 0 m
4 0 l

gsave
0.000 setgray
fill
grestore
stroke
grestore
} bind def
178.848 443.625 o
grestore
gsave
/o {
gsave
newpath
translate
0.5 setlinewidth
1 setlinejoin
0 setlinecap
0 0 m
-4 0 l

gsave
0.000 setgray
fill
grestore
stroke
grestore
} bind def
563.04 443.625 o
grestore
gsave
90.363125 440.312227 translate
0.000000 rotate
0.000000 0.000000 m /p glyphshow
7.617188 0.000000 m /u glyphshow
15.222656 0.000000 m /n glyphshow
22.828125 0.000000 m /c glyphshow
29.425781 0.000000 m /h glyphshow
37.031250 0.000000 m /t glyphshow
41.736328 0.000000 m /h glyphshow
49.341797 0.000000 m /r glyphshow
54.275391 0.000000 m /o glyphshow
61.617188 0.000000 m /u glyphshow
69.222656 0.000000 m /g glyphshow
76.839844 0.000000 m /h glyphshow
grestore
gsave
/o {
gsave
newpath
translate
0.5 setlinewidth
1 setlinejoin
0 setlinecap
0 0 m
4 0 l

gsave
0.000 setgray
fill
grestore
stroke
grestore
} bind def
178.848 458.175 o
grestore
gsave
/o {
gsave
newpath
translate
0.5 setlinewidth
1 setlinejoin
0 setlinecap
0 0 m
-4 0 l

gsave
0.000 setgray
fill
grestore
stroke
grestore
} bind def
563.04 458.175 o
grestore
gsave
155.128750 454.862773 translate
0.000000 rotate
0.000000 0.000000 m /e glyphshow
7.382812 0.000000 m /e glyphshow
14.765625 0.000000 m /r glyphshow
grestore
gsave
/o {
gsave
newpath
translate
0.5 setlinewidth
1 setlinejoin
0 setlinecap
0 0 m
4 0 l

gsave
0.000 setgray
fill
grestore
stroke
grestore
} bind def
178.848 472.726 o
grestore
gsave
/o {
gsave
newpath
translate
0.5 setlinewidth
1 setlinejoin
0 setlinecap
0 0 m
-4 0 l

gsave
0.000 setgray
fill
grestore
stroke
grestore
} bind def
563.04 472.726 o
grestore
gsave
112.050625 469.577381 translate
0.000000 rotate
0.000000 0.000000 m /p glyphshow
7.617188 0.000000 m /i glyphshow
10.951172 0.000000 m /l glyphshow
14.285156 0.000000 m /e glyphshow
21.667969 0.000000 m /u glyphshow
29.273438 0.000000 m /p glyphshow
36.890625 0.000000 m /underscore glyphshow
42.890625 0.000000 m /r glyphshow
47.824219 0.000000 m /h glyphshow
55.429688 0.000000 m /o glyphshow
grestore
gsave
/o {
gsave
newpath
translate
0.5 setlinewidth
1 setlinejoin
0 setlinecap
0 0 m
4 0 l

gsave
0.000 setgray
fill
grestore
stroke
grestore
} bind def
178.848 487.276 o
grestore
gsave
/o {
gsave
newpath
translate
0.5 setlinewidth
1 setlinejoin
0 setlinecap
0 0 m
-4 0 l

gsave
0.000 setgray
fill
grestore
stroke
grestore
} bind def
563.04 487.276 o
grestore
gsave
136.706875 484.127926 translate
0.000000 rotate
0.000000 0.000000 m /e glyphshow
7.382812 0.000000 m /l glyphshow
10.716797 0.000000 m /underscore glyphshow
16.716797 0.000000 m /i glyphshow
20.050781 0.000000 m /d glyphshow
27.667969 0.000000 m /s glyphshow
33.919922 0.000000 m /f glyphshow
grestore
gsave
/o {
gsave
newpath
translate
0.5 setlinewidth
1 setlinejoin
0 setlinecap
0 0 m
4 0 l

gsave
0.000 setgray
fill
grestore
stroke
grestore
} bind def
178.848 501.827 o
grestore
gsave
/o {
gsave
newpath
translate
0.5 setlinewidth
1 setlinejoin
0 setlinecap
0 0 m
-4 0 l

gsave
0.000 setgray
fill
grestore
stroke
grestore
} bind def
563.04 501.827 o
grestore
gsave
75.472500 498.678472 translate
0.000000 rotate
0.000000 0.000000 m /p glyphshow
7.617188 0.000000 m /i glyphshow
10.951172 0.000000 m /l glyphshow
14.285156 0.000000 m /e glyphshow
21.667969 0.000000 m /u glyphshow
29.273438 0.000000 m /p glyphshow
36.890625 0.000000 m /underscore glyphshow
42.890625 0.000000 m /o glyphshow
50.232422 0.000000 m /f glyphshow
54.457031 0.000000 m /f glyphshow
58.681641 0.000000 m /s glyphshow
64.933594 0.000000 m /e glyphshow
72.316406 0.000000 m /t glyphshow
77.021484 0.000000 m /n glyphshow
84.626953 0.000000 m /p glyphshow
92.244141 0.000000 m /v glyphshow
grestore
gsave
/o {
gsave
newpath
translate
0.5 setlinewidth
1 setlinejoin
0 setlinecap
0 0 m
4 0 l

gsave
0.000 setgray
fill
grestore
stroke
grestore
} bind def
178.848 516.377 o
grestore
gsave
/o {
gsave
newpath
translate
0.5 setlinewidth
1 setlinejoin
0 setlinecap
0 0 m
-4 0 l

gsave
0.000 setgray
fill
grestore
stroke
grestore
} bind def
563.04 516.377 o
grestore
gsave
74.878750 513.064955 translate
0.000000 rotate
0.000000 0.000000 m /j glyphshow
3.333984 0.000000 m /e glyphshow
10.716797 0.000000 m /s glyphshow
16.968750 0.000000 m /e glyphshow
24.351562 0.000000 m /f glyphshow
28.576172 0.000000 m /f glyphshow
32.800781 0.000000 m /e glyphshow
40.183594 0.000000 m /c glyphshow
46.781250 0.000000 m /t glyphshow
51.486328 0.000000 m /i glyphshow
54.820312 0.000000 m /v glyphshow
61.921875 0.000000 m /e glyphshow
69.304688 0.000000 m /s glyphshow
75.556641 0.000000 m /t glyphshow
80.261719 0.000000 m /a glyphshow
87.615234 0.000000 m /t glyphshow
92.320312 0.000000 m /three glyphshow
grestore
gsave
/o {
gsave
newpath
translate
0.5 setlinewidth
1 setlinejoin
0 setlinecap
0 0 m
4 0 l

gsave
0.000 setgray
fill
grestore
stroke
grestore
} bind def
178.848 530.928 o
grestore
gsave
/o {
gsave
newpath
translate
0.5 setlinewidth
1 setlinejoin
0 setlinecap
0 0 m
-4 0 l

gsave
0.000 setgray
fill
grestore
stroke
grestore
} bind def
563.04 530.928 o
grestore
gsave
127.753750 527.779562 translate
0.000000 rotate
0.000000 0.000000 m /r glyphshow
4.933594 0.000000 m /e glyphshow
12.316406 0.000000 m /s glyphshow
18.568359 0.000000 m /underscore glyphshow
24.568359 0.000000 m /s glyphshow
30.820312 0.000000 m /o glyphshow
38.162109 0.000000 m /f glyphshow
42.386719 0.000000 m /t glyphshow
grestore
gsave
/o {
gsave
newpath
translate
0.5 setlinewidth
1 setlinejoin
0 setlinecap
0 0 m
4 0 l

gsave
0.000 setgray
fill
grestore
stroke
grestore
} bind def
178.848 545.479 o
grestore
gsave
/o {
gsave
newpath
translate
0.5 setlinewidth
1 setlinejoin
0 setlinecap
0 0 m
-4 0 l

gsave
0.000 setgray
fill
grestore
stroke
grestore
} bind def
563.04 545.479 o
grestore
gsave
128.128750 542.330108 translate
0.000000 rotate
0.000000 0.000000 m /m glyphshow
11.689453 0.000000 m /u glyphshow
19.294922 0.000000 m /underscore glyphshow
25.294922 0.000000 m /i glyphshow
28.628906 0.000000 m /d glyphshow
36.246094 0.000000 m /s glyphshow
42.498047 0.000000 m /f glyphshow
grestore
gsave
/o {
gsave
newpath
translate
0.5 setlinewidth
1 setlinejoin
0 setlinecap
0 0 m
4 0 l

gsave
0.000 setgray
fill
grestore
stroke
grestore
} bind def
178.848 560.029 o
grestore
gsave
/o {
gsave
newpath
translate
0.5 setlinewidth
1 setlinejoin
0 setlinecap
0 0 m
-4 0 l

gsave
0.000 setgray
fill
grestore
stroke
grestore
} bind def
563.04 560.029 o
grestore
gsave
101.300625 556.880653 translate
0.000000 rotate
0.000000 0.000000 m /f glyphshow
4.224609 0.000000 m /l glyphshow
7.558594 0.000000 m /a glyphshow
14.912109 0.000000 m /v glyphshow
22.013672 0.000000 m /o glyphshow
29.355469 0.000000 m /r glyphshow
34.289062 0.000000 m /underscore glyphshow
40.289062 0.000000 m /c glyphshow
46.886719 0.000000 m /o glyphshow
54.228516 0.000000 m /m glyphshow
65.917969 0.000000 m /p glyphshow
grestore
gsave
/o {
gsave
newpath
translate
0.5 setlinewidth
1 setlinejoin
0 setlinecap
0 0 m
4 0 l

gsave
0.000 setgray
fill
grestore
stroke
grestore
} bind def
178.848 574.58 o
grestore
gsave
/o {
gsave
newpath
translate
0.5 setlinewidth
1 setlinejoin
0 setlinecap
0 0 m
-4 0 l

gsave
0.000 setgray
fill
grestore
stroke
grestore
} bind def
563.04 574.58 o
grestore
gsave
78.175625 571.267136 translate
0.000000 rotate
0.000000 0.000000 m /j glyphshow
3.333984 0.000000 m /e glyphshow
10.716797 0.000000 m /s glyphshow
16.968750 0.000000 m /e glyphshow
24.351562 0.000000 m /f glyphshow
28.576172 0.000000 m /f glyphshow
32.800781 0.000000 m /e glyphshow
40.183594 0.000000 m /c glyphshow
46.781250 0.000000 m /t glyphshow
51.486328 0.000000 m /i glyphshow
54.820312 0.000000 m /v glyphshow
61.921875 0.000000 m /e glyphshow
69.304688 0.000000 m /d glyphshow
76.921875 0.000000 m /e glyphshow
84.304688 0.000000 m /t glyphshow
89.009766 0.000000 m /one glyphshow
grestore
gsave
/o {
gsave
newpath
translate
0.5 setlinewidth
1 setlinejoin
0 setlinecap
0 0 m
4 0 l

gsave
0.000 setgray
fill
grestore
stroke
grestore
} bind def
178.848 589.13 o
grestore
gsave
/o {
gsave
newpath
translate
0.5 setlinewidth
1 setlinejoin
0 setlinecap
0 0 m
-4 0 l

gsave
0.000 setgray
fill
grestore
stroke
grestore
} bind def
563.04 589.13 o
grestore
gsave
78.175625 585.817682 translate
0.000000 rotate
0.000000 0.000000 m /j glyphshow
3.333984 0.000000 m /e glyphshow
10.716797 0.000000 m /s glyphshow
16.968750 0.000000 m /e glyphshow
24.351562 0.000000 m /f glyphshow
28.576172 0.000000 m /f glyphshow
32.800781 0.000000 m /e glyphshow
40.183594 0.000000 m /c glyphshow
46.781250 0.000000 m /t glyphshow
51.486328 0.000000 m /i glyphshow
54.820312 0.000000 m /v glyphshow
61.921875 0.000000 m /e glyphshow
69.304688 0.000000 m /d glyphshow
76.921875 0.000000 m /e glyphshow
84.304688 0.000000 m /t glyphshow
89.009766 0.000000 m /two glyphshow
grestore
gsave
/o {
gsave
newpath
translate
0.5 setlinewidth
1 setlinejoin
0 setlinecap
0 0 m
4 0 l

gsave
0.000 setgray
fill
grestore
stroke
grestore
} bind def
178.848 603.681 o
grestore
gsave
/o {
gsave
newpath
translate
0.5 setlinewidth
1 setlinejoin
0 setlinecap
0 0 m
-4 0 l

gsave
0.000 setgray
fill
grestore
stroke
grestore
} bind def
563.04 603.681 o
grestore
gsave
78.175625 600.368227 translate
0.000000 rotate
0.000000 0.000000 m /j glyphshow
3.333984 0.000000 m /e glyphshow
10.716797 0.000000 m /s glyphshow
16.968750 0.000000 m /e glyphshow
24.351562 0.000000 m /f glyphshow
28.576172 0.000000 m /f glyphshow
32.800781 0.000000 m /e glyphshow
40.183594 0.000000 m /c glyphshow
46.781250 0.000000 m /t glyphshow
51.486328 0.000000 m /i glyphshow
54.820312 0.000000 m /v glyphshow
61.921875 0.000000 m /e glyphshow
69.304688 0.000000 m /d glyphshow
76.921875 0.000000 m /e glyphshow
84.304688 0.000000 m /t glyphshow
89.009766 0.000000 m /three glyphshow
grestore
gsave
/o {
gsave
newpath
translate
0.5 setlinewidth
1 setlinejoin
0 setlinecap
0 0 m
4 0 l

gsave
0.000 setgray
fill
grestore
stroke
grestore
} bind def
178.848 618.231 o
grestore
gsave
/o {
gsave
newpath
translate
0.5 setlinewidth
1 setlinejoin
0 setlinecap
0 0 m
-4 0 l

gsave
0.000 setgray
fill
grestore
stroke
grestore
} bind def
563.04 618.231 o
grestore
gsave
119.613125 615.082835 translate
0.000000 rotate
0.000000 0.000000 m /p glyphshow
7.617188 0.000000 m /i glyphshow
10.951172 0.000000 m /l glyphshow
14.285156 0.000000 m /e glyphshow
21.667969 0.000000 m /u glyphshow
29.273438 0.000000 m /p glyphshow
36.890625 0.000000 m /underscore glyphshow
42.890625 0.000000 m /p glyphshow
50.507812 0.000000 m /t glyphshow
grestore
gsave
/o {
gsave
newpath
translate
0.5 setlinewidth
1 setlinejoin
0 setlinecap
0 0 m
4 0 l

gsave
0.000 setgray
fill
grestore
stroke
grestore
} bind def
178.848 632.782 o
grestore
gsave
/o {
gsave
newpath
translate
0.5 setlinewidth
1 setlinejoin
0 setlinecap
0 0 m
-4 0 l

gsave
0.000 setgray
fill
grestore
stroke
grestore
} bind def
563.04 632.782 o
grestore
gsave
79.753750 629.633381 translate
0.000000 rotate
0.000000 0.000000 m /f glyphshow
4.224609 0.000000 m /l glyphshow
7.558594 0.000000 m /a glyphshow
14.912109 0.000000 m /v glyphshow
22.013672 0.000000 m /o glyphshow
29.355469 0.000000 m /r glyphshow
34.289062 0.000000 m /underscore glyphshow
40.289062 0.000000 m /r glyphshow
45.222656 0.000000 m /e glyphshow
52.605469 0.000000 m /s glyphshow
58.857422 0.000000 m /p glyphshow
66.474609 0.000000 m /o glyphshow
73.816406 0.000000 m /n glyphshow
81.421875 0.000000 m /s glyphshow
87.673828 0.000000 m /e glyphshow
grestore
gsave
/o {
gsave
newpath
translate
0.5 setlinewidth
1 setlinejoin
0 setlinecap
0 0 m
4 0 l

gsave
0.000 setgray
fill
grestore
stroke
grestore
} bind def
178.848 647.332 o
grestore
gsave
/o {
gsave
newpath
translate
0.5 setlinewidth
1 setlinejoin
0 setlinecap
0 0 m
-4 0 l

gsave
0.000 setgray
fill
grestore
stroke
grestore
} bind def
563.04 647.332 o
grestore
gsave
120.160000 644.183926 translate
0.000000 rotate
0.000000 0.000000 m /m glyphshow
11.689453 0.000000 m /u glyphshow
19.294922 0.000000 m /underscore glyphshow
25.294922 0.000000 m /r glyphshow
30.228516 0.000000 m /e glyphshow
37.611328 0.000000 m /c glyphshow
44.208984 0.000000 m /s glyphshow
50.460938 0.000000 m /f glyphshow
grestore
gsave
/o {
gsave
newpath
translate
0.5 setlinewidth
1 setlinejoin
0 setlinecap
0 0 m
4 0 l

gsave
0.000 setgray
fill
grestore
stroke
grestore
} bind def
178.848 661.883 o
grestore
gsave
/o {
gsave
newpath
translate
0.5 setlinewidth
1 setlinejoin
0 setlinecap
0 0 m
-4 0 l

gsave
0.000 setgray
fill
grestore
stroke
grestore
} bind def
563.04 661.883 o
grestore
gsave
121.253750 658.570409 translate
0.000000 rotate
0.000000 0.000000 m /c glyphshow
6.597656 0.000000 m /t glyphshow
11.302734 0.000000 m /a glyphshow
18.656250 0.000000 m /u glyphshow
26.261719 0.000000 m /t glyphshow
30.966797 0.000000 m /a glyphshow
38.320312 0.000000 m /g glyphshow
45.937500 0.000000 m /three glyphshow
grestore
gsave
/o {
gsave
newpath
translate
0.5 setlinewidth
1 setlinejoin
0 setlinecap
0 0 m
4 0 l

gsave
0.000 setgray
fill
grestore
stroke
grestore
} bind def
178.848 676.433 o
grestore
gsave
/o {
gsave
newpath
translate
0.5 setlinewidth
1 setlinejoin
0 setlinecap
0 0 m
-4 0 l

gsave
0.000 setgray
fill
grestore
stroke
grestore
} bind def
563.04 676.433 o
grestore
gsave
121.253750 673.120955 translate
0.000000 rotate
0.000000 0.000000 m /c glyphshow
6.597656 0.000000 m /t glyphshow
11.302734 0.000000 m /a glyphshow
18.656250 0.000000 m /u glyphshow
26.261719 0.000000 m /t glyphshow
30.966797 0.000000 m /a glyphshow
38.320312 0.000000 m /g glyphshow
45.937500 0.000000 m /two glyphshow
grestore
gsave
/o {
gsave
newpath
translate
0.5 setlinewidth
1 setlinejoin
0 setlinecap
0 0 m
4 0 l

gsave
0.000 setgray
fill
grestore
stroke
grestore
} bind def
178.848 690.984 o
grestore
gsave
/o {
gsave
newpath
translate
0.5 setlinewidth
1 setlinejoin
0 setlinecap
0 0 m
-4 0 l

gsave
0.000 setgray
fill
grestore
stroke
grestore
} bind def
563.04 690.984 o
grestore
gsave
121.253750 687.671500 translate
0.000000 rotate
0.000000 0.000000 m /c glyphshow
6.597656 0.000000 m /t glyphshow
11.302734 0.000000 m /a glyphshow
18.656250 0.000000 m /u glyphshow
26.261719 0.000000 m /t glyphshow
30.966797 0.000000 m /a glyphshow
38.320312 0.000000 m /g glyphshow
45.937500 0.000000 m /one glyphshow
grestore
gsave
/o {
gsave
newpath
translate
0.5 setlinewidth
1 setlinejoin
0 setlinecap
0 0 m
4 0 l

gsave
0.000 setgray
fill
grestore
stroke
grestore
} bind def
178.848 705.535 o
grestore
gsave
/o {
gsave
newpath
translate
0.5 setlinewidth
1 setlinejoin
0 setlinecap
0 0 m
-4 0 l

gsave
0.000 setgray
fill
grestore
stroke
grestore
} bind def
563.04 705.535 o
grestore
gsave
121.253750 702.222045 translate
0.000000 rotate
0.000000 0.000000 m /c glyphshow
6.597656 0.000000 m /t glyphshow
11.302734 0.000000 m /a glyphshow
18.656250 0.000000 m /u glyphshow
26.261719 0.000000 m /t glyphshow
30.966797 0.000000 m /a glyphshow
38.320312 0.000000 m /g glyphshow
45.937500 0.000000 m /zero glyphshow
grestore
gsave
/o {
gsave
newpath
translate
0.5 setlinewidth
1 setlinejoin
0 setlinecap
0 0 m
4 0 l

gsave
0.000 setgray
fill
grestore
stroke
grestore
} bind def
178.848 720.085 o
grestore
gsave
/o {
gsave
newpath
translate
0.5 setlinewidth
1 setlinejoin
0 setlinecap
0 0 m
-4 0 l

gsave
0.000 setgray
fill
grestore
stroke
grestore
} bind def
563.04 720.085 o
grestore
gsave
113.644375 716.936653 translate
0.000000 rotate
0.000000 0.000000 m /s glyphshow
6.251953 0.000000 m /i glyphshow
9.585938 0.000000 m /n glyphshow
17.191406 0.000000 m /g glyphshow
24.808594 0.000000 m /l glyphshow
28.142578 0.000000 m /e glyphshow
35.525391 0.000000 m /underscore glyphshow
41.525391 0.000000 m /t glyphshow
46.230469 0.000000 m /o glyphshow
53.572266 0.000000 m /p glyphshow
grestore
gsave
/o {
gsave
newpath
translate
0.5 setlinewidth
1 setlinejoin
0 setlinecap
0 0 m
4 0 l

gsave
0.000 setgray
fill
grestore
stroke
grestore
} bind def
178.848 734.636 o
grestore
gsave
/o {
gsave
newpath
translate
0.5 setlinewidth
1 setlinejoin
0 setlinecap
0 0 m
-4 0 l

gsave
0.000 setgray
fill
grestore
stroke
grestore
} bind def
563.04 734.636 o
grestore
gsave
121.253750 731.323136 translate
0.000000 rotate
0.000000 0.000000 m /c glyphshow
6.597656 0.000000 m /t glyphshow
11.302734 0.000000 m /a glyphshow
18.656250 0.000000 m /u glyphshow
26.261719 0.000000 m /t glyphshow
30.966797 0.000000 m /a glyphshow
38.320312 0.000000 m /g glyphshow
45.937500 0.000000 m /five glyphshow
grestore
gsave
/o {
gsave
newpath
translate
0.5 setlinewidth
1 setlinejoin
0 setlinecap
0 0 m
4 0 l

gsave
0.000 setgray
fill
grestore
stroke
grestore
} bind def
178.848 749.186 o
grestore
gsave
/o {
gsave
newpath
translate
0.5 setlinewidth
1 setlinejoin
0 setlinecap
0 0 m
-4 0 l

gsave
0.000 setgray
fill
grestore
stroke
grestore
} bind def
563.04 749.186 o
grestore
gsave
121.253750 745.873682 translate
0.000000 rotate
0.000000 0.000000 m /c glyphshow
6.597656 0.000000 m /t glyphshow
11.302734 0.000000 m /a glyphshow
18.656250 0.000000 m /u glyphshow
26.261719 0.000000 m /t glyphshow
30.966797 0.000000 m /a glyphshow
38.320312 0.000000 m /g glyphshow
45.937500 0.000000 m /four glyphshow
grestore
gsave
/o {
gsave
newpath
translate
0.5 setlinewidth
1 setlinejoin
0 setlinecap
0 0 m
4 0 l

gsave
0.000 setgray
fill
grestore
stroke
grestore
} bind def
178.848 763.737 o
grestore
gsave
/o {
gsave
newpath
translate
0.5 setlinewidth
1 setlinejoin
0 setlinecap
0 0 m
-4 0 l

gsave
0.000 setgray
fill
grestore
stroke
grestore
} bind def
563.04 763.737 o
grestore
gsave
74.878750 760.424227 translate
0.000000 rotate
0.000000 0.000000 m /j glyphshow
3.333984 0.000000 m /e glyphshow
10.716797 0.000000 m /s glyphshow
16.968750 0.000000 m /e glyphshow
24.351562 0.000000 m /f glyphshow
28.576172 0.000000 m /f glyphshow
32.800781 0.000000 m /e glyphshow
40.183594 0.000000 m /c glyphshow
46.781250 0.000000 m /t glyphshow
51.486328 0.000000 m /i glyphshow
54.820312 0.000000 m /v glyphshow
61.921875 0.000000 m /e glyphshow
69.304688 0.000000 m /s glyphshow
75.556641 0.000000 m /t glyphshow
80.261719 0.000000 m /a glyphshow
87.615234 0.000000 m /t glyphshow
92.320312 0.000000 m /four glyphshow
grestore
gsave
/o {
gsave
newpath
translate
0.5 setlinewidth
1 setlinejoin
0 setlinecap
0 0 m
4 0 l

gsave
0.000 setgray
fill
grestore
stroke
grestore
} bind def
178.848 778.287 o
grestore
gsave
/o {
gsave
newpath
translate
0.5 setlinewidth
1 setlinejoin
0 setlinecap
0 0 m
-4 0 l

gsave
0.000 setgray
fill
grestore
stroke
grestore
} bind def
563.04 778.287 o
grestore
gsave
13.456875 774.974773 translate
0.000000 rotate
0.000000 0.000000 m /e glyphshow
7.382812 0.000000 m /t glyphshow
12.087891 0.000000 m /a glyphshow
19.441406 0.000000 m /i glyphshow
22.775391 0.000000 m /n glyphshow
30.380859 0.000000 m /t glyphshow
35.085938 0.000000 m /e glyphshow
42.468750 0.000000 m /r glyphshow
47.402344 0.000000 m /c glyphshow
54.000000 0.000000 m /a glyphshow
61.353516 0.000000 m /l glyphshow
64.687500 0.000000 m /i glyphshow
68.021484 0.000000 m /b glyphshow
75.638672 0.000000 m /r glyphshow
80.572266 0.000000 m /a glyphshow
87.925781 0.000000 m /t glyphshow
92.630859 0.000000 m /i glyphshow
95.964844 0.000000 m /o glyphshow
103.306641 0.000000 m /n glyphshow
110.912109 0.000000 m /t glyphshow
115.617188 0.000000 m /o glyphshow
122.958984 0.000000 m /t glyphshow
127.664062 0.000000 m /a glyphshow
135.017578 0.000000 m /l glyphshow
138.351562 0.000000 m /s glyphshow
144.603516 0.000000 m /t glyphshow
149.308594 0.000000 m /a glyphshow
156.662109 0.000000 m /t glyphshow
grestore
gsave
/o {
gsave
newpath
translate
0.5 setlinewidth
1 setlinejoin
0 setlinecap
0 0 m
4 0 l

gsave
0.000 setgray
fill
grestore
stroke
grestore
} bind def
178.848 792.838 o
grestore
gsave
/o {
gsave
newpath
translate
0.5 setlinewidth
1 setlinejoin
0 setlinecap
0 0 m
-4 0 l

gsave
0.000 setgray
fill
grestore
stroke
grestore
} bind def
563.04 792.838 o
grestore
gsave
74.878750 789.525318 translate
0.000000 rotate
0.000000 0.000000 m /j glyphshow
3.333984 0.000000 m /e glyphshow
10.716797 0.000000 m /s glyphshow
16.968750 0.000000 m /e glyphshow
24.351562 0.000000 m /f glyphshow
28.576172 0.000000 m /f glyphshow
32.800781 0.000000 m /e glyphshow
40.183594 0.000000 m /c glyphshow
46.781250 0.000000 m /t glyphshow
51.486328 0.000000 m /i glyphshow
54.820312 0.000000 m /v glyphshow
61.921875 0.000000 m /e glyphshow
69.304688 0.000000 m /s glyphshow
75.556641 0.000000 m /t glyphshow
80.261719 0.000000 m /a glyphshow
87.615234 0.000000 m /t glyphshow
92.320312 0.000000 m /one glyphshow
grestore
gsave
/o {
gsave
newpath
translate
0.5 setlinewidth
1 setlinejoin
0 setlinecap
0 0 m
4 0 l

gsave
0.000 setgray
fill
grestore
stroke
grestore
} bind def
178.848 807.388 o
grestore
gsave
/o {
gsave
newpath
translate
0.5 setlinewidth
1 setlinejoin
0 setlinecap
0 0 m
-4 0 l

gsave
0.000 setgray
fill
grestore
stroke
grestore
} bind def
563.04 807.388 o
grestore
gsave
74.878750 804.075864 translate
0.000000 rotate
0.000000 0.000000 m /j glyphshow
3.333984 0.000000 m /e glyphshow
10.716797 0.000000 m /s glyphshow
16.968750 0.000000 m /e glyphshow
24.351562 0.000000 m /f glyphshow
28.576172 0.000000 m /f glyphshow
32.800781 0.000000 m /e glyphshow
40.183594 0.000000 m /c glyphshow
46.781250 0.000000 m /t glyphshow
51.486328 0.000000 m /i glyphshow
54.820312 0.000000 m /v glyphshow
61.921875 0.000000 m /e glyphshow
69.304688 0.000000 m /s glyphshow
75.556641 0.000000 m /t glyphshow
80.261719 0.000000 m /a glyphshow
87.615234 0.000000 m /t glyphshow
92.320312 0.000000 m /two glyphshow
grestore
gsave
/o {
gsave
newpath
translate
0.5 setlinewidth
1 setlinejoin
0 setlinecap
0 0 m
4 0 l

gsave
0.000 setgray
fill
grestore
stroke
grestore
} bind def
178.848 821.939 o
grestore
gsave
/o {
gsave
newpath
translate
0.5 setlinewidth
1 setlinejoin
0 setlinecap
0 0 m
-4 0 l

gsave
0.000 setgray
fill
grestore
stroke
grestore
} bind def
563.04 821.939 o
grestore
gsave
121.472500 818.626409 translate
0.000000 rotate
0.000000 0.000000 m /d glyphshow
7.617188 0.000000 m /i glyphshow
10.951172 0.000000 m /b glyphshow
18.568359 0.000000 m /o glyphshow
25.910156 0.000000 m /s glyphshow
32.162109 0.000000 m /o glyphshow
39.503906 0.000000 m /n glyphshow
47.109375 0.000000 m /s glyphshow
grestore
gsave
/o {
gsave
newpath
translate
0.5 setlinewidth
1 setlinejoin
0 setlinecap
0 0 m
4 0 l

gsave
0.000 setgray
fill
grestore
stroke
grestore
} bind def
178.848 836.489 o
grestore
gsave
/o {
gsave
newpath
translate
0.5 setlinewidth
1 setlinejoin
0 setlinecap
0 0 m
-4 0 l

gsave
0.000 setgray
fill
grestore
stroke
grestore
} bind def
563.04 836.489 o
grestore
gsave
139.894375 833.176955 translate
0.000000 rotate
0.000000 0.000000 m /b glyphshow
7.617188 0.000000 m /t glyphshow
12.322266 0.000000 m /a glyphshow
19.675781 0.000000 m /g glyphshow
27.292969 0.000000 m /six glyphshow
grestore
1.000 setlinewidth
0 setlinejoin
gsave
419.578125 756.5325 m
555.84 756.5325 l
555.84 843.84 l
419.578125 843.84 l
cl
gsave
1.000 setgray
fill
grestore
stroke
grestore
1 setlinejoin
1.000 0.000 0.000 setrgbcolor
gsave
432.538125 832.479375 m
446.938125 832.479375 l
stroke
grestore
0.500 setlinewidth
gsave
/o {
gsave
newpath
translate
0.5 setlinewidth
1 setlinejoin
0 setlinecap
0 -3 m
0 3 l

gsave
1.000 0.000 0.000 setrgbcolor
fill
grestore
stroke
grestore
} bind def
432.538 832.479 o
grestore
gsave
/o {
gsave
newpath
translate
0.5 setlinewidth
1 setlinejoin
0 setlinecap
0 -3 m
0 3 l

gsave
1.000 0.000 0.000 setrgbcolor
fill
grestore
stroke
grestore
} bind def
446.938 832.479 o
grestore
0.000 setgray
gsave
/o {
gsave
newpath
translate
0.5 setlinewidth
1 setlinejoin
0 setlinecap
0 -3 m
0.795609 -3 1.55874 -2.683901 2.12132 -2.12132 c
2.683901 -1.55874 3 -0.795609 3 0 c
3 0.795609 2.683901 1.55874 2.12132 2.12132 c
1.55874 2.683901 0.795609 3 0 3 c
-0.795609 3 -1.55874 2.683901 -2.12132 2.12132 c
-2.683901 1.55874 -3 0.795609 -3 0 c
-3 -0.795609 -2.683901 -1.55874 -2.12132 -2.12132 c
-1.55874 -2.683901 -0.795609 -3 0 -3 c
cl

gsave
1.000 0.000 0.000 setrgbcolor
fill
grestore
stroke
grestore
} bind def
439.738 832.479 o
grestore
/BitstreamVeraSans-Roman findfont
14.400 scalefont
setfont
gsave
465.658125 827.439375 translate
0.000000 rotate
0.000000 0.000000 m /D glyphshow
11.081055 0.000000 m /a glyphshow
19.899521 0.000000 m /t glyphshow
25.541931 0.000000 m /a glyphshow
grestore
1.000 setlinewidth
gsave
432.538125 811.7325 m
446.938125 811.7325 l
stroke
grestore
0.500 setlinewidth
gsave
/o {
gsave
newpath
translate
0.5 setlinewidth
1 setlinejoin
0 setlinecap
0 -3 m
0 3 l

gsave
0.000 setgray
fill
grestore
stroke
grestore
} bind def
432.538 811.732 o
grestore
gsave
/o {
gsave
newpath
translate
0.5 setlinewidth
1 setlinejoin
0 setlinecap
0 -3 m
0 3 l

gsave
0.000 setgray
fill
grestore
stroke
grestore
} bind def
446.938 811.732 o
grestore
gsave
/o {
gsave
newpath
translate
0.5 setlinewidth
1 setlinejoin
0 setlinecap
0 -3 m
0.795609 -3 1.55874 -2.683901 2.12132 -2.12132 c
2.683901 -1.55874 3 -0.795609 3 0 c
3 0.795609 2.683901 1.55874 2.12132 2.12132 c
1.55874 2.683901 0.795609 3 0 3 c
-0.795609 3 -1.55874 2.683901 -2.12132 2.12132 c
-2.683901 1.55874 -3 0.795609 -3 0 c
-3 -0.795609 -2.683901 -1.55874 -2.12132 -2.12132 c
-1.55874 -2.683901 -0.795609 -3 0 -3 c
cl

gsave
0.000 setgray
fill
grestore
stroke
grestore
} bind def
439.738 811.732 o
grestore
gsave
465.658125 806.692500 translate
0.000000 rotate
0.000000 0.000000 m /P glyphshow
8.677933 0.000000 m /s glyphshow
16.175385 0.000000 m /e glyphshow
25.028992 0.000000 m /u glyphshow
34.149612 0.000000 m /d glyphshow
43.284286 0.000000 m /o glyphshow
52.088699 0.000000 m /d glyphshow
61.223373 0.000000 m /a glyphshow
70.041840 0.000000 m /t glyphshow
75.684250 0.000000 m /a glyphshow
grestore
1.000 setlinewidth
0 setlinejoin
gsave
425.338125 785.945625 m
454.138125 785.945625 l
454.138125 796.025625 l
425.338125 796.025625 l
cl
gsave
0.000 1.000 0.000 setrgbcolor
fill
grestore
stroke
grestore
gsave
465.658125 785.945625 translate
0.000000 rotate
/Cmsy10 findfont
14.4 scalefont
setfont
0.000000 0.421875 moveto
/plusminus glyphshow

/Cmr10 findfont
14.4 scalefont
setfont
11.179428 0.421875 moveto
/one glyphshow

/Cmmi10 findfont
14.4 scalefont
setfont
18.374741 0.421875 moveto
/sigma glyphshow

/BitstreamVeraSans-Roman findfont
14.4 scalefont
setfont
26.588913 0.421875 moveto
/space glyphshow


grestore
gsave
425.338125 765.19875 m
454.138125 765.19875 l
454.138125 775.27875 l
425.338125 775.27875 l
cl
gsave
0.969 0.996 0.180 setrgbcolor
fill
grestore
stroke
grestore
gsave
465.658125 765.198750 translate
0.000000 rotate
/Cmsy10 findfont
14.4 scalefont
setfont
0.000000 0.421875 moveto
/plusminus glyphshow

/Cmr10 findfont
14.4 scalefont
setfont
11.179428 0.421875 moveto
/two glyphshow

/Cmmi10 findfont
14.4 scalefont
setfont
18.374741 0.421875 moveto
/sigma glyphshow


grestore

end
showpage
